Division,WeightClassKg,Place,Name,Team,BodyweightKg,Best3SquatKg,Best3BenchKg,Best3DeadliftKg,TotalKg,Equipment,Event,Sex,BirthDate
Girls,44.23,1,Arabella Campo,Abilene,43.5,81.65,36.29,102.06,219.99,Unlimited,SBD,F,
Girls,44.23,2,Celina Lugo,Odessa,41.55,63.5,31.75,79.38,174.63,Unlimited,SBD,F,
Girls,47.85,1,Kyla Barauskas,Midland Legacy,46.9,97.52,49.9,99.79,247.21,Unlimited,SBD,F,
Girls,47.85,2,Aevrie Alvarez,Lubbock,46.99,97.52,47.63,88.45,233.6,Unlimited,SBD,F,
Girls,47.85,3,Emerie Pharr,Wolfforth Frenship,47.49,79.38,38.56,81.65,199.58,Unlimited,SBD,F,
Girls,47.85,4,Sophia McDermett,Wolfforth Frenship,46.67,58.97,31.75,79.38,170.1,Unlimited,SBD,F,
Girls,47.85,5,Jazmine Acosta,Odessa,46.36,65.77,31.75,70.31,167.83,Unlimited,SBD,F,
Girls,47.85,DQ,Josephine Guerra,Odessa,45.54,,,,,Unlimited,SBD,F,
Girls,47.85,DQ,Savannah Iannazzi,Abilene,47.76,79.38,36.29,,,Unlimited,SBD,F,
Girls,47.85,DQ,Desiree Mireles,Midland Legacy,46.99,,,,,Unlimited,SBD,F,
Girls,47.85,DQ,Avery Owen,Abilene Wylie,46.9,70.31,,,,Unlimited,SBD,F,
Girls,51.94,1,Sarah Nevares,Plainview,51.75,124.74,68.04,113.4,306.17,Unlimited,SBD,F,
Girls,51.94,2,Kiley Landeros,Abilene Wylie,50.85,122.47,70.31,108.86,301.64,Unlimited,SBD,F,
Girls,51.94,3,Jocelyn Sandoval,Odessa Permian,51.57,115.67,61.23,117.93,294.84,Unlimited,SBD,F,
Girls,51.94,4,Leah Brown,Midland Legacy,51.66,90.72,63.5,124.74,278.96,Unlimited,SBD,F,
Girls,51.94,5,Elianna Saenz,Plainview,51.57,99.79,40.82,95.25,235.87,Unlimited,SBD,F,
Girls,51.94,6,Sydney Dutchover,Odessa,48.9,90.72,40.82,90.72,222.26,Unlimited,SBD,F,
Girls,51.94,7,Lesly Pallares,Odessa,49.53,90.72,36.29,90.72,217.72,Unlimited,SBD,F,
Girls,51.94,8,Alaire Petrie,Abilene,49.85,86.18,40.82,88.45,215.46,Unlimited,SBD,F,
Girls,51.94,9,Aiyana Payen,Odessa,51.89,79.38,38.56,72.57,190.51,Unlimited,SBD,F,
Girls,51.94,10,Summer Handley,Abilene,49.53,52.16,29.48,77.11,158.76,Unlimited,SBD,F,
Girls,51.94,DQ,Christy Chicas,Midland Legacy,51.71,,,,,Unlimited,SBD,F,
Girls,56.02,1,Jaylen Dehoyas,San Angelo Central,55.52,183.7,83.91,170.1,437.72,Unlimited,SBD,F,
Girls,56.02,2,Victoria Reyes #2,Midland,54.88,138.35,63.5,142.88,344.73,Unlimited,SBD,F,
Girls,56.02,3,Kambree Ferguson,Lubbock Cooper,55.34,131.54,77.11,115.67,324.32,Unlimited,SBD,F,
Girls,56.02,4,Avah Luna,Abilene Wylie,54.34,106.59,74.84,136.08,317.51,Unlimited,SBD,F,
Girls,56.02,5,Hannah Ooppapan,Odessa,55.29,108.86,56.7,108.86,274.42,Unlimited,SBD,F,
Girls,56.02,6,Jada Robinson,Midland Legacy,56.02,97.52,52.16,117.93,267.62,Unlimited,SBD,F,
Girls,56.02,7,Alazey Rios,Lubbock Cooper,55.66,108.86,54.43,86.18,249.48,Unlimited,SBD,F,
Girls,56.02,8,Ava Mae Cabrera,Lubbock,55.11,95.25,47.63,104.33,247.21,Unlimited,SBD,F,
Girls,56.02,9,Xyana Connor,Abilene,52.25,90.72,43.09,83.91,217.72,Unlimited,SBD,F,
Girls,56.02,10,Madison Blackwell,Abilene Wylie,55.38,83.91,45.36,88.45,217.72,Unlimited,SBD,F,
Girls,56.02,DQ,Katherine Landin,Wolfforth Frenship,52.03,79.38,36.29,,,Unlimited,SBD,F,
Girls,56.02,DQ,Dakota Borrego,Plainview,53.93,,,,,Unlimited,SBD,F,
Girls,60.1,1,Madison Perez,Lubbock Cooper,57.7,136.08,86.18,133.81,356.07,Unlimited,SBD,F,
Girls,60.1,2,Ashlynn Walker,Abilene Wylie,59.96,124.74,86.18,129.27,340.19,Unlimited,SBD,F,
Girls,60.1,3,Riley Brooks,Abilene Wylie,60.1,136.08,72.57,129.27,337.93,Unlimited,SBD,F,
Girls,60.1,4,Rochely Banuelos,Odessa Permian,58.06,115.67,61.23,131.54,308.44,Unlimited,SBD,F,
Girls,60.1,5,Hannah Escobedo,Wolfforth Frenship,58.42,111.13,74.84,111.13,297.1,Unlimited,SBD,F,
Girls,60.1,6,Ciara Springer,Lubbock,59.6,108.86,74.84,113.4,297.1,Unlimited,SBD,F,
Girls,60.1,7,Nalysa Vega,Wolfforth Frenship,57.74,115.67,61.23,117.93,294.84,Unlimited,SBD,F,
Girls,60.1,8,Kianah Aldaco,Wolfforth Frenship,59.24,104.33,52.16,138.35,294.84,Unlimited,SBD,F,
Girls,60.1,9,Olivia Barrientes,Midland Legacy,57.65,99.79,52.16,124.74,276.69,Unlimited,SBD,F,
Girls,60.1,10,Amya Williams,Abilene,59.6,104.33,49.9,120.2,274.42,Unlimited,SBD,F,
Girls,60.1,11,Deaija Collins,Abilene,56.15,102.06,47.63,113.4,263.08,Unlimited,SBD,F,
Girls,60.1,12,Hailey Gutierrez,Midland,58.38,97.52,61.23,102.06,260.82,Unlimited,SBD,F,
Girls,60.1,13,Emerale Cortez,Abilene,57.83,95.25,52.16,99.79,247.21,Unlimited,SBD,F,
Girls,60.1,14,Kylee Cathey,Abilene Cooper,56.11,99.79,52.16,90.72,242.67,Unlimited,SBD,F,
Girls,60.1,15,Kathryn Montez,Abilene,58.83,92.99,47.63,102.06,242.67,Unlimited,SBD,F,
Girls,60.1,16,Rylie DeLeon,Plainview,58.88,90.72,40.82,88.45,219.99,Unlimited,SBD,F,
Girls,60.1,17,Adamari Villalobos,Midland Legacy,58.2,81.65,52.16,79.38,213.19,Unlimited,SBD,F,
Girls,60.1,18,Johari Ortega,Midland Legacy,58.83,74.84,43.09,86.18,204.12,Unlimited,SBD,F,
Girls,60.1,19,Sophie Schutter,Abilene,58.06,45.36,29.48,65.77,140.61,Unlimited,SBD,F,
Girls,60.1,DQ,Raimey Duncan,San Angelo Central,58.79,,,,,Unlimited,SBD,F,
Girls,60.1,DQ,Isabelle Leonard,Wolfforth Frenship,57.47,,,,,Unlimited,SBD,F,
Girls,60.1,DQ,Lacey Amparan,Wolfforth Frenship,57.52,,,,,Unlimited,SBD,F,
Girls,60.1,DQ,Myka Hurtado,Wolfforth Frenship,58.15,92.99,40.82,,,Unlimited,SBD,F,
Girls,67.36,1,Caitlyn McDonald,Abilene Wylie,65.82,133.81,106.59,131.54,371.95,Unlimited,SBD,F,
Girls,67.36,2,Kaileigh Rickard,Abilene Wylie,66.32,136.08,97.52,122.47,356.07,Unlimited,SBD,F,
Girls,67.36,3,Chloe Wells,Midland,66.5,117.93,70.31,142.88,331.12,Unlimited,SBD,F,
Girls,67.36,4,Lily Serrano,Abilene Wylie,63.91,120.2,65.77,129.27,315.25,Unlimited,SBD,F,
Girls,67.36,5,Madeline Rolon,Abilene Cooper,66.77,133.81,63.5,113.4,310.71,Unlimited,SBD,F,
Girls,67.36,6,Sophia Salinas,Midland,66.04,111.13,63.5,124.74,299.37,Unlimited,SBD,F,
Girls,67.36,7,Madison Herridge,San Angelo Central,64.5,113.4,45.36,129.27,288.03,Unlimited,SBD,F,
Girls,67.36,8,Callee Smith,Abilene Wylie,60.92,115.67,61.23,102.06,278.96,Unlimited,SBD,F,
Girls,67.36,9,Emily Varela,Abilene Wylie,65,113.4,70.31,92.99,276.69,Unlimited,SBD,F,
Girls,67.36,10,Juliana Flores,Wolfforth Frenship,64.91,102.06,45.36,117.93,265.35,Unlimited,SBD,F,
Girls,67.36,11,Liesl Grubbs,Lubbock,65.54,90.72,61.23,113.4,265.35,Unlimited,SBD,F,
Girls,67.36,12,Naomi Pena,Abilene,67.04,102.06,45.36,106.59,254.01,Unlimited,SBD,F,
Girls,67.36,13,Amir Williams,Abilene,65.82,90.72,47.63,113.4,251.74,Unlimited,SBD,F,
Girls,67.36,14,Peyten Jumper,Abilene,66.5,90.72,43.09,95.25,229.06,Unlimited,SBD,F,
Girls,67.36,15,Rae Bryan,Abilene Cooper,62.78,77.11,47.63,102.06,226.8,Unlimited,SBD,F,
Girls,67.36,DQ,Savannah Welton,Odessa Permian,64.86,,,,,Unlimited,SBD,F,
Girls,67.36,DQ,Amanda Banda,Plainview,65.5,,,,,Unlimited,SBD,F,
Girls,67.36,DQ,Natalyn Kuhn,Abilene Cooper,60.96,124.74,,,,Unlimited,SBD,F,
Girls,67.36,DQ,Aspen Bird,San Angelo Central,60.69,95.25,,,,Unlimited,SBD,F,
Girls,67.36,DQ,Shelbie Holton,Wolfforth Frenship,60.15,65.77,38.56,,,Unlimited,SBD,F,
Girls,75.07,1,Joelyn Hardy,Abilene Wylie,67.4,188.24,104.33,156.49,449.06,Unlimited,SBD,F,
Girls,75.07,2,Hylan Atwood,Abilene Wylie,72.57,154.22,68.04,136.08,358.34,Unlimited,SBD,F,
Girls,75.07,3,Nana Ampem,Odessa,72.94,142.88,68.04,138.35,349.27,Unlimited,SBD,F,
Girls,75.07,4,Zaybree Sanchez,Plainview,70.94,129.27,49.9,131.54,310.71,Unlimited,SBD,F,
Girls,75.07,5,Claire McDonald,Wolfforth Frenship,71.12,136.08,52.16,122.47,310.71,Unlimited,SBD,F,
Girls,75.07,6,Aubrey Martin,Midland,71.67,104.33,68.04,127.01,299.37,Unlimited,SBD,F,
Girls,75.07,7,Alayna Lloyd,Abilene,69.04,122.47,58.97,113.4,294.84,Unlimited,SBD,F,
Girls,75.07,8,Alexis Trevino,Lubbock Cooper,74.84,111.13,61.23,122.47,294.84,Unlimited,SBD,F,
Girls,75.07,9,Briana Rosas,Plainview,71.44,120.2,52.16,120.2,292.57,Unlimited,SBD,F,
Girls,75.07,10,Analei Vasquez,Plainview,69.54,115.67,54.43,120.2,290.3,Unlimited,SBD,F,
Girls,75.07,11,Nayeli Quintero,Abilene Wylie,70.67,106.59,65.77,108.86,281.23,Unlimited,SBD,F,
Girls,75.07,12,Ava Gutierrez,San Angelo Central,72.89,120.2,61.23,99.79,281.23,Unlimited,SBD,F,
Girls,75.07,13,Jocelyn Hinojosa,Wolfforth Frenship,72.98,108.86,61.23,111.13,281.23,Unlimited,SBD,F,
Girls,75.07,14,Jayden Ochoa,Abilene Cooper,67.9,106.59,68.04,102.06,276.69,Unlimited,SBD,F,
Girls,75.07,15,Gabbanelli Laureles,Abilene,72.57,124.74,43.09,104.33,272.16,Unlimited,SBD,F,
Girls,75.07,16,Megan Williamson,Lubbock Cooper,72.12,81.65,61.23,97.52,240.4,Unlimited,SBD,F,
Girls,75.07,17,Makayla Smith,Midland Legacy,68.81,83.91,49.9,92.99,226.8,Unlimited,SBD,F,
Girls,75.07,18,Olivia Harris,Midland Legacy,70.85,92.99,43.09,88.45,224.53,Unlimited,SBD,F,
Girls,75.07,19,Alex Townley,Lubbock,67.9,83.91,45.36,83.91,213.19,Unlimited,SBD,F,
Girls,75.07,20,Madeline Owen,Abilene,70.44,74.84,31.75,88.45,195.04,Unlimited,SBD,F,
Girls,75.07,DQ,Gilanie Lushika,Abilene Cooper,71.3,,,,,Unlimited,SBD,F,
Girls,75.07,DQ,Aalyssa Rodriguez,Plainview,73.21,,,,,Unlimited,SBD,F,
Girls,75.07,DQ,Anajah Woah,Abilene,72.39,113.4,52.16,,,Unlimited,SBD,F,
Girls,82.33,1,Kylee Barnes,Abilene Wylie,80.56,172.37,74.84,129.27,376.48,Unlimited,SBD,F,
Girls,82.33,2,Aubrey Pulliam,Midland,79.38,124.74,72.57,172.37,369.68,Unlimited,SBD,F,
Girls,82.33,3,Kayla Artega,Plainview,79.74,151.95,70.31,124.74,347,Unlimited,SBD,F,
Girls,82.33,4,Jasman Redwine,Abilene,80.69,136.08,61.23,142.88,340.19,Unlimited,SBD,F,
Girls,82.33,5,Natalia Valles,Odessa,76.7,142.88,61.23,122.47,326.59,Unlimited,SBD,F,
Girls,82.33,6,Mikaila Ruiz,Lubbock,77.75,124.74,77.11,113.4,315.25,Unlimited,SBD,F,
Girls,82.33,7,Mya Duran,Plainview,81.01,138.35,58.97,106.59,303.91,Unlimited,SBD,F,
Girls,82.33,8,Ahnysha Lowery,Midland Legacy,78.38,113.4,65.77,122.47,301.64,Unlimited,SBD,F,
Girls,82.33,9,Kaitlyn Hogan,Lubbock Cooper,80.51,115.67,58.97,122.47,297.1,Unlimited,SBD,F,
Girls,82.33,10,Keagen Blakely,Wolfforth Frenship,81.37,104.33,47.63,129.27,281.23,Unlimited,SBD,F,
Girls,82.33,11,Lilyana Martinez,Abilene Cooper,80.65,106.59,61.23,108.86,276.69,Unlimited,SBD,F,
Girls,82.33,12,Abbie Gutierrez,Lubbock,77.43,99.79,49.9,117.93,267.62,Unlimited,SBD,F,
Girls,82.33,13,Kailey Chavez,Plainview,79.29,108.86,52.16,106.59,267.62,Unlimited,SBD,F,
Girls,82.33,14,Andrea Ornelas,Midland Legacy,75.52,104.33,54.43,102.06,260.82,Unlimited,SBD,F,
Girls,82.33,15,Jocelyn Flores,Plainview,79.38,99.79,52.16,97.52,249.48,Unlimited,SBD,F,
Girls,82.33,16,Bree Bierbaum,Wolfforth Frenship,76.88,106.59,38.56,102.06,247.21,Unlimited,SBD,F,
Girls,82.33,17,Esther Nabintu,Abilene,77.02,99.79,36.29,111.13,247.21,Unlimited,SBD,F,
Girls,82.33,DQ,Kylee Lindley,Abilene Wylie,82.1,,,,,Unlimited,SBD,F,
Girls,82.33,DQ,Kinzlee Tosi,Wolfforth Frenship,77.16,,,,,Unlimited,SBD,F,
Girls,82.33,DQ,Victoria Morha,Midland Legacy,81.06,108.86,,,,Unlimited,SBD,F,
Girls,90.04,1,Valerie Galvan,Plainview,88.95,181.44,95.25,145.15,421.84,Unlimited,SBD,F,
Girls,90.04,2,Dericka Vaughn,Abilene Wylie,86.36,183.7,92.99,142.88,419.57,Unlimited,SBD,F,
Girls,90.04,3,Izabella Granado,Midland,86.41,163.29,83.91,158.76,405.97,Unlimited,SBD,F,
Girls,90.04,4,Franchesca Huey,Plainview,87.63,142.88,72.57,167.83,383.29,Unlimited,SBD,F,
Girls,90.04,5,Jaizlynne Kuhlmann,Odessa Permian,88.77,151.95,83.91,136.08,371.95,Unlimited,SBD,F,
Girls,90.04,6,Dahna Olmos,Abilene Cooper,85.46,145.15,81.65,140.61,367.41,Unlimited,SBD,F,
Girls,90.04,7,Catalina Vasquez,Plainview,85.28,142.88,68.04,113.4,324.32,Unlimited,SBD,F,
Girls,90.04,8,Morgan Neal,Wolfforth Frenship,84.41,129.27,49.9,138.35,317.51,Unlimited,SBD,F,
Girls,90.04,9,Mikiayla Henry,San Angelo Central,83.87,129.27,52.16,131.54,312.98,Unlimited,SBD,F,
Girls,90.04,10,Lillianah Clayton,Plainview,85.28,129.27,56.7,120.2,306.17,Unlimited,SBD,F,
Girls,90.04,11,Julissa Ortiz,Wolfforth Frenship,87.59,127.01,56.7,117.93,301.64,Unlimited,SBD,F,
Girls,90.04,12,Amaya Portillo,Midland Legacy,83.01,111.13,49.9,129.27,290.3,Unlimited,SBD,F,
Girls,90.04,13,Ariel Barksdale,Midland,82.42,104.33,61.23,117.93,283.5,Unlimited,SBD,F,
Girls,90.04,14,Madison Solsbery,San Angelo Central,83.14,92.99,70.31,97.52,260.82,Unlimited,SBD,F,
Girls,100.02,1,Serenity Gildon,Odessa Permian,93.44,183.7,90.72,185.97,460.4,Unlimited,SBD,F,
Girls,100.02,2,Gabriela Hernandez,Wolfforth Frenship,90.22,120.2,68.04,136.08,324.32,Unlimited,SBD,F,
Girls,100.02,3,Mika Ramirez,Midland Legacy,93.08,127.01,65.77,120.2,312.98,Unlimited,SBD,F,
Girls,100.02,4,Veronica Dutchover-Rodriguez,Odessa,90.13,115.67,63.5,131.54,310.71,Unlimited,SBD,F,
Girls,100.02,5,Nevaeh Aleman,Midland,92.44,124.74,72.57,104.33,301.64,Unlimited,SBD,F,
Girls,100.02,6,Joyden Ukelegharanya,Wolfforth Frenship,92.26,115.67,56.7,122.47,294.84,Unlimited,SBD,F,
Girls,100.02,7,Katie Cloud,Abilene Wylie,91.9,108.86,74.84,97.52,281.23,Unlimited,SBD,F,
Girls,100.02,8,Jacqueline Castillo,Lubbock,90.81,95.25,56.7,111.13,263.08,Unlimited,SBD,F,
Girls,100.02,9,Julee Jimenez,Abilene,95.71,102.06,52.16,104.33,258.55,Unlimited,SBD,F,
Girls,100.02,10,Bayleigh Hardin,Abilene,91.08,124.74,65.77,61.23,251.74,Unlimited,SBD,F,
Girls,100.02,11,Adryanna Serrano,Abilene,91.4,102.06,43.09,102.06,247.21,Unlimited,SBD,F,
Girls,100.02,DQ,Neely Smith,Midland,96.3,172.37,99.79,131.54,,Unlimited,SBD,F,
Girls,100.02,DQ,Precious Gomez,Abilene,92.76,117.93,,,,Unlimited,SBD,F,
Girls,100.02,DQ,Kaileah Renouf,Wolfforth Frenship,92.12,122.47,47.63,,,Unlimited,SBD,F,
Girls,110,1,Nohemi Acosta Nave,Odessa,107.27,185.97,97.52,145.15,428.64,Unlimited,SBD,F,
Girls,110,2,Maya Bender,Midland Legacy,109.41,174.63,83.91,158.76,417.3,Unlimited,SBD,F,
Girls,110,3,Chantelle Wahome,Abilene,103.51,136.08,70.31,131.54,337.93,Unlimited,SBD,F,
Girls,110,4,Angel Attipoe,Abilene Cooper,100.7,113.4,74.84,102.06,290.3,Unlimited,SBD,F,
Girls,110,5,Kyra Parker,San Angelo Central,105.64,88.45,52.16,113.4,254.01,Unlimited,SBD,F,
Girls,110+,1,Sydnee Hutto,Plainview,125.15,154.22,90.72,131.54,376.48,Unlimited,SBD,F,
Girls,110+,2,Success Ihediwa,Midland Legacy,126.1,151.95,79.38,140.61,371.95,Unlimited,SBD,F,
Girls,110+,3,Lillianna Gonzalez,Abilene,138.66,147.42,83.91,136.08,367.41,Unlimited,SBD,F,
Girls,110+,4,Danessa Cornish,Wolfforth Frenship,118.48,129.27,65.77,113.4,308.44,Unlimited,SBD,F,
Girls,110+,DQ,DeQuayla Wilson,Lubbock,112.99,,,,,Unlimited,SBD,F,
Girls,110+,DQ,Aida Pena,Odessa,126.01,136.08,81.65,,,Unlimited,SBD,F,
