Name,Country,Sex,BirthYear,Division,WeightClassKg,BodyweightKg,Bench1Kg,Bench2Kg,Bench3Kg,Best3BenchKg,TotalKg,Place,Event,Equipment,BirthDate
Yaroslav Chala,Ukraine,M,1948,Masters 4,105,94.55,105,125,-145,125,125,2,B,Single-ply,
Daribay Ospanov,Kazakhstan,M,1949,Masters 4,83,82,-150,150,157.5,157.5,157.5,1,B,Single-ply,
Claude Couturier,France,M,1952,Masters 4,74,73.35,112.5,120,-125,120,120,2,B,Single-ply,
Inderjit Singh Sabharwal,India,M,1954,Masters 4,83,81.25,122.5,127.5,-130,127.5,127.5,3,B,Single-ply,
Stanisław Mentel,Poland,M,1954,Masters 4,93,91.7,205,210,213.5,213.5,213.5,1,B,Single-ply,
Hiroyuki Kitamura,Japan,M,1954,Masters 4,66,60.1,80,105,-112.5,105,105,1,B,Single-ply,
Kevin Hutchinson,USA,M,1954,Masters 4,105,99.4,130,145,-194,145,145,1,B,Single-ply,
Daniel Sides,USA,M,1956,Masters 3,74,73.3,120,130,137.5,137.5,137.5,3,B,Single-ply,
Voitto Ahopelto,Finland,M,1956,Masters 3,83,82.7,100,-115,-122.5,100,100,6,B,Single-ply,
Martin Heenan,Canada,M,1956,Masters 3,105,102.6,-125,-125,-125,,,DQ,B,Single-ply,
Réjean Talon,Canada,M,1957,Masters 3,66,65.25,117.5,127.5,135,135,135,1,B,Single-ply,
Stephen Flemming,Canada,M,1957,Masters 3,93,91.65,-160,-160,-160,,,DQ,B,Single-ply,
Grzegorz Leski,Poland,M,1958,Masters 3,83,82.05,120,130,-150,130,130,5,B,Single-ply,
Marc Vézina,Canada,M,1958,Masters 3,83,82.05,110,120,132.5,132.5,132.5,4,B,Single-ply,
Bayar Purev,Mongolia,M,1958,Masters 3,74,73.35,120,130,-137.5,130,130,4,B,Single-ply,
John Quinton,Canada,M,1958,Masters 3,120+,144.45,150,-160,-167.5,150,150,4,B,Single-ply,
Osamu Miura,Japan,M,1959,Masters 3,74,72.9,-145,145,-157.5,145,145,2,B,Single-ply,
Tomas Ring,Sweden,M,1960,Masters 3,83,82.7,197.5,205,-216,205,205,1,B,Single-ply,
Andrii Bozhyk,Ukraine,M,1962,Masters 3,105,98.75,115,120,-125,120,120,6,B,Single-ply,
Andy Rigby,UK,M,1962,Masters 3,105,104.75,222.5,227.5,-235,227.5,227.5,3,B,Single-ply,
Frans van der Putten,Netherlands,M,1962,Masters 3,105,100,235,241.5,245,245,245,1,B,Single-ply,
Phil Frost,UK,M,1962,Masters 3,120+,135.25,210,220,237.5,237.5,237.5,2,B,Single-ply,
Makoto Takatori,Japan,M,1962,Masters 3,93,91.7,-135,-135,-135,,,DQ,B,Single-ply,
Miroslav Paukert,Czechia,M,1963,Masters 3,93,92.75,180,-190,-195,180,180,2,B,Single-ply,
Seppo Norpila,Finland,M,1963,Masters 3,93,90.2,-170,-170,-180,,,DQ,B,Single-ply,
Lars Höglander,Sweden,M,1964,Masters 3,93,92.6,-175,175,-180,175,175,3,B,Single-ply,
Hiroshige Araki,Japan,M,1964,Masters 3,105,98.15,175,-222.5,-225,175,175,4,B,Single-ply,
Andy Furnas,USA,M,1964,Masters 3,83,80.25,157.5,165,-180,165,165,2,B,Single-ply,
Jukka Siltanen,Sweden,M,1965,Masters 2,74,72.55,142.5,150,-155,150,150,5,B,Single-ply,
Mario Schnurr,Germany,M,1966,Masters 2,105,101.9,230,-240,-242.5,230,230,2,B,Single-ply,
Volodymyr Moroz,Ukraine,M,1966,Masters 2,59,58.5,95,105,-112.5,105,105,2,B,Single-ply,
Oleksandr Chernyshov,Ukraine,M,1966,Open,66,65.75,165,172.5,-177.5,172.5,172.5,5,B,Single-ply,
François Cazes,Canada,M,1967,Masters 2,74,73.5,100,-107.5,-107.5,100,100,6,B,Single-ply,
Marek Kujawski,Poland,M,1968,Masters 2,74,72.85,165,-172.5,-175,165,165,4,B,Single-ply,
Joe Dibert,USA,M,1969,Masters 2,120+,140.6,-297.5,297.5,-323,297.5,297.5,1,B,Single-ply,
Morten Sørig,Denmark,M,1969,Masters 2,120+,124.1,217.5,225,-235,225,225,4,B,Single-ply,
Vesa Hartikainen,Finland,M,1969,Masters 2,83,82.35,200,-210,-220,200,200,5,B,Single-ply,
Koji Yoshino,Japan,M,1969,Masters 2,59,58.55,130,-150,-150,130,130,1,B,Single-ply,
Miki Sakamoto,Japan,M,1970,Masters 2,74,73.6,165,172.5,-180,172.5,172.5,3,B,Single-ply,
Tomi Vikla,Finland,M,1970,Masters 2,83,82.8,-210,210,-222.5,210,210,4,B,Single-ply,
Darren Ball,UK,M,1970,Masters 2,120+,121.25,230,245,252.5,252.5,252.5,2,B,Single-ply,
Teskhuu Ichinnorov,Mongolia,M,1971,Masters 2,105,103.1,-240,-240,-242.5,,,DQ,B,Single-ply,
Deepak Shreenath Sharma,India,M,1971,Masters 2,120+,132.05,87.5,105,-117.5,105,105,7,B,Single-ply,
Ove Henning Lorentzen,Norway,M,1971,Masters 2,83,81.55,220,230,-240,230,230,2,B,Single-ply,
Takaaki Iwamoto,Japan,M,1971,Masters 2,105,103.65,-245,-245,-245,,,DQ,B,Single-ply,
Petri Ronkainen,Finland,M,1972,Masters 2,93,92.55,202.5,-212.5,-212.5,202.5,202.5,3,B,Single-ply,
Vincent Eldin,France,M,1972,Masters 2,74,73.7,175,180,190,190,190,2,B,Single-ply,
Kaj Wasenius,Finland,M,1972,Masters 2,105,103.85,140,165,202.5,202.5,202.5,3,B,Single-ply,
Miki Okayama,Japan,M,1972,Masters 2,120,106.1,215,225,-255,225,225,5,B,Single-ply,
Barry Antoniow,Canada,M,1972,Masters 2,93,91.2,227.5,-272.5,-280,227.5,227.5,2,B,Single-ply,
Grzegorz Nocek,Poland,M,1973,Masters 2,93,92.25,270,280,-300,280,280,1,B,Single-ply,
Tomasz Dębicki,Poland,M,1974,Masters 2,83,82.2,180,-185,-195,180,180,7,B,Single-ply,
Scott Simon #1,UK,M,1974,Masters 2,120,114.95,255,270,-292.5,270,270,2,B,Single-ply,
Munkhtuul Damba,Mongolia,M,1974,Masters 2,83,82.8,222.5,227.5,-237.5,227.5,227.5,3,B,Single-ply,
Kenneth Sandvik,Finland,M,1975,Open,120+,142.05,310,-330,-330,310,310,4,B,Single-ply,
James Brincat-Smith,UK,M,1975,Masters 1,120+,187.5,210,220,-247.5,220,220,6,B,Single-ply,
Uuganbayar Damdin,Mongolia,M,1976,Masters 1,120,105.2,245,252.5,260,260,260,1,B,Single-ply,
Takashi Goto,Japan,M,1976,Masters 1,83,81.3,220,230,-237.5,230,230,2,B,Single-ply,
Eryk Walczak,Poland,M,1977,Masters 1,105,104.85,-280,280,-290,280,280,2,B,Single-ply,
Ville Vaivila,Finland,M,1977,Masters 1,66,65.5,117.5,-132.5,-137.5,117.5,117.5,4,B,Single-ply,
Sean Vandenburg,Canada,M,1977,Masters 1,66,62.5,130,135,140,140,140,3,B,Single-ply,
Ľubomír Pidanič,Slovakia,M,1978,Masters 1,93,91.9,240,250,-267.5,250,250,1,B,Single-ply,
Cudd Andy,UK,M,1978,Masters 1,93,88.2,175,185,-207.5,185,185,4,B,Single-ply,
Toshihiko Noda,Japan,M,1979,Masters 1,59,58.55,180,-221,-221,180,180,1,B,Single-ply,
Daiki Kodama,Japan,M,1979,Open,83,81.75,280,305,-316,305,305,1,B,Single-ply,
Yoshiaki Miyata,Japan,M,1980,Masters 1,74,73.45,195,-205,205,205,205,3,B,Single-ply,
Norihiro Otani,Japan,M,1980,Masters 1,74,73.45,240,-245,245,245,245,1,B,Single-ply,
Amir Reza Mesforoosh,Iran,M,1980,Open,66,65.75,-150,150,-160,150,150,6,B,Single-ply,
Barkhasbaatar Lkhagvajav,Mongolia,M,1981,Masters 1,105,104.2,-247.5,-257.5,-257.5,,,DQ,B,Single-ply,
Andrii Balenkov,Ukraine,M,1981,Open,83,80.6,260,-280,-280,260,260,5,B,Single-ply,
Masato Mori,Japan,M,1981,Masters 1,120,119.7,235,-242.5,-242.5,235,235,5,B,Single-ply,
Chimedtseren Bataa,Mongolia,M,1981,Open,120+,125.3,-347.5,-347.5,-350,,,DQ,B,Single-ply,
Ryan Fowler,Canada,M,1982,Masters 1,120+,134.35,235,245,255,255,255,5,B,Single-ply,
Keita Saito,Japan,M,1982,Masters 1,66,65.9,200,210,-233.5,210,210,1,B,Single-ply,
Rafał Zalewski,Poland,M,1983,Open,93,92.35,295,-305,305,305,305,3,B,Single-ply,
Bartłomiej Wirek,Poland,M,1983,Masters 1,74,73.05,210,215,-240,215,215,2,B,Single-ply,
Askar Shokhanov,Kazakhstan,M,1983,Open,93,92.05,-320,320,337.5,337.5,337.5,2,B,Single-ply,
Andy Champ,UK,M,1983,Open,105,103.1,275,280,-282.5,280,280,10,B,Single-ply,
John MacDonald #1,Canada,M,1983,Masters 1,120,118.7,245,-252.5,-260,245,245,4,B,Single-ply,
Mads Friche,Denmark,M,1983,Open,93,92.05,280,290,-295,290,290,4,B,Single-ply,
Andreas Frasl,Austria,M,1983,Open,66,65.3,-217.5,217.5,-240,217.5,217.5,3,B,Single-ply,
Milan Selinger,Czechia,M,1984,Open,120,119.05,275,285,297.5,297.5,297.5,4,B,Single-ply,
Kamil Iwasiów,USA,M,1984,Open,66,65.7,175,-185,-185,175,175,4,B,Single-ply,
Yuta Kida,Japan,M,1984,Masters 1,66,65,-172.5,172.5,-210,172.5,172.5,2,B,Single-ply,
Marcus Meaux,USA,M,1984,Masters 1,120+,158.15,-275,275,292.5,292.5,292.5,3,B,Single-ply,
Ahmed Hassanin,Egypt,M,1985,Open,120+,187.3,-330,-332.5,-350,,,DQ,B,Single-ply,
Craig Coggle,UK,M,1986,Open,120+,153.5,237.5,250,-275,250,250,5,B,Single-ply,
Ivan Chuprinko,Ukraine,M,1986,Open,74,73.7,275,282.5,-301,282.5,282.5,1,B,Single-ply,
Bat-Amgalan Purevsuren,Mongolia,M,1987,Open,59,58.8,195,-205,-205,195,195,4,B,Single-ply,
Michael Gibson #2,UK,M,1987,Open,105,104.65,-280,-280,-282.5,,,DQ,B,Single-ply,
Gerardo Santos,Mexico,M,1987,Open,93,90.85,200,-215,-215,200,200,11,B,Single-ply,
Gansukh Batsukh,Mongolia,M,1988,Open,93,92.5,275,-282.5,-297.5,275,275,5,B,Single-ply,
Shane Martin,Canada,M,1988,Open,120+,133.05,-327.5,330,-350,330,330,2,B,Single-ply,
Garrett Cartwright-Bentley,Canada,M,1988,Open,120+,140.7,-372.5,372.5,-402.5,372.5,372.5,1,B,Single-ply,
Igor Trifonov,Kazakhstan,M,1989,Open,105,101.5,-310,310,-325,310,310,6,B,Single-ply,
Arslan Suyunshaliyev,Kazakhstan,M,1989,Open,120,117.15,345,355,-376,355,355,1,B,Single-ply,
Per Marius Hole,Norway,M,1989,Open,120,118.8,340,-347.5,-357.5,340,340,2,B,Single-ply,
Ilya Maslov,Kazakhstan,M,1989,Open,105,104.7,325,-340,-340,325,325,3,B,Single-ply,
Eldos Yermakhanov,Kazakhstan,M,1990,Open,74,72.75,250,265,-282.5,265,265,2,B,Single-ply,
Markus Glueck,Austria,M,1990,Open,120,118.9,295,-310,-310,295,295,5,B,Single-ply,
Alex Foder,UK,M,1990,Open,74,73.65,205,-215,215,215,215,4,B,Single-ply,
Allan Grenier,France,M,1990,Open,105,104.95,300,317.5,-327.5,317.5,317.5,5,B,Single-ply,
Viktor Leskovets,Ukraine,M,1990,Open,120,108.08,320,335,-340,335,335,3,B,Single-ply,
Ganbaatar Lkhamjav,Mongolia,M,1990,Open,74,73.45,205,-212.5,-212.5,205,205,5,B,Single-ply,
Jonathan Cognac,Canada,M,1990,Open,105,104.6,277.5,-282.5,282.5,282.5,282.5,9,B,Single-ply,
Daniel McGauley,UK,M,1990,SOI,59,57.55,85,-92.5,92.5,92.5,92.5,1,B,Single-ply,
Fredrik Eskil Myrvang,Norway,M,1990,Open,59,57.75,185,187.5,195,195,195,3,B,Single-ply,
Brian Chuong,Canada,M,1993,Open,105,102.55,-262.5,262.5,-277.5,262.5,262.5,11,B,Single-ply,
Arshia Arshadi,Canada,M,1993,Open,120,119.6,230,242.5,255,255,255,8,B,Single-ply,
Jeremy Fischer,USA,M,1993,Open,120+,176.9,205,-220,-225,205,205,7,B,Single-ply,
Mark Leebrick,USA,M,1994,Open,120,111.2,212.5,225,230,230,230,10,B,Single-ply,
Ralf A. Male,Norway,M,1994,Open,105,104.55,-315,-315,-320,,,DQ,B,Single-ply,
Abdulkarim Karaman,Kazakhstan,M,1994,Open,66,65.6,230,237.5,245,245,245,2,B,Single-ply,
Karl Michael Valk,Estonia,M,1994,Open,83,81.75,227.5,-235,235,235,235,6,B,Single-ply,
Takahiro Ono,Japan,M,1994,Open,105,103.2,-322.5,-322.5,327.5,327.5,327.5,2,B,Single-ply,
Aaron Pomerantz,USA,M,1995,Open,83,81.65,-275,275,-305,275,275,4,B,Single-ply,
Yosuke Kikuchi,Japan,M,1995,Open,83,82.3,280,-310,-310,280,280,3,B,Single-ply,
Yuki Abe,Japan,M,1996,Open,74,73.95,265,-277.5,-290,265,265,3,B,Single-ply,
Michal Vavrinec,Slovakia,M,1996,Open,93,92.65,-245,245,247.5,247.5,247.5,8,B,Single-ply,
Dulguun Batbold,Mongolia,M,1997,Open,83,82.65,-267.5,-272.5,-282.5,,,DQ,B,Single-ply,
Kostiantyn Musiienko,Ukraine,M,1997,Open,105,95.15,325,337.5,346.5,346.5,346.5,1,B,Single-ply,1997-08-11
Fredrik Soeberg,Norway,M,1997,Open,120,119.75,-285,290,-300,290,290,6,B,Single-ply,
James Taylor #10,UK,M,1998,Open,93,92.6,202.5,210,-215,210,210,10,B,Single-ply,
Daniyar Shaukatov,Kazakhstan,M,2000,Open,83,82.95,282.5,290,-307.5,290,290,2,B,Single-ply,
Maciej Zastawny,Poland,M,2000,Open,83,82.65,230,235,-250,235,235,7,B,Single-ply,
Angus Gardner,UK,M,2000,Open,93,92.35,187.5,192.5,200,200,200,12,B,Single-ply,
Radosław Dębicki,Poland,M,2001,Juniors,66,64.7,147.5,152.5,-157.5,152.5,152.5,2,B,Single-ply,
Shinnosuke Tomita,Japan,M,2001,Juniors,83,83,215,222.5,-232.5,222.5,222.5,1,B,Single-ply,
Oleh Chebotaiev,Ukraine,M,2001,Juniors,74,73.6,205,-212.5,-212.5,205,205,2,B,Single-ply,
Rhys Davies #1,UK,M,2001,Juniors,120+,135.85,195,-210,212.5,212.5,212.5,1,B,Single-ply,
Ivan Kuvaldin,Kazakhstan,M,2001,Open,59,58.05,187.5,190,200,200,200,2,B,Single-ply,
Yuki Hirakawa,Japan,M,2001,Open,59,58.1,205,210,-222,210,210,1,B,Single-ply,
Koyo Komine,Japan,M,2001,Juniors,74,71.65,75,185,205,205,205,1,B,Single-ply,
Kaito Shiiba,Japan,M,2001,Juniors,66,64.95,-150,155,-170,155,155,1,B,Single-ply,
Turbold Odsuren,Mongolia,M,2002,Juniors,59,58.65,135,-140,152.5,152.5,152.5,2,B,Single-ply,
Ondřej Šíp,Czechia,M,2002,Juniors,105,99.85,225,235,242.5,242.5,242.5,2,B,Single-ply,
Šimon Král,Czechia,M,2002,Juniors,120+,148.5,-210,210,-215,210,210,2,B,Single-ply,
Taiyo Sano,Japan,M,2002,Juniors,93,88.35,165,-207.5,-212.5,165,165,3,B,Single-ply,
Nathan Williams,UK,M,2003,Juniors,66,64.3,120,-127.5,-135,120,120,3,B,Single-ply,
Ruslan Karimbekov,Kazakhstan,M,2003,Juniors,53,52.05,-130,130,-140,130,130,1,B,Single-ply,
Ondřej Smetaník,Czechia,M,2003,Juniors,93,92.15,130,207.5,212.5,212.5,212.5,2,B,Single-ply,
Hermanni Järvenpää,Finland,M,2003,Juniors,105,104.3,227.5,237.5,245,245,245,1,B,Single-ply,
Buned Amanov,Kazakhstan,M,2003,Juniors,120,115.65,210,215,,215,215,1,B,Single-ply,
Ilya Kossobryukhov,Kazakhstan,M,2003,Juniors,83,80.35,190,195,-200,195,195,2,B,Single-ply,
Shavkatbek Gapurzhanov,Kazakhstan,M,2004,Juniors,93,84.05,205,210,215,215,215,1,B,Single-ply,
David Horník,Czechia,M,2004,Juniors,83,81.85,192.5,-197.5,-197.5,192.5,192.5,3,B,Single-ply,
Ariyo Sanyaolu,USA,M,2005,Juniors,120,107.7,170,180,-185,180,180,3,B,Single-ply,
Monish Chakrawarty,India,M,2005,Juniors,120,114.2,165,177.5,-182.5,177.5,177.5,4,B,Single-ply,
Levi Cowart,USA,M,2005,Juniors,105,97.4,195,212.5,237.5,237.5,237.5,3,B,Single-ply,
Nicolas Calidonia,USA,M,2005,Juniors,59,57.9,125,135,142.5,142.5,142.5,3,B,Single-ply,
Martin Řehák,Czechia,M,2005,Juniors,74,72.55,185,192.5,-205,192.5,192.5,3,B,Single-ply,
Brandon Lee #10,UK,M,2005,Juniors,120,119.15,195,205,-212.5,205,205,2,B,Single-ply,
Bryce Toups,USA,M,2005,Juniors,59,58,120,127.5,-135,127.5,127.5,4,B,Single-ply,
Tarjei Gronaas,Norway,M,2005,Juniors,59,58.95,152.5,-160,160,160,160,1,B,Single-ply,
Pawel Wloch,Poland,M,2006,Sub-Juniors,74,73.65,120,160,-170,160,160,2,B,Single-ply,
Gracjan Pieper,Poland,M,2006,Sub-Juniors,105,103.4,222.5,230,237.5,237.5,237.5,1,B,Single-ply,
John Sylvera,USA,M,2006,Sub-Juniors,59,58.4,100,107.5,115,115,115,2,B,Single-ply,
Lawson Lillo,USA,M,2006,Sub-Juniors,83,81.5,205,-235.5,-235.5,205,205,1,B,Single-ply,
Cole Schirg,USA,M,2006,Sub-Juniors,105,103.75,185,195,-205,195,195,2,B,Single-ply,
Yegor Kuznetsov,Kazakhstan,M,2006,Sub-Juniors,105,104.15,160,187.5,-197.5,187.5,187.5,3,B,Single-ply,
Paizakhmat Ismailov,Kazakhstan,M,2006,Sub-Juniors,120,115.35,175,187.5,-200,187.5,187.5,2,B,Single-ply,
Mansurbek Mominov,Kazakhstan,M,2006,Sub-Juniors,53,51.45,95,100,-115,100,100,1,B,Single-ply,
Juraj Gabriel Blazicek,Slovakia,M,2006,Sub-Juniors,93,92.15,180,185,192.5,192.5,192.5,1,B,Single-ply,
Khakimkhozha Tursynbayev,Kazakhstan,M,2007,Sub-Juniors,59,57.55,105,110,117.5,117.5,117.5,1,B,Single-ply,
Kajetan Link,Poland,M,2007,Sub-Juniors,66,62.75,107.5,117.5,-142.5,117.5,117.5,2,B,Single-ply,
Zhassurbek Adilbekov,Kazakhstan,M,2007,Sub-Juniors,74,69.6,150,160,-170,160,160,1,B,Single-ply,
Brett Falco,USA,M,2007,Sub-Juniors,66,65.3,127.5,142.5,155,155,155,1,B,Single-ply,
Zachary Vandenburg,Canada,M,2007,Sub-Juniors,53,51.75,95,100,-115,100,100,2,B,Single-ply,
Filip Szałaj,Poland,M,2008,Sub-Juniors,93,92.25,170,-182.5,-187.5,170,170,2,B,Single-ply,
Sora Okayama,Japan,M,2008,Sub-Juniors,83,76.35,160,180,-205,180,180,2,B,Single-ply,
Mihkel Laurits,Estonia,M,1944,Masters 4,120,105.25,100,-150,-150,100,100,1,B,Single-ply,
Tsutomu Ichikawa,Japan,M,1947,Masters 4,74,72.85,140,-145,-145,140,140,1,B,Single-ply,
Tilman Gallant,Canada,M,1948,Masters 4,83,81.35,-120,120,-132.5,120,120,4,B,Single-ply,
Kyoji Kawakami,Japan,M,1950,Masters 4,59,57,85,105,-110,105,105,1,B,Single-ply,
Gerhard Baumeister,Germany,M,1952,Masters 4,83,82.85,125,135,-152.5,135,135,2,B,Single-ply,
Susumu Otani,Japan,M,1952,Masters 4,83,80.75,-155,-155,-155,,,DQ,B,Single-ply,
Bill Clayton,USA,M,1953,Masters 4,93,84.3,92.5,-100,100,100,100,3,B,Single-ply,
Osamu Iijima,Japan,M,1954,Masters 4,93,85.5,170,-175,-175,170,170,2,B,Single-ply,
Harald Paul,Germany,M,1954,Masters 4,120+,129.25,145,155,-165,155,155,1,B,Single-ply,
John Noguera,Canada,M,1956,Masters 3,93,91.8,125,135,142.5,142.5,142.5,5,B,Single-ply,
Tomotaka Sakai,Japan,M,1957,Masters 3,83,82.4,-150,150,-167.5,150,150,3,B,Single-ply,
Daniel Royer,Canada,M,1957,Masters 3,105,96.5,95,102.5,-107.5,102.5,102.5,7,B,Single-ply,
James Ray #1,USA,M,1957,Masters 3,120+,158.35,220,-230,-242.5,220,220,3,B,Single-ply,
Kenneth Bennett #1,USA,M,1959,Masters 3,105,103.75,145,152.5,-177.5,152.5,152.5,5,B,Single-ply,
Brian Rock,Canada,M,1959,Masters 3,120,116.9,215,-222.5,-222.5,215,215,2,B,Single-ply,
Thomas Cencich,USA,M,1960,Masters 3,93,91,192.5,-197.5,-197.5,192.5,192.5,1,B,Single-ply,
Tadashi Miyagi,Japan,M,1961,Masters 3,93,87.75,130,140,145,145,145,4,B,Single-ply,
Michael Rodriguez #13,USA,M,1961,Masters 3,74,72.15,155,-162.5,-162.5,155,155,1,B,Single-ply,
Robert Keller #1,USA,M,1962,Masters 3,120,119.85,155,-160,160,160,160,3,B,Single-ply,
David Doan,USA,M,1964,Masters 3,120+,129.55,225,232.5,245,245,245,1,B,Single-ply,
Kohei Wada,Japan,M,1964,Masters 3,120,119.55,-270,270,-280,270,270,1,B,Single-ply,
Klaus Semskij,Germany,M,1964,Masters 3,105,102.9,225,-232.5,232.5,232.5,232.5,2,B,Single-ply,
Kevin Farley,USA,M,1966,Masters 2,105,99.85,-195,200,-210,200,200,4,B,Single-ply,
Takuya Yamashita,Japan,M,1968,Masters 2,74,73.8,165,177.5,192.5,192.5,192.5,1,B,Single-ply,
Steve Petrencak,USA,M,1968,Masters 2,66,64.5,110,-117.5,120,120,120,1,B,Single-ply,
Scott Robertson,Canada,M,1970,Masters 2,120,119.5,270,277.5,-290,277.5,277.5,1,B,Single-ply,
Kaj Mattila,Finland,M,1970,Masters 2,120,113,230,247.5,-257.5,247.5,247.5,4,B,Single-ply,
Toshiyuki Sato,Japan,M,1971,Masters 2,120+,127.65,170,-205,-205,170,170,6,B,Single-ply,
Greg Holmes,Canada,M,1971,Masters 2,83,80.65,-180,180,-185,180,180,6,B,Single-ply,
Michael Kalter,USA,M,1972,Masters 2,120+,120.6,202.5,212.5,-225,212.5,212.5,5,B,Single-ply,
William Thacker,USA,M,1972,Masters 2,120,108.05,245,255,-270,255,255,3,B,Single-ply,
René Perl,Germany,M,1973,Masters 2,120,118.9,200,220,-227.5,220,220,6,B,Single-ply,
Akihisa Takemura,Japan,M,1973,Masters 2,93,92.05,195,-210,-210,195,195,4,B,Single-ply,
Shigeki Kushino,Japan,M,1973,Masters 2,83,82.5,220,-230,232.5,232.5,232.5,1,B,Single-ply,
Marcus Warren,USA,M,1974,Masters 2,105,103.7,230,242.5,-257.5,242.5,242.5,1,B,Single-ply,
Alex Alvarado,Puerto Rico,M,1974,Masters 2,120+,120.9,212.5,222.5,232.5,232.5,232.5,3,B,Single-ply,
Thomas Wetzstein,Austria,M,1974,Masters 2,105,97.2,-255,-255,-255,,,DQ,B,Single-ply,
Sandrino Herder,Germany,M,1975,Masters 1,120,119.7,-235,-240,247.5,247.5,247.5,3,B,Single-ply,
Dale McLaren,USA,M,1976,Masters 1,105,104.35,272.5,280,-290,280,280,1,B,Single-ply,
Ryan Gill,USA,M,1976,Masters 1,120,119.05,232.5,240,247.5,247.5,247.5,2,B,Single-ply,
Adam Mamola,USA,M,1977,Open,93,91.8,-325,-330,-332.5,,,DQ,B,Single-ply,
Mike Ciupinski,USA,M,1979,Masters 1,83,81.8,-227.5,227.5,-232.5,227.5,227.5,3,B,Single-ply,
Frank Barthel,Germany,M,1980,Masters 1,105,103.15,-255,-255,-255,,,DQ,B,Single-ply,
Andrew Cargill,USA,M,1980,Masters 1,120+,154.05,-290,290,292.5,292.5,292.5,2,B,Single-ply,
Steve Snell #1,Canada,M,1980,Masters 1,120+,146.4,240,260,-275,260,260,4,B,Single-ply,
René Groß,Germany,M,1981,Masters 1,120+,127.15,320,-327.5,-327.5,320,320,1,B,Single-ply,
Luke Hanifen,USA,M,1981,Masters 1,83,82.85,220,230,235,235,235,1,B,Single-ply,
Jonathan Losa,USA,M,1982,Masters 1,93,85.65,180,210,-250,210,210,2,B,Single-ply,
Joakim Wång,Sweden,M,1983,Open,93,92.7,272.5,-282.5,-282.5,272.5,272.5,6,B,Single-ply,
Thomas Korell,Germany,M,1983,Masters 1,93,92.25,-207.5,207.5,-225,207.5,207.5,3,B,Single-ply,
Masashi Fukuda,Japan,M,1984,Open,66,65.8,230,240,247.5,247.5,247.5,1,B,Single-ply,
Nikolai Lorenz,Germany,M,1985,Open,93,92.35,-250,-252.5,-255,,,DQ,B,Single-ply,
Martin Agoes,USA,M,1987,Open,120,119.35,250,-320,-337.5,250,250,9,B,Single-ply,
Alex Hochlov,Germany,M,1989,Open,93,91.75,255,265,-275,265,265,7,B,Single-ply,
Austin Brown #1,USA,M,1990,Open,105,103.55,-307.5,312.5,317.5,317.5,317.5,4,B,Single-ply,
Satoshi Kase,Japan,M,1991,Open,120,110.2,280,-290,-337.5,280,280,7,B,Single-ply,
Kazuho Uemura,Japan,M,1992,Open,120+,136.35,220,-310,-310,220,220,6,B,Single-ply,
Oliver Dahlkvist,Sweden,M,1995,Open,105,104.65,292.5,-312.5,-320,292.5,292.5,8,B,Single-ply,
Rasmus Mirblom,Sweden,M,1995,Open,120+,148.3,-330,330,-342.5,330,330,3,B,Single-ply,
Christian Flueras,Germany,M,1996,Open,105,103.9,285,-297.5,297.5,297.5,297.5,7,B,Single-ply,
Easton Schuster,USA,M,1996,Open,93,92.3,325,332.5,340,340,340,1,B,Single-ply,
Charlie Caron,Canada,M,1996,Open,93,91.75,245,-252.5,-267.5,245,245,9,B,Single-ply,
Cael McDaniel,USA,M,2006,Sub-Juniors,120,113.7,185,190,212.5,212.5,212.5,1,B,Single-ply,
Evan Wagner-Carleton,Canada,M,2006,Sub-Juniors,93,92.9,110,-120,-120,110,110,3,B,Single-ply,
Noriko Iida,Japan,F,1936,Masters 4,52,50.15,45,47.5,-50,47.5,47.5,1,B,Raw,
Susan Haywood,Canada,F,1949,Masters 4,84,79.2,37.5,40,42.5,42.5,42.5,1,B,Raw,
Lenore Gelb,USA,F,1950,Masters 4,76,73.5,40,45,47.5,47.5,47.5,1,B,Raw,
Guillemette Baudron,France,F,1950,Masters 4,47,46.65,40,45,-47.5,45,45,1,B,Raw,
Linda Gorham,USA,F,1951,Masters 4,84+,91.55,62.5,67.5,70,70,70,1,B,Raw,
Beatriz de Quintana Garcia,Uruguay,F,1953,Masters 4,69,68.45,30,-35,35,35,35,1,B,Raw,
Liisa Tiensuu-Hirvonen,Finland,F,1953,Masters 4,63,59.65,47.5,52.5,55,55,55,1,B,Raw,
Evelyne Herbin,France,F,1956,Masters 3,63,62.7,-60,65,67.5,67.5,67.5,2,B,Raw,
Dora Justice,USA,F,1957,Masters 3,57,55.5,70,75,-83,75,75,1,B,Raw,
Deb Ellard,Canada,F,1958,Masters 3,69,67.2,65,70,77.5,77.5,77.5,3,B,Raw,
Socorro Perez,Mexico,F,1959,Masters 3,63,60.7,70,75,-77.5,75,75,1,B,Raw,
Patricia Maciejewski,France,F,1961,Masters 3,69,68.2,75,80,-83.5,80,80,1,B,Raw,
Monica Wille,Canada,F,1961,Masters 3,84,79.7,75,-80,80,80,80,2,B,Raw,
Kathryn Cordeiro,USA,F,1962,Masters 3,47,46.05,55,-60,-60,55,55,1,B,Raw,
Delwyn Evans,New Zealand,F,1964,Masters 3,76,72.85,70,72.5,75,75,75,1,B,Raw,
Nadine Langlais,France,F,1964,Masters 3,57,55.7,50,52.5,55,55,55,2,B,Raw,
Maureen Gordon,UK,F,1964,Masters 3,69,68.3,72.5,77.5,80,80,80,2,B,Raw,
Nathalie Gransard,France,F,1964,Masters 3,84+,97,90,95,96,96,96,1,B,Raw,
Santosh Santosh,India,F,1964,Masters 3,57,54.9,25,30,-35,30,30,3,B,Raw,
Katarina Beremark,Sweden,F,1964,Masters 3,84+,104.35,85,92.5,-95.5,92.5,92.5,2,B,Raw,
Julie Henderson,Australia,F,1966,Masters 2,84,82,77.5,82.5,-87.5,82.5,82.5,2,B,Raw,
Judith Reitmann,Uruguay,F,1967,Masters 2,84+,97.65,100,-105,105,105,105,3,B,Raw,
Tomoko Miyamoto,Japan,F,1967,Masters 2,47,46.3,55,60,-70,60,60,1,B,Raw,
Florence Leccese,France,F,1969,Masters 2,69,66.4,75,77.5,80,80,80,2,B,Raw,
Lin Donevska,Australia,F,1969,Masters 2,76,73.2,65,70,75,75,75,3,B,Raw,
Naomi Kanagawa,Japan,F,1969,Masters 2,63,62.8,65,70,72.5,72.5,72.5,2,B,Raw,
Mikako Fujiyama,Japan,F,1970,Masters 2,52,51.6,50,52.5,60,60,60,3,B,Raw,
Rachel Spragg,UK,F,1970,Masters 2,63,61.7,60,-65,-67.5,60,60,5,B,Raw,
Géraldine Verlaine,France,F,1970,Masters 2,52,51.65,70,72.5,-75,72.5,72.5,1,B,Raw,
Lincoln Rose,UK,F,1970,Masters 2,69,68.25,82.5,87.5,90,90,90,1,B,Raw,
Patri Fernandez,Peru,F,1971,Masters 2,84,83.15,60,70,-75,70,70,3,B,Raw,
Sandra Flowerday-Payne,Canada,F,1971,Masters 2,69,67.25,72.5,-77.5,80,80,80,3,B,Raw,
Wanda Leese,Canada,F,1971,Masters 2,84+,90.3,52.5,55,-57.5,55,55,6,B,Raw,
Ada Chuyo,Peru,F,1971,Masters 2,63,57.8,-65,65,-67.5,65,65,3,B,Raw,
Angel Yau-Vandenburg,Canada,F,1972,Masters 2,47,45.65,50,-55,-55,50,50,2,B,Raw,
Joanne Laird,UK,F,1972,Masters 2,84+,132.15,92.5,100,107.5,107.5,107.5,2,B,Raw,
Sachiko Iwamoto,Japan,F,1973,Open,52,51.55,92.5,100,105,105,105,1,B,Raw,
Karen McKendry,UK,F,1973,Masters 2,76,73.95,72.5,77.5,-80,77.5,77.5,2,B,Raw,
Ielja Strik,Netherlands,F,1973,Open,84,83,125,130,135,135,135,2,B,Raw,
Satoko Aikawa,Japan,F,1973,Masters 2,52,51.15,65,70,-72.5,70,70,2,B,Raw,
Shannon Terry,Canada,F,1973,Masters 2,84+,100.85,92.5,97.5,102.5,102.5,102.5,4,B,Raw,
Shauna Hammer,Canada,F,1973,Masters 2,57,55.4,62.5,65,67.5,67.5,67.5,1,B,Raw,
Tiina Voho,Finland,F,1973,Masters 2,84,77.3,100,105,-110,105,105,1,B,Raw,
Katja Ronkainen,Finland,F,1973,Masters 2,52,50.2,40,45,50,50,50,4,B,Raw,
Sweety Sharma,India,F,1973,Masters 2,76,75.4,-60,-65,-65,,,DQ,B,Raw,
Katja Kärkkäinen,Finland,F,1974,Masters 2,63,62.25,77.5,80,85,85,85,1,B,Raw,
Hellen Frost,UK,F,1974,Masters 2,84+,121.05,85,87.5,90,90,90,5,B,Raw,
Emma Stott,UK,F,1974,Masters 2,57,55.75,62.5,-67.5,-70,62.5,62.5,2,B,Raw,
Salena Smashum,USA,F,1974,Masters 2,76,74,52.5,57.5,-65,57.5,57.5,4,B,Raw,
Satu Sarpola,Finland,F,1975,Masters 1,69,68.8,80,82.5,-87.5,82.5,82.5,5,B,Raw,
Mélisa Meunier,France,F,1975,Masters 1,63,60.1,70,75,-77.5,75,75,5,B,Raw,
Melissa Schulte,USA,F,1976,Masters 1,63,61.9,72.5,77.5,-87.5,77.5,77.5,4,B,Raw,
Pauliina Suomela,Finland,F,1976,Masters 1,69,67.7,95,100,-105,100,100,1,B,Raw,
Akiko Nishikawa,Japan,F,1976,Masters 1,52,51.45,75,82.5,-87.5,82.5,82.5,1,B,Raw,
Iolanda Costa Zolyome,Brazil,F,1977,Masters 1,76,75.35,105,110,115,115,115,1,B,Raw,
Stefanie Nadine Jakob,Germany,F,1977,Masters 1,84,82.8,102.5,105,-107.5,105,105,2,B,Raw,
Melissa Copeland,USA,F,1977,Masters 1,84+,121.1,125,130,137.5,137.5,137.5,1,B,Raw,
Yisa Ochoa,Mexico,F,1977,Masters 1,84+,97,80,87.5,-95,87.5,87.5,7,B,Raw,
Lindsay Rubel,USA,F,1977,Masters 1,69,67.85,85,-90,90,90,90,2,B,Raw,
Anita Roy,India,F,1977,Masters 1,63,62.8,67.5,-75,-77.5,67.5,67.5,6,B,Raw,
Debby van Bogaert,Netherlands,F,1979,Masters 1,84+,96.9,92.5,97.5,102.5,102.5,102.5,5,B,Raw,
Helena Rehnberg,Finland,F,1979,Masters 1,84+,143.9,80,90,100,100,100,6,B,Raw,
Rosalind Sutch,USA,F,1980,Masters 1,84,82.65,85,90,-95,90,90,3,B,Raw,
Karla Evans,UK,F,1980,Masters 1,63,61.85,75,82.5,85,85,85,3,B,Raw,
Jenni Hollier,USA,F,1980,Masters 1,57,55.95,75,80,-85,80,80,3,B,Raw,
Cynthia Leighton,Canada,F,1980,Masters 1,63,62.9,-82.5,87.5,92.5,92.5,92.5,1,B,Raw,
Sarah Wages,USA,F,1981,Masters 1,84+,131.25,107.5,112.5,122.5,122.5,122.5,3,B,Raw,
Courtney Costrino,USA,F,1981,Masters 1,76,75.45,-87.5,90,-95,90,90,3,B,Raw,
Kathrine Holmgaard Bak,Denmark,F,1981,Masters 1,69,64.6,80,85,-90,85,85,3,B,Raw,
Niina Köninki,Finland,F,1981,Masters 1,63,61.35,87.5,-90,90,90,90,2,B,Raw,
Maria Taccone,Canada,F,1981,Masters 1,84+,98.35,112.5,117.5,120,120,120,4,B,Raw,
Astrid Girolamo,USA,F,1981,Masters 1,57,56.9,72.5,77.5,-85,77.5,77.5,4,B,Raw,
Pamela Hodder,Canada,F,1981,Masters 1,76,74.2,82.5,87.5,92.5,92.5,92.5,2,B,Raw,
Kelly Fysh,UK,F,1981,Masters 1,84,81.7,65,70,72.5,72.5,72.5,4,B,Raw,
Antje Decker,Germany,F,1982,Masters 1,84,80.7,97.5,100,105,105,105,1,B,Raw,
Anita Rathi,India,F,1982,Masters 1,57,56.8,50,55,-57.5,55,55,5,B,Raw,
Sanae Shoji,Japan,F,1983,Masters 1,47,46.9,57.5,-62.5,-62.5,57.5,57.5,1,B,Raw,
Hildeborg Juvet Hugdal,Norway,F,1983,Open,84+,120,130,137.5,142.5,142.5,142.5,4,B,Raw,
Jessica Reyes,Mexico,F,1983,Masters 1,57,54.4,75,80,82.5,82.5,82.5,2,B,Raw,
Rebecca Coggle,UK,F,1983,Masters 1,84+,149.8,120,127.5,-135,127.5,127.5,2,B,Raw,
Jennifer Theron,Canada,F,1984,Masters 1,69,68.1,80,85,-90,85,85,4,B,Raw,
Maria Frank,Canada,F,1984,Masters 1,57,55.45,82.5,85,90,90,90,1,B,Raw,
Farzana Botha,South Africa,F,1985,Open,52,51.85,-70,-70,70,70,70,5,B,Raw,
Johanna Laitinen,Finland,F,1986,Open,84+,112.05,135,140,145,145,145,2,B,Raw,
Marianna Pinter,UK,F,1986,Open,76,73.25,90,95,100,100,100,8,B,Raw,
Zhadyra Bermukhambetova,Kazakhstan,F,1986,Open,84,83.6,122.5,-127.5,-130,122.5,122.5,4,B,Raw,
Ankie Timmers,Luxembourg,F,1986,Open,84,83.5,120,125,127.5,127.5,127.5,3,B,Raw,
Kayla Casey,Canada,F,1987,Open,57,56,92.5,97.5,-105,97.5,97.5,8,B,Raw,
Mira Lahtinen,Finland,F,1987,Open,76,75.55,122.5,127.5,-135,127.5,127.5,4,B,Raw,
Ágnes Szabó,Hungary,F,1988,Open,84+,115.05,140,145,-147.5,145,145,3,B,Raw,
Kristen Watt,Canada,F,1988,Open,84,80.15,75,80,-85,80,80,9,B,Raw,
Lydia North,Canada,F,1988,Open,76,75.8,92.5,-97.5,97.5,97.5,97.5,9,B,Raw,
Namiko Sakata,Japan,F,1988,Open,63,62.75,75,80,-87.5,80,80,8,B,Raw,
Johanna Forsström,Finland,F,1988,Open,57,54.45,95,100,-102.5,100,100,6,B,Raw,
Annika Zelander,Sweden,F,1988,Open,84,81.6,127.5,130,135,135,135,1,B,Raw,
Katie Roberts,UK,F,1989,Open,63,62.55,105,110,115,115,115,2,B,Raw,
Chloe Liebeck,Australia,F,1989,Open,69,67.05,80,85,87.5,87.5,87.5,9,B,Raw,
Kiriath Ortiz,Puerto Rico,F,1989,Open,84,82.9,90,-95,95,95,95,7,B,Raw,
Heather Heywood,USA,F,1989,Open,63,62.75,32.5,37.5,-42.5,37.5,37.5,9,B,Raw,
Maria Kojoukhova,Finland,F,1989,Open,52,51.8,82.5,87.5,90,90,90,4,B,Raw,
Maytia Millan,Mexico,F,1989,Open,84+,92,110,115,-120,115,115,7,B,Raw,
Sakar Hamawandi,Norway,F,1990,Open,47,46.95,70,75,80,80,80,3,B,Raw,
Samantha Fung,Canada,F,1990,Open,69,68.4,87.5,-95,95,95,95,8,B,Raw,
Jamie Fisher #1,USA,F,1990,Open,52,51.55,100,102.5,-107.5,102.5,102.5,2,B,Raw,
Micaela Ödling,Sweden,F,1990,Open,76,74.05,115,120,125,125,125,5,B,Raw,
Pantea Supanetz,Austria,F,1990,Open,63,62.8,105,110,-112.5,110,110,4,B,Raw,
Erin Matheson,Canada,F,1990,Open,84,82.9,85,87.5,90,90,90,8,B,Raw,
Victoria Cavalier-Hirth,UK,F,1991,Open,84+,138.7,120,125,130,130,130,5,B,Raw,
Matilda Hjälle,Sweden,F,1991,Open,84+,106,145,147.5,150,150,150,1,B,Raw,
April Goodfellow,Canada,F,1992,Open,84+,101.95,97.5,105,112.5,112.5,112.5,8,B,Raw,
Stephanie Birkhimer,USA,F,1992,Open,69,67.4,92.5,100,102.5,102.5,102.5,5,B,Raw,
Emma Zilberman-Vegas,Canada,F,1992,Open,63,62.65,90,95,-97.5,95,95,7,B,Raw,
Akane Ishibashi,Japan,F,1993,Open,57,55.5,87.5,97.5,-110,97.5,97.5,7,B,Raw,
Elise Rosenborg,Norway,F,1993,Open,63,61.95,105,110,115,115,115,1,B,Raw,
Aliza Tessler,USA,F,1994,Open,84,82.1,100,107.5,112.5,112.5,112.5,6,B,Raw,
Charlotte MacPherson,UK,F,1995,Open,69,68.35,95,100,-102.5,100,100,7,B,Raw,
Lea Schreiner,Germany,F,1995,Open,84,79.05,105,110,112.5,112.5,112.5,5,B,Raw,
Louise Bray,UK,F,1995,Open,69,66.95,92.5,97.5,100,100,100,6,B,Raw,
Emelie Åslund,Sweden,F,1995,Open,47,46.8,85,87.5,-95,87.5,87.5,1,B,Raw,
Marianne Koanda Hatlem,Norway,F,1996,Open,63,62.45,97.5,102.5,105,105,105,5,B,Raw,
Kathrine Forsberg,Denmark,F,1996,Open,69,68.05,110,115,-120,115,115,3,B,Raw,
Yulissa Nuñez,Mexico,F,1997,Open,69,67.3,87.5,-92.5,-92.5,87.5,87.5,10,B,Raw,
Andrea Petrek,Croatia,F,1997,Open,69,67.25,-115,115,117.5,117.5,117.5,1,B,Raw,
Sofie Bengtson,Denmark,F,1997,Open,76,74.25,102.5,110,-115,110,110,7,B,Raw,
Yuka Miyazaki,Japan,F,1998,Open,47,46.85,72.5,80,-87.5,80,80,2,B,Raw,
Julia Starck,Sweden,F,1998,Open,57,56,95,100,102.5,102.5,102.5,5,B,Raw,
Misaki Ikeda,Japan,F,1999,Open,63,62.5,95,100,-105,100,100,6,B,Raw,
Kiley Morrissey,Canada,F,1999,Open,69,68.35,100,105,-107.5,105,105,4,B,Raw,
Vilma Olsson,Sweden,F,1999,Open,76,75.3,110,117.5,-122.5,117.5,117.5,6,B,Raw,
Elsa Marin Karlsson,Sweden,F,2000,Open,69,67.75,117.5,-122.5,-122.5,117.5,117.5,2,B,Raw,
Kyoka Takahashi,Japan,F,2000,Open,52,51.25,82.5,87.5,90,90,90,3,B,Raw,
Selma Ramberg Storstad,Norway,F,2001,Juniors,57,54.65,95,102.5,-107.5,102.5,102.5,1,B,Raw,
Daisy Brooks,Australia,F,2001,Juniors,57,56.75,75,-80,-82.5,75,75,3,B,Raw,
Megan Davenport,UK,F,2001,Juniors,52,47.85,60,62.5,65,65,65,1,B,Raw,
Isabel Dowling,UK,F,2001,Juniors,76,69.45,90,95,-97.5,95,95,3,B,Raw,
Antara Jackson,USA,F,2001,Juniors,84,83.2,107.5,112.5,-120,112.5,112.5,1,B,Raw,
Karmen Harvey,UK,F,2001,Juniors,84+,109.2,90,95,100,100,100,2,B,Raw,
Oksana Sukhodieieva,Ukraine,F,2001,Juniors,43,42.2,32.5,37.5,,37.5,37.5,1,B,Raw,
Ivana Vogel,Netherlands,F,2001,Juniors,84+,120.2,110,117.5,125,125,125,1,B,Raw,
Amber Watson #1,UK,F,2002,Juniors,57,55.75,-75,80,82.5,82.5,82.5,2,B,Raw,
Kiersten Madoo,USA,F,2002,Juniors,84,82.25,85,-90,-97.5,85,85,3,B,Raw,
Lucy Gill,UK,F,2002,Juniors,84,82.3,-72.5,-75,-75,,,DQ,B,Raw,
Viktorie Slavíková,Czechia,F,2002,Juniors,47,46.6,55,60,-67.5,60,60,2,B,Raw,
Riina Hartikainen,Finland,F,2002,Juniors,52,50.95,52.5,57.5,60,60,60,2,B,Raw,
Ayishah Roberts,UK,F,2002,Juniors,69,67.55,75,82.5,-90,82.5,82.5,2,B,Raw,
Frederique Ubachs,Netherlands,F,2003,Juniors,76,73.85,-95,95,100,100,100,1,B,Raw,
Airi Sakaguchi,Japan,F,2003,Juniors,76,75.45,100,-105,-105,100,100,2,B,Raw,
Anne Burns,UK,F,2003,Juniors,63,61.6,82.5,90,-92.5,90,90,3,B,Raw,
Hilma Westerberg,Sweden,F,2004,Juniors,63,63,107.5,112.5,120,120,120,1,B,Raw,
Joy Rindfleisch,USA,F,2004,Juniors,69,67.15,105,112.5,120,120,120,1,B,Raw,
Chloe Wong,Canada,F,2004,Juniors,47,44.45,57.5,62.5,-67.5,62.5,62.5,1,B,Raw,
Martyna Janaszek,Poland,F,2005,Juniors,57,56.2,62.5,-70,70,70,70,4,B,Raw,
Tiggy Sadler-Barker,Australia,F,2005,Juniors,84,79.4,-87.5,92.5,95,95,95,2,B,Raw,
Christina Peters,USA,F,2005,Juniors,76,74.8,87.5,-97.5,-97.5,87.5,87.5,4,B,Raw,
Maria-Sophie Hinz,Germany,F,2006,Sub-Juniors,76,69.15,97.5,102.5,-105,102.5,102.5,1,B,Raw,
Eleni Guerrera,USA,F,2006,Sub-Juniors,57,56.15,77.5,-82.5,-85,77.5,77.5,1,B,Raw,
Katie Woods,UK,F,2006,Sub-Juniors,57,55.35,67.5,72.5,-77.5,72.5,72.5,4,B,Raw,
Katie Tatum,UK,F,2006,Sub-Juniors,84,80.4,70,75,-80,75,75,1,B,Raw,
Juuli Kostian,Finland,F,2006,Sub-Juniors,69,68.55,102.5,107.5,-111.5,107.5,107.5,2,B,Raw,
Magdaléna Matesová,Czechia,F,2006,Sub-Juniors,63,61.6,82.5,-87.5,87.5,87.5,87.5,2,B,Raw,
Sagan Marks,USA,F,2006,Sub-Juniors,76,71.8,67.5,72.5,75,75,75,2,B,Raw,
Yevheniia Hevko,Ukraine,F,2006,Sub-Juniors,52,51.15,67.5,72.5,77.5,77.5,77.5,1,B,Raw,
Sydney Wilson,Canada,F,2006,Sub-Juniors,57,56.65,70,75,77.5,77.5,77.5,2,B,Raw,
Natasha Andrews,Canada,F,2006,Sub-Juniors,84+,150.45,62.5,67.5,-80,67.5,67.5,2,B,Raw,
Giselle Altamirano,USA,F,2007,Sub-Juniors,63,60.2,62.5,67.5,-72.5,67.5,67.5,4,B,Raw,
Ninni Kopola,Finland,F,2007,Sub-Juniors,63,62,82.5,-87.5,-87.5,82.5,82.5,3,B,Raw,
Jana Rojková,Czechia,F,2007,Sub-Juniors,69,67.45,92.5,-102.5,107.5,107.5,107.5,1,B,Raw,
Isabel Ugalde,Costa Rica,F,2007,Sub-Juniors,63,61.7,85,90,-92.5,90,90,1,B,Raw,
Anujin Altangerel,Mongolia,F,2007,Sub-Juniors,63,62.7,62.5,-67.5,-80,62.5,62.5,5,B,Raw,
Ryli Greer,USA,F,2008,Sub-Juniors,63,58.3,50,55,-62.5,55,55,6,B,Raw,
Lynne Homan,USA,F,1962,Masters 3,63,58.55,55,60,-65,60,60,3,B,Raw,
Marie Brenden,USA,F,1964,Masters 3,84,80.8,82.5,87.5,95,95,95,1,B,Raw,
Lilyan Jackson,USA,F,1970,Masters 2,84+,170.8,115,120,130.5,130.5,130.5,1,B,Raw,
Joah Iannotta,USA,F,1973,Masters 2,76,75.35,105,112.5,-117.5,112.5,112.5,1,B,Raw,
Stacie Taylor,USA,F,1974,Masters 2,63,61.95,60,65,-70,65,65,4,B,Raw,
Hanna Kadatska,Ukraine,F,1977,Open,63,62.65,105,110,-112.5,110,110,3,B,Raw,
Glynnis Powell,Canada,F,1982,Masters 1,76,71.85,57.5,62.5,-65,62.5,62.5,4,B,Raw,
Xeniya Khan,Kazakhstan,F,1987,Open,76,74.75,130,135,-140,135,135,2,B,Raw,
Chelsea Savit,USA,F,1991,Open,76,73.7,125,132.5,137.5,137.5,137.5,1,B,Raw,
Megan Hurlburt,USA,F,1992,Open,57,56.25,97.5,102.5,107.5,107.5,107.5,1,B,Raw,
Alison Huet,France,F,1996,Open,57,54.9,100,-105,105,105,105,3,B,Raw,
Hanna Buturlym,Ukraine,F,1997,Open,57,56.55,92.5,100,105,105,105,4,B,Raw,
Elizabeth Parker,USA,F,1998,Open,47,44.14,-60,60,-70,60,60,4,B,Raw,
Anna Rykun,Ukraine,F,1998,Open,57,57,100,107.5,-112.5,107.5,107.5,2,B,Raw,
Tashell Kerr #2,USA,F,1999,Open,84+,95.15,107.5,117.5,-122.5,117.5,117.5,6,B,Raw,
Laura Mautalen,France,F,2000,Open,76,75.15,127.5,135,-140,135,135,3,B,Raw,
Elodie Picazo,France,F,2004,Juniors,63,59.8,97.5,102.5,107.5,107.5,107.5,2,B,Raw,
Amelia Gercken,USA,F,2005,Juniors,76,75.95,65,70,75,75,75,5,B,Raw,
Pauline Varnerot,France,F,2006,Sub-Juniors,52,51.35,60,62.5,-65,62.5,62.5,2,B,Raw,
Kate Hall,USA,F,2006,Sub-Juniors,69,68.2,57.5,62.5,67.5,67.5,67.5,3,B,Raw,
Misaki Hashimoto,Japan,F,2008,Sub-Juniors,84+,84.05,70,75,77.5,77.5,77.5,1,B,Raw,
Erine Paquin,France,F,2008,Sub-Juniors,57,54.95,65,70,75,75,75,3,B,Raw,
Noriko Iida,Japan,F,1936,Masters 4,52,49.65,40,45,-50,45,45,1,B,Single-ply,
Gale Williams,USA,F,1947,Masters 4,69,66.9,72.5,78,80.5,80.5,80.5,1,B,Single-ply,
Judith McGauley,UK,F,1948,Masters 4,52,47.3,30,-35,-37.5,30,30,2,B,Single-ply,
Susan Haywood,Canada,F,1949,Masters 4,84,80,60,65,67.5,67.5,67.5,1,B,Single-ply,
Chiyomi Sawa,Japan,F,1949,Masters 4,76,75.75,95,-105,-108,95,95,1,B,Single-ply,
Evelyne Herbin,France,F,1956,Masters 3,63,62.35,65,72.5,-80,72.5,72.5,3,B,Single-ply,
Mava Brydges,Canada,F,1957,Masters 3,76,75.55,95,-100,-100,95,95,2,B,Single-ply,
Vicki Brackett,USA,F,1957,Masters 3,84+,126.95,105,112.5,-117.5,112.5,112.5,1,B,Single-ply,
Dora Justice,USA,F,1957,Masters 3,57,55.9,-77.5,80,-85,80,80,1,B,Single-ply,
Socorro Perez,Mexico,F,1959,Masters 3,63,60.65,90,95,100,100,100,1,B,Single-ply,
Donna Marts,USA,F,1960,Masters 3,76,69.3,92.5,97.5,105,105,105,1,B,Single-ply,
Heidi Schraft,Canada,F,1961,Masters 3,52,50.55,70,75,-80,75,75,2,B,Single-ply,
Linda McFeeters,Canada,F,1962,Masters 3,84+,93.25,67.5,-72.5,-75,67.5,67.5,2,B,Single-ply,
Mika Teramura,Japan,F,1962,Masters 3,52,51.7,75,80,82.5,82.5,82.5,1,B,Single-ply,
Lynne Homan,USA,F,1962,Masters 3,63,58.65,77.5,80,82.5,82.5,82.5,2,B,Single-ply,
Megumi Tokutake,Japan,F,1964,Masters 3,69,68.96,110,115,122.5,122.5,122.5,1,B,Single-ply,
Marie Brenden,USA,F,1964,Masters 3,84,81.05,115,-120,120,120,120,1,B,Single-ply,
Maureen Gordon,UK,F,1964,Masters 3,69,67.6,112.5,117.5,-123,117.5,117.5,2,B,Single-ply,
Seija Skogman,Finland,F,1965,Masters 2,69,67.8,-97.5,97.5,-105,97.5,97.5,5,B,Single-ply,
Hisako Ando,Japan,F,1965,Masters 2,57,56.25,75,82.5,85,85,85,2,B,Single-ply,
Gabriela Hirner,Germany,F,1965,Masters 2,57,54.1,100,102.5,-112.5,102.5,102.5,1,B,Single-ply,
Isabelle Iliev,USA,F,1967,Masters 2,63,62.25,117.5,122.5,-127.5,122.5,122.5,1,B,Single-ply,
Tomoko Miyamoto,Japan,F,1967,Masters 2,47,46.45,-85,-85,-85,,,DQ,B,Single-ply,
Claudia Nagata,USA,F,1968,Masters 2,69,63.2,75,77.5,-82.5,77.5,77.5,6,B,Single-ply,
Kim Wilson,USA,F,1968,Masters 2,57,56.35,67.5,75,-85,75,75,5,B,Single-ply,
Florence Leccese,France,F,1969,Masters 2,69,65.95,95,100,-105,100,100,4,B,Single-ply,
Mami Komatsu,Japan,F,1969,Masters 2,84+,85.35,85,90,-100,90,90,2,B,Single-ply,
Miyuki Sakurai,Japan,F,1969,Masters 2,63,62.65,95,100,105,105,105,2,B,Single-ply,
Yuki Takatori,Japan,F,1969,Masters 2,76,74.45,65,-70,70,70,70,3,B,Single-ply,
Michal Harris,USA,F,1970,Masters 2,84+,88.8,67.5,-75,-75,67.5,67.5,3,B,Single-ply,
Mikako Fujiyama,Japan,F,1970,Masters 2,52,51.85,62.5,-70,-72.5,62.5,62.5,3,B,Single-ply,
Rachel Spragg,UK,F,1970,Masters 2,63,62.6,77.5,82.5,-90,82.5,82.5,3,B,Single-ply,
Joanne Frost,UK,F,1971,Masters 2,84,81.05,-105,-105,-110,,,DQ,B,Single-ply,
Michelle Carlascio,USA,F,1971,Masters 2,63,58.8,50,-55,55,55,55,4,B,Single-ply,
Noriko Tsugane,Japan,F,1971,Masters 2,69,67.75,107.5,112.5,117.5,117.5,117.5,1,B,Single-ply,
Pernilla Röhr,Sweden,F,1972,Masters 2,84,83.55,115,-120,-125,115,115,2,B,Single-ply,
Annelie Izindre,Sweden,F,1972,Masters 2,69,63.9,100,-107.5,-107.5,100,100,3,B,Single-ply,
Piedade Carvalho,India,F,1972,Masters 2,76,74.35,35,-42.5,42.5,42.5,42.5,5,B,Single-ply,
Angel Yau-Vandenburg,Canada,F,1972,Masters 2,52,48.75,-65,65,-70,65,65,1,B,Single-ply,
Jillian Sproul,Canada,F,1972,Masters 2,84,76.75,100,105,-117.5,105,105,3,B,Single-ply,
Joanne Laird,UK,F,1972,Masters 2,84+,133.15,150,160,-165,160,160,1,B,Single-ply,
Ulrika Johansson,Sweden,F,1972,Masters 2,84,77.05,112.5,117.5,122.5,122.5,122.5,1,B,Single-ply,
Nathalie Hasiuk,Canada,F,1973,Masters 2,76,74.2,52.5,-57.5,65,65,65,4,B,Single-ply,
Catherine Gordon,UK,F,1973,Masters 2,76,75.05,105,110,115,115,115,2,B,Single-ply,
Shauna Hammer,Canada,F,1973,Masters 2,57,55.65,75,-80,-82.5,75,75,4,B,Single-ply,
Tiina Voho,Finland,F,1973,Masters 2,76,75.4,140,-150.5,-150.5,140,140,1,B,Single-ply,
Katja Ronkainen,Finland,F,1973,Masters 2,52,49.9,60,65,-70,65,65,2,B,Single-ply,
Hideko Suzuki,Japan,F,1974,Masters 2,69,68.4,-105,105,-120,105,105,2,B,Single-ply,
Emma Stott,UK,F,1974,Masters 2,57,55.85,-80,82.5,-87.5,82.5,82.5,3,B,Single-ply,
Marcela Sandvik,Finland,F,1974,Open,52,51.6,105,107.5,110,110,110,3,B,Single-ply,
Satu Sarpola,Finland,F,1975,Masters 1,76,72.7,100,102.5,105,105,105,4,B,Single-ply,
Sachiko Masuyama,Japan,F,1975,Masters 1,47,46.85,35,57.5,-72.5,57.5,57.5,2,B,Single-ply,
Rajni Malik,India,F,1975,Masters 1,76,74,55,60,-65,60,60,6,B,Single-ply,
Mélisa Meunier,France,F,1975,Masters 1,63,60.45,82.5,-87.5,-87.5,82.5,82.5,3,B,Single-ply,
Maura Shuttleworth,USA,F,1976,Open,52,51.95,-107.5,107.5,110,110,110,4,B,Single-ply,
Amy Suzan,US Virgin Islands,F,1976,Masters 1,69,68.6,97.5,105,110,110,110,2,B,Single-ply,
Iolanda Costa Zolyome,Brazil,F,1977,Masters 1,76,74.6,127.5,132.5,140,140,140,1,B,Single-ply,
Nora Keller,USA,F,1977,Masters 1,84,78.35,92.5,100,-105,100,100,3,B,Single-ply,
Linda Kristensen,Norway,F,1977,Open,76,75.95,165,-172.5,-175,165,165,5,B,Single-ply,
Amber Hinchelwood,UK,F,1978,Masters 1,63,58.25,55,60,65,65,65,4,B,Single-ply,
Siobhan Taylor,UK,F,1978,Masters 1,84+,116.8,165,170,185,185,185,1,B,Single-ply,
Patil Nilima,India,F,1978,Masters 1,52,51.15,62.5,67.5,-70,67.5,67.5,2,B,Single-ply,
Amber Gomez,USA,F,1978,Masters 1,76,73.4,100,102.5,107.5,107.5,107.5,3,B,Single-ply,
Larysa Soloviova #1,Ukraine,F,1978,Open,63,62.85,150,160,165,165,165,1,B,Single-ply,
Amanda Hughes,UK,F,1979,Masters 1,57,55.85,90,95,100,100,100,2,B,Single-ply,
Helena Rehnberg,Finland,F,1979,Masters 1,84+,142.9,152.5,167.5,-187.5,167.5,167.5,2,B,Single-ply,
Shantelle Szuch,Canada,F,1979,Masters 1,69,67.3,97.5,102.5,105,105,105,3,B,Single-ply,
Heidi Fowler,Canada,F,1980,Masters 1,84+,92.4,130,-140,140,140,140,4,B,Single-ply,
Sara Rodock,USA,F,1981,Open,84,83.1,157.5,-162.5,-162.5,157.5,157.5,5,B,Single-ply,
Lene Alexandra Øien,Norway,F,1981,Masters 1,63,58.65,82.5,87.5,-95,87.5,87.5,1,B,Single-ply,
Sarah Wages,USA,F,1981,Masters 1,84+,133.15,140,-150,150,150,150,3,B,Single-ply,
Kathrine Holmgaard Bak,Denmark,F,1981,Masters 1,69,63.85,107.5,110,-117.5,110,110,1,B,Single-ply,
Nicola Murphy,UK,F,1981,Masters 1,52,50.95,60,65,-70,65,65,3,B,Single-ply,
Pamela Hodder,Canada,F,1981,Masters 1,76,74.05,-125,125,-132.5,125,125,2,B,Single-ply,
Faith Clough,USA,F,1982,Masters 1,63,61.3,72.5,80,85,85,85,2,B,Single-ply,
Anita Rathi,India,F,1982,Masters 1,57,56.65,62.5,-65,-65,62.5,62.5,4,B,Single-ply,
Marie Wagner,Canada,F,1982,Masters 1,84,83.7,125,135,142.5,142.5,142.5,1,B,Single-ply,
Mai Uehara,Japan,F,1982,Masters 1,57,54.4,92.5,-97.5,-97.5,92.5,92.5,3,B,Single-ply,
Tiina Leppäaho,Finland,F,1983,Masters 1,84,80.4,107.5,112.5,-117.5,112.5,112.5,2,B,Single-ply,
Hildeborg Juvet Hugdal,Norway,F,1983,Open,84+,120,230,237.5,-240.5,237.5,237.5,1,B,Single-ply,
Jessica Reyes,Mexico,F,1983,Masters 1,57,54.15,102.5,107.5,112.5,112.5,112.5,1,B,Single-ply,
Tomoko Akagawa,Japan,F,1984,Open,57,56.85,147.5,150,-162.5,150,150,2,B,Single-ply,
Maria Frank,Canada,F,1984,Masters 1,52,51.85,115,-130.5,-130.5,115,115,1,B,Single-ply,
Danielle Todman,US Virgin Islands,F,1984,Masters 1,76,74.4,92.5,100,105,105,105,5,B,Single-ply,
Miki Koseki,Japan,F,1984,Masters 1,47,45.65,70,-75,75,75,75,1,B,Single-ply,
Kate Sweatman,UK,F,1985,Open,84+,135.05,-215,-217.5,220,220,220,2,B,Single-ply,
Maria Kamp Jensen,Denmark,F,1985,Open,84+,105.55,195,200,-210,200,200,4,B,Single-ply,
Joan Báez,Puerto Rico,F,1986,Open,84+,116.2,167.5,175,-202.5,175,175,6,B,Single-ply,
Zhadyra Bermukhambetova,Kazakhstan,F,1986,Open,84,83.55,-185,185,-210,185,185,3,B,Single-ply,
Ankie Timmers,Luxembourg,F,1986,Open,84,83.5,190,197.5,207.5,207.5,207.5,2,B,Single-ply,
Assiya Orazbekova,Kazakhstan,F,1987,Open,47,46.9,70,80,-90,80,80,3,B,Single-ply,
Xeniya Khan,Kazakhstan,F,1987,Open,76,75.45,182.5,185,187.5,187.5,187.5,1,B,Single-ply,
Rhaea Stinn,Canada,F,1988,Open,84,83.7,200,207.5,210,210,210,1,B,Single-ply,
Namiko Sakata,Japan,F,1988,Open,63,62,120,130,-142.5,130,130,7,B,Single-ply,
Amila Dissanayake,UK,F,1988,Open,52,51.45,110,-115,-115,110,110,2,B,Single-ply,
Kumi Mizoguchi,Japan,F,1988,Open,69,68.75,157.5,165,-183,165,165,2,B,Single-ply,
Jodie Cook #1,UK,F,1988,Open,57,56.15,-122.5,132.5,-140,132.5,132.5,5,B,Single-ply,
Patricia Southerland,USA,F,1988,Open,63,62.9,-140,140,-145,140,140,5,B,Single-ply,
Megg Turner,Canada,F,1988,Open,69,65.85,-105,-107.5,107.5,107.5,107.5,7,B,Single-ply,
Adriana Vargas Saborio,Costa Rica,F,1989,Open,84+,100.85,-165,-165,-165,,,DQ,B,Single-ply,
Maj B Rames,Denmark,F,1989,Open,63,62.35,155,160,162.5,162.5,162.5,2,B,Single-ply,
Rebecca Salter,USA,F,1989,Open,84+,107.45,100,110,-120,110,110,7,B,Single-ply,
Maria Kojoukhova,Finland,F,1989,Open,52,51.75,-102.5,-105,105,105,105,5,B,Single-ply,
Mansi Tripathi,India,F,1989,Open,84,81.55,-55,55,-65,55,55,7,B,Single-ply,
Natalie Hanson,USA,F,1990,Open,76,75.85,172.5,175,-180,175,175,4,B,Single-ply,
Kayla Livingston,Canada,F,1990,Open,76,74.9,-102.5,102.5,107.5,107.5,107.5,9,B,Single-ply,
Matilda Hjälle,Sweden,F,1991,Open,84+,106.55,187.5,197.5,210,210,210,3,B,Single-ply,
Casey Hill #1,USA,F,1991,Open,57,56,120,130,137.5,137.5,137.5,4,B,Single-ply,
Julie Albrecht Hansen,Denmark,F,1991,Open,84,82.8,162.5,-170,170,170,170,4,B,Single-ply,
Zhadyra Harashova,Kazakhstan,F,1992,Open,63,62.7,130,-137.5,-142.5,130,130,8,B,Single-ply,
Oksana Motrunchyk,Ukraine,F,1992,Open,47,46.82,105,110,120,120,120,1,B,Single-ply,
Emma Johannesson,Sweden,F,1992,Open,63,62.4,122.5,127.5,-132.5,127.5,127.5,9,B,Single-ply,
Kelsey McCarthy,USA,F,1992,Open,69,67.9,172.5,177.5,-183.5,177.5,177.5,1,B,Single-ply,
Helen Quinn,UK,F,1992,Open,57,53.55,92.5,97.5,-117.5,97.5,97.5,8,B,Single-ply,
Romina Basting,UK,F,1993,Open,69,66.7,102.5,110,115,115,115,6,B,Single-ply,
Elise Rosenborg,Norway,F,1993,Open,63,61.75,130,140,-145,140,140,4,B,Single-ply,
Ada Brander,Mexico,F,1993,Open,76,75.8,100,105,112.5,112.5,112.5,8,B,Single-ply,
Katelyn Gmernicki,USA,F,1993,Open,69,65.6,130,132.5,135,135,135,4,B,Single-ply,
Ingvild Hansen,Norway,F,1994,Open,69,66.7,152.5,-157.5,-165,152.5,152.5,3,B,Single-ply,
Daria Ławniczak,Poland,F,1995,Open,76,75,150,-157.5,-157.5,150,150,7,B,Single-ply,
Rachel Steedman,UK,F,1995,Open,76,74.45,-147.5,150,-157.5,150,150,6,B,Single-ply,
Tejavath Sukanya,India,F,1995,Open,76,74.45,85,97.5,105,105,105,10,B,Single-ply,
Blanka Bartoňková,Czechia,F,1995,Open,57,56.55,120,127.5,-135,127.5,127.5,6,B,Single-ply,
Miriam Weber,UK,F,1996,Open,84,83.9,110,120,125,125,125,6,B,Single-ply,
Kathryn Hall #2,UK,F,1996,Open,63,61.5,115,120,-130,120,120,10,B,Single-ply,
Zina Demian,Ukraine,F,1997,Open,52,50.95,95,-102.5,-107.5,95,95,6,B,Single-ply,
Lea-Sophie Gersberg,Germany,F,1997,Open,63,62,130,135,-142.5,135,135,6,B,Single-ply,
Orkhontuul Ochirbat,Mongolia,F,1997,Open,57,56.9,117.5,-127.5,-135,117.5,117.5,7,B,Single-ply,
Hanna Buturlym,Ukraine,F,1997,Open,57,56.15,127.5,132.5,140,140,140,3,B,Single-ply,
Yuka Miyazaki,Japan,F,1998,Open,47,46.7,87.5,-95,-110,87.5,87.5,2,B,Single-ply,
Katerina Pinionzh,Ukraine,F,1998,Open,69,68.55,-125,125,-135,125,125,5,B,Single-ply,
Miyabi Kikuchi,Japan,F,1998,Open,52,51.8,120,127.5,132.5,132.5,132.5,1,B,Single-ply,
Misaki Ikeda,Japan,F,1999,Open,63,62.45,120,-132.5,142.5,142.5,142.5,3,B,Single-ply,
Zuzanna Kula,Poland,F,1999,Open,57,54.85,-160,160,168,168,168,1,B,Single-ply,
Karolina Kołata,Poland,F,1999,Open,84+,105.25,185,-192.5,-200,185,185,5,B,Single-ply,
Agnes Rudin,Sweden,F,2000,Open,76,75.45,165,172.5,177.5,177.5,177.5,2,B,Single-ply,
Natalia Wójtowicz,Poland,F,2001,Juniors,69,68.8,102.5,110,-120,110,110,1,B,Single-ply,
Juliane Slettnes,Norway,F,2001,Juniors,76,75,137.5,147.5,152.5,152.5,152.5,1,B,Single-ply,
Diyora Saitmuratova,Kazakhstan,F,2001,Juniors,84,77.55,80,87.5,95,95,95,2,B,Single-ply,
Oksana Sukhodieieva,Ukraine,F,2001,Juniors,43,41.1,52.5,-55,55,55,55,1,B,Single-ply,
Diana Nuriddinova,Kazakhstan,F,2001,Juniors,52,50.5,55,65,-75,65,65,2,B,Single-ply,
Viktorie Slavíková,Czechia,F,2002,Juniors,47,46.5,50,70,80,80,80,1,B,Single-ply,
Linnea Forslund,Sweden,F,2002,Juniors,63,61.9,120,127.5,135,135,135,1,B,Single-ply,
Riina Hartikainen,Finland,F,2002,Juniors,52,50.45,70,72.5,80,80,80,1,B,Single-ply,
Kateřina Omelková,Czechia,F,2002,Juniors,76,73.25,60,82.5,90,90,90,3,B,Single-ply,
Airi Sakaguchi,Japan,F,2003,Open,76,75.2,-170,170,175,175,175,3,B,Single-ply,
Vira Popruha,Ukraine,F,2003,Juniors,84+,128.15,107.5,115,-132.5,115,115,2,B,Single-ply,
Shirin Yunussaliyeva,Kazakhstan,F,2004,Juniors,63,61.15,70,80,85,85,85,3,B,Single-ply,
Haileigh Lupo,USA,F,2004,Juniors,84,82.85,120,125,130,130,130,1,B,Single-ply,
Lola Cheramie,USA,F,2004,Juniors,57,54.5,80,85,-90,85,85,2,B,Single-ply,
Aeryn Anderson,USA,F,2004,Juniors,63,62.75,80,85,87.5,87.5,87.5,2,B,Single-ply,
Jasmine Barlow,USA,F,2004,Juniors,43,42.65,-47.5,-47.5,47.5,47.5,47.5,2,B,Single-ply,
Martyna Janaszek,Poland,F,2005,Juniors,57,55.25,55,87.5,95,95,95,1,B,Single-ply,
Natalia Selwiak,Poland,F,2005,Juniors,84+,104,130,-135,-140,130,130,1,B,Single-ply,
Yagya Yagya,India,F,2005,Juniors,84,83.15,55,70,-95,70,70,3,B,Single-ply,
Katherine Cargill,USA,F,2005,Juniors,76,73.8,117.5,122.5,125,125,125,2,B,Single-ply,
Ella Brincat Smith,UK,F,2005,Juniors,84+,100.2,105,112.5,-130,112.5,112.5,3,B,Single-ply,
Isabel Olivarez,USA,F,2005,Juniors,69,68.45,-107.5,-110,-110,,,DQ,B,Single-ply,
Tserendejid Batmunkh,Mongolia,F,2006,Sub-Juniors,76,75.25,60,85,100,100,100,2,B,Single-ply,
Mikayla Forsythe,USA,F,2006,Sub-Juniors,84+,99.45,125,135,142.5,142.5,142.5,1,B,Single-ply,
Bailey Fields,USA,F,2006,Sub-Juniors,84,79.3,-92.5,92.5,-102.5,92.5,92.5,2,B,Single-ply,
Chloe Smith,UK,F,2006,Sub-Juniors,52,49.25,35,42.5,-50,42.5,42.5,1,B,Single-ply,
Katie Tatum,UK,F,2006,Sub-Juniors,84,80,97.5,102.5,-107.5,102.5,102.5,1,B,Single-ply,
Aiken Nuridin,Kazakhstan,F,2007,Sub-Juniors,69,68.35,80,90,97.5,97.5,97.5,3,B,Single-ply,
Kaylee Robin,USA,F,2007,Sub-Juniors,76,74.5,120,135,-145.5,135,135,1,B,Single-ply,
Lila Cooper,USA,F,2007,Sub-Juniors,57,56.8,82.5,-92.5,92.5,92.5,92.5,1,B,Single-ply,
Ninni Kopola,Finland,F,2007,Sub-Juniors,63,62.3,70,100,107.5,107.5,107.5,1,B,Single-ply,
Jana Rojková,Czechia,F,2007,Sub-Juniors,69,68.5,140,-148,-148,140,140,1,B,Single-ply,
Celeste Godinez,USA,F,2008,Sub-Juniors,69,68.75,90,95,100,100,100,2,B,Single-ply,
Mihkel Laurits,Estonia,M,1944,Masters 4,120,106.15,107.5,117.5,-120,117.5,117.5,2,B,Raw,
Charlie Banfield,Canada,M,1948,Masters 4,120+,120.8,-100,100,-105,100,100,3,B,Raw,
Tilman Gallant,Canada,M,1948,Masters 4,83,80.9,105,112.5,-117.5,112.5,112.5,4,B,Raw,
Mel Tatsumi,USA,M,1948,Masters 4,59,54.89,50,60,-62.5,60,60,3,B,Raw,
Hans-Joachim Thuerk,Germany,M,1949,Masters 4,120,105.2,112.5,-115,-117.5,112.5,112.5,3,B,Raw,
Kyoji Kawakami,Japan,M,1950,Masters 4,59,57.1,85,90,-95,90,90,1,B,Raw,
Claude Welcome,USA,M,1951,Masters 4,93,91.4,130,135,-140,135,135,2,B,Raw,
Gerhard Baumeister,Germany,M,1952,Masters 4,83,82.9,117.5,122.5,127.5,127.5,127.5,1,B,Raw,
Hideyuki Nobuhara,Japan,M,1952,Masters 4,74,73.65,130,-135,-135,130,130,1,B,Raw,
Gary Reale,USA,M,1953,Masters 4,74,73.3,90,95,-102.5,95,95,3,B,Raw,
Yves Dubois,Canada,M,1953,Masters 4,93,88.6,125,-132.5,-132.5,125,125,3,B,Raw,
Inderjit Singh Sabharwal,India,M,1954,Masters 4,83,81.45,102.5,110,112.5,112.5,112.5,5,B,Raw,
Terry Young,Canada,M,1954,Masters 4,120+,134.85,125,135,-140,135,135,2,B,Raw,
Harald Paul,Germany,M,1954,Masters 4,120+,129.1,132.5,137.5,142.5,142.5,142.5,1,B,Raw,
Toshihiro Suyama,Japan,M,1954,Masters 4,105,93.35,140,150,-155,150,150,1,B,Raw,
John Noguera,Canada,M,1956,Masters 3,93,89.75,110,120,122.5,122.5,122.5,7,B,Raw,
Réjean Talon,Canada,M,1957,Masters 3,66,65.75,110,115,-122.5,115,115,2,B,Raw,
Stephen Flemming,Canada,M,1957,Masters 3,93,91.7,-120,120,-122.5,120,120,8,B,Raw,
Werner Wieninger,Germany,M,1957,Masters 3,120,116.6,150,-160,-165,150,150,3,B,Raw,
Daniel Royer,Canada,M,1957,Masters 3,105,96.05,80,87.5,95,95,95,6,B,Raw,
James Ray #1,USA,M,1957,Masters 3,120+,158.7,182.5,195,-200,195,195,2,B,Raw,
Marc Vézina,Canada,M,1958,Masters 3,83,81.8,100,110,-120,110,110,6,B,Raw,
Joachim Graupner,Germany,M,1958,Masters 3,83,81.5,140,150,-155,150,150,5,B,Raw,
Bayar Purev,Mongolia,M,1958,Masters 3,74,73.35,-100,100,-122.5,100,100,3,B,Raw,
Howard Sturman,USA,M,1958,Masters 3,83,82.35,-157.5,157.5,164.5,164.5,164.5,2,B,Raw,
Franz Nerb,Germany,M,1959,Masters 3,83,82.6,157.5,163.5,165,165,165,1,B,Raw,
Brian Rock,Canada,M,1959,Masters 3,120,117.4,172.5,177.5,-182.5,177.5,177.5,2,B,Raw,
Thomas Cencich,USA,M,1960,Masters 3,93,90.4,145,150,-152.5,150,150,2,B,Raw,
Jim Kathios,USA,M,1961,Masters 3,105,102.9,142.5,147.5,152.5,152.5,152.5,4,B,Raw,
Dennis Alba,USA,M,1961,Masters 3,83,79.75,150,160,-164,160,160,3,B,Raw,
Steven Crane #1,Puerto Rico,M,1962,Masters 3,93,91.6,150,152.5,-155,152.5,152.5,1,B,Raw,
Steve Edwards,USA,M,1962,Masters 3,66,64.95,90,95,-110,95,95,3,B,Raw,
Uwe Hering,Germany,M,1963,Masters 3,93,92.7,140,145,150,150,150,3,B,Raw,
Mark Magnuson,Canada,M,1964,Masters 3,120,114.9,117.5,-125,130,130,130,4,B,Raw,
David Doan,USA,M,1964,Masters 3,120+,127,185,197.5,202.5,202.5,202.5,1,B,Raw,
David Hrynkow,Canada,M,1964,Masters 3,66,65.6,82.5,85,-97.5,85,85,4,B,Raw,
Kohei Wada,Japan,M,1964,Masters 3,120,119.5,190,201.5,-212.5,201.5,201.5,1,B,Raw,
Klaus Semskij,Germany,M,1964,Masters 3,105,103.6,-180,182.5,-185,182.5,182.5,3,B,Raw,
Bimal Indu Sharma,India,M,1964,Masters 3,93,88.05,125,-132.5,,125,125,6,B,Raw,
Jose Selem,Peru,M,1965,Masters 2,93,90.05,110,-120,120,120,120,9,B,Raw,
Joseph McAuliffe,USA,M,1965,Masters 2,83,81.9,162.5,170,175,175,175,2,B,Raw,
Damian Fronzaglia,USA,M,1965,Masters 2,74,73,155,160,170,170,170,1,B,Raw,
Luis Zerpa,Peru,M,1965,Masters 2,105,100.95,90,95,100,100,100,10,B,Raw,
Gary Lacoursiere,Canada,M,1967,Masters 2,74,73.8,125,132.5,-140,132.5,132.5,3,B,Raw,
Michael Wade,Canada,M,1967,Masters 2,105,102,147.5,155,160,160,160,9,B,Raw,
John Scott Macintyre,Canada,M,1967,Masters 2,120+,130.35,100,-120,-120,100,100,8,B,Raw,
Takuya Yamashita,Japan,M,1968,Masters 2,74,73.85,150,157.5,-162.5,157.5,157.5,2,B,Raw,
Steve Petrencak,USA,M,1968,Masters 2,66,63.8,-112.5,112.5,115,115,115,2,B,Raw,
János Cserna,Hungary,M,1968,Masters 2,120+,127.55,200,207.5,215,215,215,2,B,Raw,
Morten Sørig,Denmark,M,1969,Masters 2,120+,124.05,147.5,157.5,-162.5,157.5,157.5,7,B,Raw,
Vesa Hartikainen,Finland,M,1969,Masters 2,83,82.5,150,155,-160,155,155,7,B,Raw,
Scott Robertson,Canada,M,1970,Masters 2,120,119.35,200,-212.5,-215,200,200,3,B,Raw,
Tomohiro Sakai,Japan,M,1970,Masters 2,93,91.45,185,-195,195,195,195,1,B,Raw,
Jorge Castaneda,USA,M,1970,Masters 2,120,113.9,212.5,-217.5,220,220,220,1,B,Raw,
Thomas Kraemer,Germany,M,1970,Masters 2,105,103.85,160,-170,180,180,180,6,B,Raw,
Daniel Fernandez,Uruguay,M,1970,Masters 2,83,82.95,180,186,-190,186,186,1,B,Raw,
Dean Schwartz,Canada,M,1970,Masters 2,93,91.3,137.5,145,-150,145,145,7,B,Raw,
Teskhuu Ichinnorov,Mongolia,M,1971,Masters 2,105,103.5,177.5,-180,-190,177.5,177.5,7,B,Raw,
Brian Colbourne,Canada,M,1971,Masters 2,83,80.25,135,140,142.5,142.5,142.5,8,B,Raw,
Michael McQueen,USA,M,1971,Masters 2,105,102.7,175,182.5,187.5,187.5,187.5,4,B,Raw,
Deepak Shreenath Sharma,India,M,1971,Masters 2,120+,130.65,85,92.5,-100,92.5,92.5,9,B,Raw,
Chris Walter,USA,M,1971,Masters 2,105,98.9,195,200,205,205,205,1,B,Raw,
Darcy Morin,Canada,M,1971,Masters 2,120,118,165,172.5,-180,172.5,172.5,5,B,Raw,
Petri Ronkainen,Finland,M,1972,Masters 2,93,92.65,152.5,160,165,165,165,6,B,Raw,
Edward Ruland,USA,M,1972,Masters 2,93,92.5,172.5,180,187.5,187.5,187.5,4,B,Raw,
Richard Tamaki,Canada,M,1972,Masters 2,93,89.1,142.5,-150,-150,142.5,142.5,8,B,Raw,
Henrik Sørensen,Denmark,M,1973,Masters 2,120,110.45,160,170,175,175,175,4,B,Raw,
Shigeki Kushino,Japan,M,1973,Masters 2,83,82.85,160,167.5,-175,167.5,167.5,5,B,Raw,
Jan Kluwe,Germany,M,1974,Masters 2,93,91.9,157.5,162.5,165,165,165,5,B,Raw,
Thomas Wetzstein,Austria,M,1974,Masters 2,105,96.1,165,-175,-182.5,165,165,8,B,Raw,
Battumur Khumuugul,Mongolia,M,1974,Masters 2,105,96.35,185,195,-205,195,195,2,B,Raw,
Abel Baltuano,Peru,M,1974,Masters 2,120,110.7,125,135,142.5,142.5,142.5,9,B,Raw,
Sven Mueller,Germany,M,1975,Masters 1,120+,128.5,200,210,-222.5,210,210,4,B,Raw,
Ronny Kreitl,Germany,M,1976,Masters 1,93,92.3,165,172.5,-180,172.5,172.5,4,B,Raw,
Merdan Nursahatov,USA,M,1976,Masters 1,74,73.85,162.5,167.5,-180,167.5,167.5,2,B,Raw,
Oscar Lopez,Mexico,M,1977,Masters 1,83,78.5,105,110,-112.5,110,110,8,B,Raw,
Sean Vandenburg,Canada,M,1977,Masters 1,59,57.45,100,107.5,110,110,110,3,B,Raw,
Luis Carranza,Peru,M,1978,Masters 1,93,84.6,135,150,157.5,157.5,157.5,6,B,Raw,
Llalando Austin,USA,M,1979,Masters 1,83,81.2,182.5,192.5,-202.5,192.5,192.5,3,B,Raw,
Ankhbayar Damdin,Mongolia,M,1979,Masters 1,120+,153.75,215,220,222.5,222.5,222.5,3,B,Raw,
Edward Boraas,Canada,M,1979,Masters 1,83,80.45,110,115,120,120,120,7,B,Raw,
Berke Lóránd,Hungary,M,1979,Masters 1,93,92.2,165,-172.5,-172.5,165,165,5,B,Raw,
Umar Abdullah,USA,M,1979,Masters 1,120+,186,240,250,-270,250,250,1,B,Raw,
Stefan Mohr,Germany,M,1980,Masters 1,59,57.5,100,107.5,110,110,110,4,B,Raw,
Kenan Abel,Germany,M,1980,Masters 1,74,73.4,145,150,152.5,152.5,152.5,4,B,Raw,
Marcus Helfensdoerfer,Germany,M,1980,Masters 1,66,65.1,125,130,-132.5,130,130,4,B,Raw,
Steve Snell #1,Canada,M,1980,Masters 1,120+,143.95,180,190,200,200,200,6,B,Raw,
Phillip Wilkins,USA,M,1980,Masters 1,105,102.85,217.5,-225,-227.5,217.5,217.5,1,B,Raw,
James Townsend #1,USA,M,1981,Masters 1,105,104.8,172.5,177.5,-187.5,177.5,177.5,6,B,Raw,
Doel Cotte,Puerto Rico,M,1981,Masters 1,74,72.35,115,-120,-122.5,115,115,8,B,Raw,
Otgondalai Tsend-Ayush,Mongolia,M,1981,Masters 1,93,91.45,192.5,197.5,-202.5,197.5,197.5,1,B,Raw,
Frederick Quarles,USA,M,1981,Masters 1,120,118.45,182.5,187.5,-207.5,187.5,187.5,6,B,Raw,
Munkhbat Odontungalag,Mongolia,M,1982,Masters 1,120,117.7,205,-210,217.5,217.5,217.5,3,B,Raw,
Jonathan Losa,USA,M,1982,Masters 1,83,82.3,192.5,202.5,-207.5,202.5,202.5,2,B,Raw,
Michael Pawlowski,Germany,M,1983,Masters 1,83,82.2,167.5,175,-180,175,175,4,B,Raw,
Florian Sauerer,Germany,M,1983,Masters 1,120+,126.65,180,192.5,-200,192.5,192.5,8,B,Raw,
Curtis Howden,Canada,M,1983,Masters 1,74,73.5,115,122.5,-130,122.5,122.5,7,B,Raw,
Teemu Tapanainen,Finland,M,1984,Masters 1,83,82.05,145,152.5,-157.5,152.5,152.5,6,B,Raw,
Yuji Fujita,Japan,M,1984,Masters 1,59,58.75,145,150,-157.5,150,150,1,B,Raw,
Yusuke Suzuki,Japan,M,1984,Masters 1,83,82.3,205,-215,-225,205,205,1,B,Raw,
Manuel Mamani,Peru,M,1984,Masters 1,74,73.2,137.5,145,-150,145,145,5,B,Raw,
Orgilbold Galdan,Mongolia,M,1986,Open,93,88.6,215,222.5,227.5,227.5,227.5,1,B,Raw,
Michael Dudley,USA,M,1987,Open,105,103.8,-230,230,242.5,242.5,242.5,1,B,Raw,
Ilyes Boughalem,Algeria,M,1987,Open,120+,161.15,255,265,282.5,282.5,282.5,2,B,Raw,
Juan Arbulu Grippa,Peru,M,1987,Open,66,64.25,-70,,,,,DQ,B,Raw,
Bat-Amgalan Purevsuren,Mongolia,M,1987,Open,59,58.25,155,-160,-162.5,155,155,4,B,Raw,
Jeremy Auerbach,USA,M,1987,Open,120+,147.7,235,242.5,250,250,250,5,B,Raw,
Marko Piyadeth Krause,Germany,M,1988,Open,93,90.95,195,-202.5,-205,195,195,9,B,Raw,
Ryan Baylark,USA,M,1988,Open,93,92.5,190,202.5,-210,202.5,202.5,7,B,Raw,
Markus Patschke,Germany,M,1988,Open,120+,162.75,245,250,255,255,255,3,B,Raw,
Shane Martin,Canada,M,1988,Open,120+,133.1,237.5,-250,252.5,252.5,252.5,4,B,Raw,
Benjamin Yu,Canada,M,1989,Open,59,57,130,-137.5,137.5,137.5,137.5,6,B,Raw,
Loc Nguyen #2,Canada,M,1989,Open,74,73.2,150,-160,167.5,167.5,167.5,8,B,Raw,
Kévin D'Heer,France,M,1989,Open,120,119.15,230,240,245,245,245,4,B,Raw,
Thomas Maik Schöneck,Germany,M,1990,Open,120+,146.2,-245,-245,-245,,,DQ,B,Raw,
Jonathan Cognac,Canada,M,1990,Open,105,103.55,200,-210,-210,200,200,8,B,Raw,
Ryota Kobayashi,Japan,M,1990,Open,66,61.85,132.5,145,-155,145,145,7,B,Raw,
Kaden Hush,USA,M,1991,Open,120,117.95,240,247.5,255,255,255,1,B,Raw,
Joni Tajakka,Finland,M,1992,Open,105,104.4,225,232.5,-237.5,232.5,232.5,4,B,Raw,
Josef Eriksson,Sweden,M,1992,Open,93,92.85,217.5,225,-230,225,225,2,B,Raw,
Khashayar Farzam,Canada,M,1993,Open,93,91.8,195,205,-210,205,205,6,B,Raw,
Jürgen Kraushofer,Austria,M,1993,Open,83,81.9,-205,205,-212.5,205,205,4,B,Raw,
Christoph Koch,Germany,M,1995,Open,105,102.65,197.5,202.5,-205,202.5,202.5,7,B,Raw,
Angel Dominguez,Panama,M,1996,Open,93,90.35,132.5,140,-145,140,140,15,B,Raw,
Andi Boka,Canada,M,1996,Open,83,81.5,192.5,200,-207.5,200,200,5,B,Raw,
Maximilian Buehrer,Germany,M,1998,Open,105,104.2,-197.5,197.5,-202.5,197.5,197.5,9,B,Raw,
Reo Tanaka,Japan,M,1998,Open,59,57.85,160,165,176,176,176,1,B,Raw,
Austin Perkins #1,USA,M,1999,Open,74,73.35,190,-202.5,-202.5,190,190,5,B,Raw,
Leunard Gervalla,Canada,M,2000,Open,120,117.7,242.5,-252.5,252.5,252.5,252.5,2,B,Raw,
Nathan Young #1,Australia,M,2000,Open,105,104,215,225,232.5,232.5,232.5,3,B,Raw,
Jalen Nelson,Canada,M,2000,Open,66,64.3,147.5,155,160,160,160,3,B,Raw,
Emmanuel Zepeda,Mexico,M,2000,Open,83,82.3,132.5,142.5,-147.5,142.5,142.5,12,B,Raw,
Jack Solomon,USA,M,2000,Open,66,64.15,125,-140,145,145,145,8,B,Raw,
Maximilian Weigandt,Germany,M,2001,Juniors,83,82.65,165,170,-175,170,170,6,B,Raw,
Felix Pfleiderer,Germany,M,2001,Juniors,120+,170.55,212.5,225,235,235,235,1,B,Raw,
Jérémie Caron #1,Canada,M,2001,Juniors,93,90.15,210,221.5,-225,221.5,221.5,2,B,Raw,
Lal Hlimpuia,India,M,2001,Juniors,83,81,155,-165,-172.5,155,155,9,B,Raw,
Adrian Cheung,Canada,M,2001,Juniors,74,72.15,-145,145,-155,145,145,9,B,Raw,
Arthur Hauet,France,M,2001,Juniors,66,65.75,-150,150,-157.5,150,150,4,B,Raw,
Jonathan Henningsson,Sweden,M,2001,Juniors,93,92.65,212.5,222,225.5,225.5,225.5,1,B,Raw,
John Tyler #1,USA,M,2001,Juniors,105,96.3,182.5,190,197.5,197.5,197.5,3,B,Raw,
Sota Saito,Japan,M,2001,Juniors,83,81.9,140,155,-165,155,155,10,B,Raw,
Ethan Joyce,Canada,M,2001,Juniors,93,91.4,142.5,150,-155,150,150,6,B,Raw,
John Ray Walls,Canada,M,2001,Juniors,105,101.55,192.5,202.5,205,205,205,2,B,Raw,
Anson Chew,Canada,M,2001,Juniors,66,65.4,147.5,155,165,165,165,1,B,Raw,
Bailey James,UK,M,2001,Juniors,59,57.9,105,110,112.5,112.5,112.5,6,B,Raw,
Axel Samuelsson,Sweden,M,2002,Juniors,93,89.45,-195,195,-212.5,195,195,3,B,Raw,
Brenek Spademan,Canada,M,2002,Juniors,83,82.2,155,165,-175,165,165,8,B,Raw,
Dario Merbeler,Germany,M,2003,Juniors,120,119.55,180,187.5,195,195,195,3,B,Raw,
Nick Hecken,Germany,M,2003,Juniors,105,103.75,182.5,192.5,-195,192.5,192.5,7,B,Raw,
Anthony Jasmin,Canada,M,2003,Juniors,74,71.4,155,160,-167.5,160,160,7,B,Raw,
Emil Lundgren,Sweden,M,2003,Juniors,74,73.65,185,192.5,-197.5,192.5,192.5,1,B,Raw,
Brady Graceffa,USA,M,2003,Juniors,83,81.35,135,145,152.5,152.5,152.5,11,B,Raw,
Muhammad Haider,Canada,M,2003,Juniors,120+,151.25,132.5,152.5,-160,152.5,152.5,8,B,Raw,
Olivér Susa,Hungary,M,2004,Juniors,105,104.9,205,-212.5,212.5,212.5,212.5,1,B,Raw,
Henrik Chan,USA,M,2004,Juniors,120,119.25,167.5,-180,-182.5,167.5,167.5,4,B,Raw,
Luca Streif,Germany,M,2005,Juniors,120+,185.45,205,-217.5,217.5,217.5,217.5,3,B,Raw,
Takaho Osawa,Japan,M,2005,Juniors,66,65.8,122.5,-130,130,130,130,5,B,Raw,
Tamaki Rikizo,Canada,M,2005,Juniors,59,58.15,110,-117.5,-117.5,110,110,7,B,Raw,
Daniel Hashempour,USA,M,2005,Juniors,93,89.4,137.5,-145,145,145,145,7,B,Raw,
James Kellerman,USA,M,2005,Juniors,105,101.1,165,170,-177.5,170,170,9,B,Raw,
Simon Dafner,Germany,M,2006,Sub-Juniors,59,57.55,110,112.5,115,115,115,2,B,Raw,
Thomas Billoir,France,M,2006,Sub-Juniors,83,78.65,147.5,152.5,157.5,157.5,157.5,2,B,Raw,
Pavol Ragula,Slovakia,M,2006,Sub-Juniors,66,64.15,122.5,130,137.5,137.5,137.5,1,B,Raw,
Rito Flores,USA,M,2006,Sub-Juniors,74,73.5,137.5,145,152.5,152.5,152.5,1,B,Raw,
Joshua Reid,Canada,M,2006,Sub-Juniors,93,88.4,120,127.5,130,130,130,3,B,Raw,
Jack Reynolds,USA,M,2007,Sub-Juniors,83,81.15,162.5,177.5,185,185,185,1,B,Raw,
Matthew Deans,USA,M,2007,Sub-Juniors,83,81.05,85,-92.5,92.5,92.5,92.5,4,B,Raw,
Zachary Vandenburg,Canada,M,2007,Sub-Juniors,53,50.1,85,87.5,90,90,90,2,B,Raw,
Yaroslav Chala,Ukraine,M,1948,Masters 4,105,95.65,115,122.5,-125,122.5,122.5,3,B,Raw,
Daribay Ospanov,Kazakhstan,M,1949,Masters 4,83,81.6,117.5,122.5,-127.5,122.5,122.5,2,B,Raw,
Patrick Dumaine,France,M,1953,Masters 4,74,72.85,95,100,-102.5,100,100,2,B,Raw,
Marvin Huber,USA,M,1953,Masters 4,66,64.95,92.5,97.5,100,100,100,1,B,Raw,
Ken Levine,USA,M,1953,Masters 4,83,81.6,112.5,117.5,122.5,122.5,122.5,3,B,Raw,
Donald Peters,Canada,M,1954,Masters 4,105,101.7,105,-112.5,112.5,112.5,112.5,4,B,Raw,
Stanisław Mentel,Poland,M,1954,Masters 4,93,90.9,165,175,182.5,182.5,182.5,1,B,Raw,
Hiroyuki Kitamura,Japan,M,1954,Masters 4,59,57.7,90,-95,-95,90,90,2,B,Raw,
Kevin Hutchinson,USA,M,1954,Masters 4,105,97.85,140,-150,-152.5,140,140,2,B,Raw,
Hayward Young,Canada,M,1954,Masters 4,120,118.7,110,120,122.5,122.5,122.5,1,B,Raw,
Juji Otani,Japan,M,1957,Masters 3,74,72.8,135,145,147.5,147.5,147.5,2,B,Raw,
Michael Hara,USA,M,1960,Masters 3,74,73.4,135,147.5,150,150,150,1,B,Raw,
Tomas Ring,Sweden,M,1960,Masters 3,93,85.05,137.5,145,-150,145,145,4,B,Raw,
Takahito Taniguchi,Japan,M,1961,Masters 3,66,64.9,117.5,120,122.5,122.5,122.5,1,B,Raw,
André Laforet,France,M,1961,Masters 3,93,89.8,145,-150,-150,145,145,5,B,Raw,
Andrii Bozhyk,Ukraine,M,1962,Masters 3,105,97.8,115,120,-125,120,120,5,B,Raw,
Andy Rigby,UK,M,1962,Masters 3,105,104.8,190,200,-208.5,200,200,1,B,Raw,
Frans van der Putten,Netherlands,M,1962,Masters 3,105,100.25,165,175,182.5,182.5,182.5,2,B,Raw,
Shin Tanita,Japan,M,1962,Masters 3,83,79.55,137.5,147.5,152.5,152.5,152.5,4,B,Raw,
Wayne Giles,Singapore,M,1965,Masters 2,120,115.1,137.5,145,-150,145,145,8,B,Raw,
Aldo Munoz Ygal,Peru,M,1966,Masters 2,120,111.85,130,145,150,150,150,7,B,Raw,
Hervé France,France,M,1966,Masters 2,93,92.4,185,190,-197.5,190,190,2,B,Raw,
Volodymyr Moroz,Ukraine,M,1966,Masters 2,59,58.5,80,85,-87.5,85,85,4,B,Raw,
Oleksandr Chernyshov,Ukraine,M,1966,Masters 2,66,65.75,130,137.5,-142.5,137.5,137.5,1,B,Raw,
Edmur Pessoa,Brazil,M,1967,Masters 2,120+,120.9,172.5,-180,180,180,180,5,B,Raw,
Robin van der Mee,Netherlands,M,1967,Masters 2,105,101.6,175,180,185,185,185,5,B,Raw,
David Caille,France,M,1968,Masters 2,74,72.6,112.5,122.5,-132.5,122.5,122.5,4,B,Raw,
Gilles Marigo,France,M,1968,Masters 2,59,58.5,112.5,117.5,120,120,120,2,B,Raw,
Joe Dibert,USA,M,1969,Masters 2,120+,139.85,210,-212.5,217.5,217.5,217.5,1,B,Raw,
Koji Yoshino,Japan,M,1969,Masters 2,59,58.35,115,-120,-120,115,115,3,B,Raw,
Bjørn-Andre Egerdahl,Norway,M,1970,Masters 2,83,79.35,155,160,-165,160,160,6,B,Raw,
Darren Ball,UK,M,1970,Masters 2,120,119.8,160,167.5,172.5,172.5,172.5,6,B,Raw,
Hidenori Arai,Japan,M,1970,Masters 2,59,57.05,117.5,122.5,-125,122.5,122.5,1,B,Raw,
Viacheslav Petrov,Ukraine,M,1971,Masters 2,120+,122.45,185,192.5,-210,192.5,192.5,3,B,Raw,
Ove Henning Lorentzen,Norway,M,1971,Masters 2,83,81.15,160,167.5,-172.5,167.5,167.5,4,B,Raw,
Andrew Miles,UK,M,1972,Masters 2,83,81.95,110,115,120,120,120,9,B,Raw,
Ari Flinkman,Finland,M,1972,Masters 2,120+,163.35,175,187.5,-195,187.5,187.5,4,B,Raw,
Jens Schlottmann,Germany,M,1973,Masters 2,74,73.1,110,-117.5,-117.5,110,110,5,B,Raw,
Leonid Plotnytskyi,Ukraine,M,1973,Masters 2,93,91.7,177.5,185,187.5,187.5,187.5,3,B,Raw,
Scott Squire,UK,M,1974,Masters 2,120+,178.5,170,-175,-175,170,170,6,B,Raw,
Sheridan Wray,UK,M,1974,Masters 2,105,100,175,-182.5,187.5,187.5,187.5,3,B,Raw,
Marc-Olivier Huchet,France,M,1974,Masters 2,66,65.85,-107.5,107.5,112.5,112.5,112.5,3,B,Raw,
Barrie Tavener,UK,M,1974,Masters 2,83,82.45,165,172.5,175,175,175,3,B,Raw,
Scott Simon #1,UK,M,1974,Masters 2,120,113.4,202.5,215,217.5,217.5,217.5,2,B,Raw,
Edson Kamogawa,Brazil,M,1976,Masters 1,93,92.4,137.5,145,150,150,150,7,B,Raw,
Sławomir Jasica,Poland,M,1977,Masters 1,93,91.25,170,177.5,182.5,182.5,182.5,3,B,Raw,
Ross Carlyle,UK,M,1978,Masters 1,105,103.7,155,165,170,170,170,7,B,Raw,
Nezar Ballil,Morocco,M,1978,Masters 1,105,102.8,175,182.5,190,190,190,3,B,Raw,
Daiki Kodama,Japan,M,1979,Open,83,82.35,210,220,231,231,231,1,B,Raw,
Shinichiro Takahashi,Japan,M,1979,Open,93,92.2,-200,200,-215,200,200,8,B,Raw,
Takashi Harada,Japan,M,1979,Masters 1,59,54.05,125,135,-140,135,135,2,B,Raw,
Norihiro Otani,Japan,M,1980,Masters 1,74,73.5,150,165,-172.5,165,165,3,B,Raw,
Amir Reza Mesforoosh,Iran,M,1980,Masters 1,66,65.6,125,-132.5,132.5,132.5,132.5,3,B,Raw,
Toshihiro Takahashi,Japan,M,1980,Masters 1,83,82.45,160,167.5,-177.5,167.5,167.5,5,B,Raw,
Ryan Dixon,UK,M,1980,Masters 1,120,117,180,185,-190,185,185,7,B,Raw,
Marco Antonio Silva Junior,Brazil,M,1981,Masters 1,105,98.5,170,180,-187.5,180,180,4,B,Raw,
Tario Teraiharoa,France,M,1981,Masters 1,120+,188.9,225,235,-245,235,235,2,B,Raw,
Robert Greer,USA,M,1981,Masters 1,120,119.4,187.5,197.5,-207.5,197.5,197.5,4,B,Raw,
Leonardo Stelet Fernandes,Brazil,M,1982,Masters 1,93,85.9,185,190,-197.5,190,190,2,B,Raw,
Kimmo Matilainen,Finland,M,1982,Masters 1,120+,152.8,190,200,-205,200,200,7,B,Raw,
Andreas Henning,Sweden,M,1982,Open,120,118.4,225,230,235,235,235,6,B,Raw,
Dimitri Bonnay,France,M,1982,Masters 1,120,114.8,-215,215,217.5,217.5,217.5,2,B,Raw,
Keita Saito,Japan,M,1982,Masters 1,66,65.45,160,-171,171,171,171,1,B,Raw,
Kotaka Umemoto,Japan,M,1982,Masters 1,66,65,120,130,132.5,132.5,132.5,2,B,Raw,
Bartłomiej Wirek,Poland,M,1983,Masters 1,74,72.35,165,170,177.5,177.5,177.5,1,B,Raw,
Carlos Alexandre Emidio,Brazil,M,1983,Masters 1,120+,142.9,190,202.5,-222.5,202.5,202.5,5,B,Raw,
Andy Champ,UK,M,1983,Masters 1,105,102.95,170,177.5,-187.5,177.5,177.5,5,B,Raw,
Yu Tokumaru,Japan,M,1983,Masters 1,74,73.4,140,145,-152.5,145,145,6,B,Raw,
Djanny Wong Hen,France,M,1983,Masters 1,120,119.3,185,195,-202.5,195,195,5,B,Raw,
Simo Sistonen,Finland,M,1983,Masters 1,120,119.15,207.5,217.5,220,220,220,1,B,Raw,
Raino Hellberg,Finland,M,1983,Masters 1,83,82.2,100,,,100,100,9,B,Raw,
Tapio Peltokangas,Finland,M,1984,Masters 1,66,65.1,125,-132.5,-135,125,125,5,B,Raw,
Anders Grønmo,Norway,M,1984,Masters 1,105,103,177.5,185,192.5,192.5,192.5,2,B,Raw,
Vyacheslav Tsoy,Kazakhstan,M,1984,Open,105,100.1,-230,232.5,-242.5,232.5,232.5,2,B,Raw,
Kim Beck-Gundersen,Norway,M,1985,Open,93,91.85,200,210,-217.5,210,210,5,B,Raw,
Ivan Chuprinko,Ukraine,M,1986,Open,74,73.75,210,-217.5,-225.5,210,210,2,B,Raw,
Mitsunori Chiba,Australia,M,1986,Open,83,81.7,177.5,-185,185,185,185,10,B,Raw,
Jeffrey Hasselt,Netherlands,M,1987,Open,83,81.9,180,-190,190,190,190,9,B,Raw,
Andrew Ward #1,UK,M,1988,Open,74,73.8,157.5,167.5,175,175,175,7,B,Raw,
Patrick Gregorowski,Australia,M,1988,Open,93,92.15,165,172.5,180,180,180,11,B,Raw,
Azat Salmen,Kazakhstan,M,1989,Open,74,73.05,180,190,-202.5,190,190,3,B,Raw,
Arslan Suyunshaliyev,Kazakhstan,M,1989,Open,120,117.7,-235,235,-245,235,235,5,B,Raw,
Kazuhiro Sakai,Japan,M,1989,Open,74,73.25,177.5,182.5,190,190,190,4,B,Raw,
Ashley Liston,UK,M,1989,Open,105,104.5,207.5,220,-232.5,220,220,6,B,Raw,
Fredrik Eskil Myrvang,Norway,M,1990,Open,59,58.05,160,-165,-167.5,160,160,3,B,Raw,
Alexandr Emchenko,Kazakhstan,M,1990,Open,83,82,200,207.5,212.5,212.5,212.5,3,B,Raw,
Dmitriy Li,Kazakhstan,M,1991,Open,120,119.15,-235,235,247.5,247.5,247.5,3,B,Raw,
Théophile Lé,France,M,1991,Open,105,104.05,222.5,-227.5,-235,222.5,222.5,5,B,Raw,
Romuald Massé,France,M,1992,Open,120+,145.25,245,-252.5,-252.5,245,245,7,B,Raw,
Orlando Palomino,Peru,M,1992,Open,93,83.95,80,90,-100,90,90,16,B,Raw,
Jivan Saimone,New Zealand,M,1993,Open,120,118.9,225,235,-242.5,235,235,7,B,Raw,
Vasyl Kropyvnytskyi,Ukraine,M,1993,Open,59,58.45,145,150,-162.5,150,150,5,B,Raw,
Farod-James Kee,USA,M,1993,Open,120+,142.05,257.5,267.5,285,285,285,1,B,Raw,
Derek LoGrande,USA,M,1993,Open,74,73.45,172.5,182.5,-190,182.5,182.5,6,B,Raw,
Tatsuya Ito,Japan,M,1994,Open,66,66,150,155,-160,155,155,5,B,Raw,
Jaideep Wasu,UK,M,1994,Open,83,81.45,152.5,160,167.5,167.5,167.5,11,B,Raw,
Abdulkarim Karaman,Kazakhstan,M,1994,Open,66,65.9,-175,175,,175,175,1,B,Raw,
Bohdan Bon,Ukraine,M,1995,Open,93,92.35,-210,210,217.5,217.5,217.5,3,B,Raw,
Volodymyr Tsaturian,Ukraine,M,1995,Open,83,82.65,207.5,212.5,215,215,215,2,B,Raw,
Joseph Watson,UK,M,1995,Open,120,118.5,190,200,205,205,205,9,B,Raw,
Jason Nativel,France,M,1995,Open,66,65.45,162.5,167.5,-175,167.5,167.5,2,B,Raw,
Steven Vo,Australia,M,1996,Open,66,63.85,135,142.5,147.5,147.5,147.5,6,B,Raw,
Kosei Yokoyama,Japan,M,1996,Open,74,70.8,210,217.5,225.5,225.5,225.5,1,B,Raw,
Tinh Nguyen,Australia,M,1996,Open,120+,138.95,205,220,-230,220,220,9,B,Raw,
Shu Hamaguchi,Japan,M,1996,Open,59,58.25,165,-170,-176,165,165,2,B,Raw,
Gabriel Schmidt,Brazil,M,1997,Open,93,92.7,160,-165,-165,160,160,14,B,Raw,
Ben Gibson #1,UK,M,1997,Open,120+,178.6,215,-225,225,225,225,8,B,Raw,
Tommy Teheura,France,M,1997,Open,120+,148.6,245,250,-255,250,250,6,B,Raw,
Izhak Flores,Mexico,M,1997,Open,93,92.5,160,170,177.5,177.5,177.5,13,B,Raw,
Marco Lee,Netherlands,M,1998,Open,83,82.9,182.5,187.5,192.5,192.5,192.5,7,B,Raw,
Zhavlan Shaukatov,Kazakhstan,M,1998,Open,93,92.6,210,215,-220,215,215,4,B,Raw,
David Hoffman,Australia,M,1998,Open,93,92.5,165,175,180,180,180,12,B,Raw,
Lucas Stolle,UK,M,1999,Open,83,81.4,180,190,-200,190,190,8,B,Raw,
Thomas Roels,Belgium,M,2000,Open,66,65.95,145,150,157.5,157.5,157.5,4,B,Raw,
Simen Johnson Myrvold,Norway,M,2000,Open,83,82.8,190,200,-210,200,200,6,B,Raw,
Jakob Riis Nielsen,Denmark,M,2000,Open,93,92.05,190,-197.5,,190,190,10,B,Raw,
Kristian Eek Haugen,Norway,M,2001,Juniors,120,117.65,215,230,242.5,242.5,242.5,1,B,Raw,
Sylvain Nguyen Van Sang,France,M,2001,Juniors,59,58.8,117.5,125,-127.5,125,125,4,B,Raw,
Tom Field,UK,M,2001,Juniors,83,80.65,172.5,180,-182.5,180,180,3,B,Raw,
Jakub Matyáš,Czechia,M,2001,Juniors,74,73.5,157.5,165,-170,165,165,6,B,Raw,
Kirill Sakharov,UK,M,2001,Juniors,105,104.5,185,195,-205,195,195,4,B,Raw,
Ranier Cortez,Australia,M,2001,Juniors,83,82.55,162.5,172.5,185,185,185,2,B,Raw,
Oleh Chebotaiev,Ukraine,M,2001,Juniors,74,73.3,157.5,165,167.5,167.5,167.5,4,B,Raw,
Petr Milichovský,Czechia,M,2001,Juniors,120,106.8,185,192.5,200,200,200,2,B,Raw,
Andrew Carrithers,USA,M,2001,Juniors,120+,161.9,197.5,207.5,-217.5,207.5,207.5,5,B,Raw,
Ivan Kuvaldin,Kazakhstan,M,2001,Juniors,59,58.65,-135,137.5,150,150,150,1,B,Raw,
Natsuki Suzaki,Japan,M,2001,Juniors,74,73.2,155,160,170,170,170,3,B,Raw,
Jakub Pelikán,Czechia,M,2001,Juniors,83,82.25,172.5,182.5,185,185,185,1,B,Raw,
Luuk Tiel,Netherlands,M,2001,Juniors,83,80.3,157.5,165,172.5,172.5,172.5,5,B,Raw,
Kwun Ho Yim,Hong Kong,M,2001,Juniors,66,64.6,-110,115,-120,115,115,6,B,Raw,
Kento Mori,Japan,M,2001,Juniors,66,65.25,145,152.5,160,160,160,2,B,Raw,
Yuki Hirakawa,Japan,M,2001,Juniors,59,57.9,132.5,135,147.5,147.5,147.5,2,B,Raw,
Koyo Komine,Japan,M,2001,Juniors,74,72.5,-140,-140,-140,,,DQ,B,Raw,
Scott Walton,UK,M,2001,Juniors,74,73.75,157.5,167.5,-172.5,167.5,167.5,5,B,Raw,
Fred Martin,UK,M,2001,Juniors,83,81.85,160,167.5,-177.5,167.5,167.5,7,B,Raw,
Rian Smit,Netherlands,M,2002,Juniors,105,104.35,180,187.5,-195,187.5,187.5,8,B,Raw,
William Holloway,USA,M,2002,Juniors,93,86.35,152.5,162.5,167.5,167.5,167.5,5,B,Raw,
Kei Hoshino,Japan,M,2002,Juniors,59,58.8,110,120,-125,120,120,5,B,Raw,
Nathan Britton,UK,M,2002,Juniors,120+,171.65,202.5,215,220,220,220,2,B,Raw,
Kemal Ergin,Netherlands,M,2002,Juniors,59,58.95,122.5,127.5,-132.5,127.5,127.5,3,B,Raw,
Šimon Král,Czechia,M,2002,Juniors,120+,145.75,185,-192.5,,185,185,7,B,Raw,
Trym Greibrok,Norway,M,2003,Juniors,105,100.95,192.5,-197.5,-200,192.5,192.5,6,B,Raw,
Anton Nykänen,Finland,M,2003,Juniors,74,73.35,180,-195,-195,180,180,2,B,Raw,
Ruslan Karimbekov,Kazakhstan,M,2003,Juniors,53,51.75,105,-115,115,115,115,1,B,Raw,
Hugo May,Australia,M,2003,Juniors,93,91.6,165,175,180,180,180,4,B,Raw,
Branko Jakubik,Slovakia,M,2003,Juniors,120+,147.25,190,197.5,-207.5,197.5,197.5,6,B,Raw,
Hermanni Järvenpää,Finland,M,2003,Juniors,105,104.7,185,195,-205,195,195,5,B,Raw,
Edward Kimber,UK,M,2003,Juniors,66,65.7,155,160,-167.5,160,160,3,B,Raw,
Ilya Kossobryukhov,Kazakhstan,M,2003,Juniors,83,80.36,165,172.5,175,175,175,4,B,Raw,
Krzysztof Perlik,Poland,M,2004,Juniors,74,73.3,132.5,142.5,-145,142.5,142.5,10,B,Raw,
Stvan Oliveira,Brazil,M,2004,Juniors,120+,121.9,190,200,207.5,207.5,207.5,4,B,Raw,
Terrin Howard,USA,M,2005,Juniors,120,105.55,152.5,157.5,-160,157.5,157.5,5,B,Raw,
Martin Řehák,Czechia,M,2005,Juniors,74,73.45,150,160,-167.5,160,160,8,B,Raw,
Pawel Wloch,Poland,M,2006,Sub-Juniors,74,73.4,122.5,130,-132.5,130,130,3,B,Raw,
Konrad Rosiński,Poland,M,2006,Sub-Juniors,120,106.15,140,145,150,150,150,1,B,Raw,
Antonio Pena,Mexico,M,2006,Sub-Juniors,59,54.6,77.5,87.5,92.5,92.5,92.5,3,B,Raw,
Matěj Kukuča,Czechia,M,2006,Sub-Juniors,105,102.8,162.5,175,-182.5,175,175,1,B,Raw,
Yegor Kuznetsov,Kazakhstan,M,2006,Sub-Juniors,105,104.15,130,145,,145,145,2,B,Raw,
Pavel Benda,Czechia,M,2006,Sub-Juniors,120+,123.1,200,211,215,215,215,1,B,Raw,
Patryk Chylinski,Poland,M,2007,Sub-Juniors,66,63.9,90,97.5,102.5,102.5,102.5,3,B,Raw,
Daniel Haroon,USA,M,2007,Sub-Juniors,120,109.35,125,137.5,147.5,147.5,147.5,2,B,Raw,
Andyn Grubb,USA,M,2007,Sub-Juniors,66,64.95,-120,120,-135,120,120,2,B,Raw,
Jaiden Woolgrove,UK,M,2007,Sub-Juniors,83,82.6,140,150,-160,150,150,3,B,Raw,
Adeel Imtiazi,UK,M,2007,Sub-Juniors,53,52.15,82.5,85,92.5,92.5,92.5,1,B,Raw,
Jad Ouasli Petitjean,France,M,2007,Sub-Juniors,59,58.6,110,115,117.5,117.5,117.5,1,B,Raw,
Mikołaj Kawecki,Poland,M,2008,Sub-Juniors,93,89.85,135,145,-157.5,145,145,2,B,Raw,
David Syrotchen,USA,M,2008,Sub-Juniors,93,88.65,142.5,-147.5,155,155,155,1,B,Raw,
Jooa Toivonen,Finland,M,2008,Sub-Juniors,93,92.65,110,117.5,130,130,130,4,B,Raw,
Alex Collocott,South Africa,M,2008,Sub-Juniors,74,71.5,110,-115,-115,110,110,4,B,Raw,
Dash Granite,UK,M,2009,Sub-Juniors,74,70.65,117.5,122.5,130,130,130,2,B,Raw,
Robin Wijs,Netherlands,M,1986,Open,105,98.3,180,190,-197.5,190,190,10,B,Raw,
Wouter Klaver,Netherlands,M,2000,Open,120,118.3,200,210,215,215,215,8,B,Raw,
