Place,Name,Sex,Age,Equipment,Division,BodyweightKg,WeightClassKg,Squat1Kg,Squat2Kg,Squat3Kg,Best3SquatKg,Bench1Kg,Bench2Kg,Bench3Kg,Best3BenchKg,Deadlift1Kg,Deadlift2Kg,Deadlift3Kg,Best3DeadliftKg,TotalKg,Event,BirthDate
1,Mark Little #2,M,41,Raw,M_MR_1_BPU,81.75,82.5,130,140,145,145,100,107.5,112.5,112.5,172.5,180,-187.5,180,437.5,SBD,
1,Daniel Bassett,M,47,Raw,M_MR_2_BPU,80.05,82.5,167.5,175,182.5,182.5,87.5,-95,,87.5,210,225,232.5,232.5,502.5,SBD,
1,Thomas Goodwin #2,M,33,Raw,M_OR_ABPU,108.4,110,167.5,180,190,190,115,122.5,130,130,205,-217.5,-217.5,205,525,SBD,
1,Marin Tecuta,M,41,Wraps,M_MCR_1_BPU,89.3,90,182.5,195,205,205,102.5,107.5,112.5,112.5,200,220,235,235,552.5,SBD,
1,Alex Wilkinson,M,41,Wraps,M_MCR_1_BPU,108.4,110,220,240,255,255,-180,192.5,-200,192.5,240,-252.5,252.5,252.5,700,SBD,
1,Chris Brown #2,M,40,Wraps,M_MCR_1_ABPU,105.8,110,-245,-245,245,245,162.5,172.5,177.5,177.5,272.5,290,-300,290,712.5,SBD,
1,Mark Townend,M,49,Wraps,M_MCR_2_BPU,123.7,125,210,,,210,180,-190,190,190,260,275,-290,275,675,SBD,
1,Jerzy Idzikowski,M,52,Wraps,M_MCR_3_ABPU,82.05,82.5,180,-190,190,190,100,105,-107.5,105,195,205,-217.5,205,500,SBD,
1,Tom Wright #3,M,35,Wraps,M_OCR_BPU,72.2,75,200,210,215,215,120,130,135,135,200,235,-260,235,585,SBD,
1,David Wright #4,M,33,Wraps,M_OCR_BPU,97.6,100,215,235,-250,235,130,140,147.5,147.5,230,260,280,280,662.5,SBD,
2,Jack Harvey #1,M,25,Wraps,M_OCR_BPU,95.9,100,225,240,250,250,127.5,135,140,140,215,-225,230,230,620,SBD,
1,Cameron Reade,M,25,Wraps,M_OCR_BPU,106.45,110,237.5,255,265,265,172.5,-185,-192.5,172.5,250,267.5,-285,267.5,705,SBD,
2,Ross Gallagher,M,36,Wraps,M_OCR_BPU,108.5,110,190,-210,210,210,150,170,-175,170,210,230,-250,230,610,SBD,
1,Daniel Wiggin,M,29,Wraps,M_OCR_BPU,121.9,125,280,290,300,300,-215,215,230,230,310,330,,330,860,SBD,
2,Liam Wheeler,M,31,Wraps,M_OCR_BPU,123.5,125,305,330,352.5,352.5,165,175,182.5,182.5,290,310,320,320,855,SBD,
3,William Newton #1,M,37,Wraps,M_OCR_BPU,114.65,125,240,255,270,270,160,170,177.5,177.5,-310,310,-322.5,310,757.5,SBD,
DQ,Daniel Adshead,M,29,Wraps,M_OCR_BPU,138.5,140,300,-320,-320,300,170,-180,,170,-290,,,,,SBD,
1,AJ Mangoba,M,31,Wraps,M_OCR_ABPU,69.7,75,145,155,167.5,167.5,115,120,127.5,127.5,220,230,-242.5,230,525,SBD,
1,Wenliang Li,M,28,Wraps,M_OCR_ABPU,81.65,82.5,170,180,-190,180,120,130,,130,205,-215,-220,205,515,SBD,
1,Subindra Shrestha,M,29,Wraps,M_OCR_ABPU,87.2,90,205,-220,220,220,160,170,175,175,245,260,282.5,282.5,677.5,SBD,
2,Theo Gatehouse,M,28,Wraps,M_OCR_ABPU,89.1,90,200,-210,210,210,137.5,145,-147.5,145,200,220,235,235,590,SBD,
3,Alfie Powell,M,35,Wraps,M_OCR_ABPU,88.25,90,180,190,200,200,85,87.5,-92.5,87.5,190,200,-210,200,487.5,SBD,
1,Luther Nzinga,M,32,Wraps,M_OCR_ABPU,98.2,100,220,235,,235,130,140,,140,235,250,,250,625,SBD,
2,Tom Ball,M,29,Wraps,M_OCR_ABPU,96.8,100,160,165,-170,165,140,145,-150,145,-210,210,220,220,530,SBD,
3,Chris Butt,M,40,Wraps,M_OCR_ABPU,98.7,100,172.5,-185,195,195,107.5,-115,-115,107.5,200,210,220,220,522.5,SBD,
4,Matthew Ford,M,36,Wraps,M_OCR_ABPU,97.6,100,160,170,180,180,120,130,-142.5,130,170,185,-195,185,495,SBD,
5,Amo Chauhan,M,45,Wraps,M_OCR_ABPU,98.5,100,-145,145,155,155,100,-105,-105,100,180,190,-200,190,445,SBD,
1,Tom Bartholomew,M,29,Wraps,M_OCR_ABPU,105,110,240,250,260,260,150,160,-170,160,-250,250,-280,250,670,SBD,
1,Josh Golding,M,31,Wraps,M_OCR_ABPU,122,125,265,285,300,300,160,170,,170,255,275,,275,745,SBD,
2,Eric Redknap,M,27,Wraps,M_OCR_ABPU,121.7,125,215,230,240,240,140,150,-155,150,220,240,250,250,640,SBD,
1,Jason Pearson #2,M,43,Single-ply,M_MES_1_ABPU,67.25,67.5,165,172.5,182.5,182.5,107.5,112.5,-120,112.5,165,172.5,-185,172.5,467.5,SBD,
1,Bruce Roberts #2,M,53,Raw,M_MR_3_BPU,85,90,,,,,100,-110,-115,100,,,,,100,B,
1,Stewart McGhie,M,43,Raw,M_MR_1_BPU,116.55,125,,,,,180,190,-200,190,,,,,190,B,
1,Mohammed Ali Sidat,M,42,Raw,M_OR_BPU,67.5,67.5,,,,,110,115,117.5,117.5,,,,,117.5,B,
1,Daniel Dalton,M,33,Raw,M_OR_BPU,109.9,110,,,,,140,150,160,160,,,,,160,B,
1,Stephen Coleman #2,M,,Raw,M_MR_2_ABPU,74.4,75,,,,,,,,,-230,240,-250,240,240,D,
1,Clio Blackwell,F,22,Raw,F_JR_ABPU,51.3,52,75,-80,82.5,82.5,55,-60,-60,55,105,110,115,115,252.5,SBD,
1,Gemma Jones,F,40,Raw,F_MR_1_ABPU,73.95,75,-92.5,92.5,-95,92.5,62.5,65,-67.5,65,120,132.5,137.5,137.5,295,SBD,
1,Imogen House,F,47,Raw,F_MR_2_ABPU,63.45,67.5,80,87.5,90,90,42.5,-47.5,-47.5,42.5,105,112.5,-115,112.5,245,SBD,
1,Jackie Langridge,F,48,Raw,F_MR_2_ABPU,74.5,75,110,120,-127.5,120,57.5,62.5,-67.5,62.5,130,142.5,-155,142.5,325,SBD,
DQ,Michelle Geraghty-Corns,F,44,Raw,F_OR_ABPU,50.7,52,-77.5,-77.5,-77.5,,42.5,45,-47.5,45,80,90,100,100,,SBD,
1,Natasha Nathani,F,34,Raw,F_OR_ABPU,67.4,67.5,95,102.5,107.5,107.5,-60,60,-65,60,120,132.5,-145,132.5,300,SBD,
2,Ruth Fletcher,F,34,Raw,F_OR_ABPU,66.65,67.5,90,100,105,105,40,45,-47.5,45,110,120,127.5,127.5,277.5,SBD,
1,Laura Fortune,F,30,Raw,F_OR_ABPU,74.4,75,95,105,-115,105,52.5,-57.5,57.5,57.5,110,120,-130,120,282.5,SBD,
1,Georgina Watts,F,30,Raw,F_OR_ABPU,81.4,82.5,125,132.5,-137.5,132.5,80,82.5,85,85,120,130,140,140,357.5,SBD,
1,Charlie Ward,F,23,Wraps,F_JCR_ABPU,66.5,67.5,95,102.5,107.5,107.5,47.5,52.5,55,55,90,102.5,110,110,272.5,SBD,
1,Ravita Atwal,F,41,Wraps,F_MCR_1_ABPU,48,48,82.5,90,-92.5,90,32.5,40,-42.5,40,92.5,100,105,105,235,SBD,
1,Sandy Pandya,F,56,Wraps,F_MCR_4_ABPU,63.85,67.5,90,95,100,100,40,47.5,52.5,52.5,115,120,125,125,277.5,SBD,
1,Sharon Eggleton,F,44,Wraps,F_OCR_BPU,70.2,75,190,200,210,210,80,100,,100,210,225,232.5,232.5,542.5,SBD,
1,Anna Green #2,F,25,Wraps,F_OCR_ABPU,57.95,60,80,-85,85,85,40,45,-52.5,45,110,120,130,130,260,SBD,
2,Daisy McGeeney Murray,F,30,Wraps,F_OCR_ABPU,58.1,60,-75,75,80,80,40,42.5,45,45,100,112.5,120,120,245,SBD,
1,Shelley Hirst,F,42,Wraps,F_OCR_ABPU,66.2,67.5,60,72.5,-82.5,72.5,-32.5,32.5,-35,32.5,95,105,-115,105,210,SBD,
1,Fiona Sutcliffe,F,35,Wraps,F_OCR_ABPU,88.1,90,90,-100,-100,90,50,55,57.5,57.5,130,135,-137.5,135,282.5,SBD,
1,Daisy Curtis,F,36,Wraps,F_OCR_ABPU,95.15,100,115,125,-132.5,125,60,65,70,70,120,135,142.5,142.5,337.5,SBD,
1,Caitlin Hayes #2,F,28,Wraps,F_OCR_ABPU,108.6,110,105,115,122.5,122.5,67.5,72.5,-75,72.5,140,150,157.5,157.5,352.5,SBD,
1,Chloe Holdsworth,F,17,Wraps,F_TCR_2_ABPU,58.4,60,87.5,92.5,97.5,97.5,50,52.5,55,55,95,102.5,110,110,262.5,SBD,
1,Gweneth Fisher,F,17,Wraps,F_TCR_2_ABPU,80.6,82.5,120,130,-140,130,60,65,70,70,-130,135,150,150,350,SBD,
1,Isabelle Faye Peachey,F,14,Raw,F_TR_1_ABPU,76.5,82.5,,,,,40,45,-50,45,,,,,45,B,
1,Isabelle Faye Peachey,F,14,Raw,F_TR_1_ABPU,76.5,82.5,,,,,,,,,90,105,112.5,112.5,112.5,D,
1,Robyn Vaughan,F,32,Raw,F_OR_ABPU,107.35,110,,,,,117.5,125,-132.5,125,,,,,125,B,
1,Virginia Brown,F,33,Raw,F_OR_ABPU,111,110+,,,,,70,77.5,-82.5,77.5,,,,,77.5,B,
1,William Gwyer,M,18,Raw,M_TR_3_ABPU,81.3,82.5,140,150,160,160,85,92.5,-97.5,92.5,190,210,220,220,472.5,SBD,
1,Charlie Miller #2,M,23,Wraps,M_JCR_ABPU,81.3,82.5,160,172.5,-182.5,172.5,80,90,-97.5,90,175,182.5,195,195,457.5,SBD,
1,Jack Bullivant,M,22,Wraps,M_JCR_ABPU,96.3,100,220,235,-250,235,120,130,-135,130,235,250,260,260,625,SBD,
2,Thomas Cayless,M,22,Wraps,M_JCR_ABPU,97.95,100,190,202.5,210,210,150,160,165,165,210,230,242.5,242.5,617.5,SBD,
1,Ben Frondigoun,M,23,Wraps,M_JCR_ABPU,108.3,110,215,222.5,-227.5,222.5,130,135,140,140,232.5,242.5,-250,242.5,605,SBD,
1,Riddick Cotton,M,15,Wraps,M_TCR_1_ABPU,95.1,100,170,190,-210,190,85,95,105,105,170,190,-200,190,485,SBD,
DQ,Iyas Denna,M,17,Wraps,M_TCR_2_ABPU,84.9,90,-175,-180,-180,,,,,,-195,,,,,SBD,
1,Harvey Pardoe,M,17,Wraps,M_TCR_2_ABPU,97.1,100,-150,170,185,185,90,105,112.5,112.5,190,210,230,230,527.5,SBD,
1,Joseph Smith,M,18,Wraps,M_TCR_3_ABPU,73.7,75,165,175,-185,175,95,105,-110,105,215,230,-242.5,230,510,SBD,
