Division,WeightClassKg,Place,Name,Team,BodyweightKg,Best3SquatKg,Best3BenchKg,Best3DeadliftKg,TotalKg,Equipment,Event,Sex
Boys,51.71,1,Christian Pena,Benavides,51.35,142.88,77.11,142.88,362.87,Single-ply,SBD,M
Boys,51.71,2,Bryan Gutierrez,Bishop,51.35,117.93,63.5,106.59,288.03,Single-ply,SBD,M
Boys,55.79,1,Brandon Canales,Benavides,55.16,174.63,92.99,183.7,451.32,Single-ply,SBD,M
Boys,55.79,2,Jose Hernandez #13,Corpus Christi West Oso,55.79,163.29,83.91,183.7,430.91,Single-ply,SBD,M
Boys,55.79,3,Tristan Perez #2,Benavides,55.7,174.63,74.84,174.63,424.11,Single-ply,SBD,M
Boys,55.79,4,Austin Lopez,Hebbronville,55.07,163.29,83.91,149.69,396.89,Single-ply,SBD,M
Boys,55.79,5,Lupe Garcia,Agua Dulce,53.52,104.33,52.16,117.93,274.42,Single-ply,SBD,M
Boys,59.87,1,Ryan Saenz,Hebbronville,59.42,183.7,99.79,183.7,467.2,Single-ply,SBD,M
Boys,59.87,2,Noe Herrera,Kingsville King,59.87,172.37,97.52,185.97,455.86,Single-ply,SBD,M
Boys,59.87,3,Damien Diaz,Hebbronville,56.7,165.56,79.38,174.63,419.57,Single-ply,SBD,M
Boys,59.87,4,Tony De La Rosa,Santa Gertrudis Academy,58.88,120.2,72.57,140.61,333.39,Single-ply,SBD,M
Boys,67.13,1,Seth Meza-Briones,Santa Gertrudis Academy,67.13,179.17,124.74,192.78,496.68,Single-ply,SBD,M
Boys,67.13,2,Jonathan Gonzales,Hebbronville,66.59,151.95,77.11,156.49,385.55,Single-ply,SBD,M
Boys,67.13,3,Jose Leyva,Bishop,60.33,124.74,70.31,142.88,337.93,Single-ply,SBD,M
Boys,67.13,4,Paul Angel,Agua Dulce,61.96,102.06,56.7,,158.76,Single-ply,SB,M
Boys,67.13,DQ,Brandon Carballo,Hebbronville,66.77,,,,,Single-ply,SB,M
Boys,67.13,DQ,Jose Garza,Kingsville King,66.41,,,,,Single-ply,SB,M
Boys,67.13,DQ,Alex Ramierez,Falfurrias,66.22,,,,,Single-ply,SB,M
Boys,74.84,1,Jacob Munoz,Falfurrias,74.84,206.38,115.67,197.31,519.36,Single-ply,SBD,M
Boys,74.84,2,Nico Perez,Benavides,67.95,183.7,106.59,190.51,480.81,Single-ply,SBD,M
Boys,74.84,DQ,Arturo Reyna,Bishop,72.57,231.33,133.81,,,Single-ply,SBD,M
Boys,74.84,DQ,Dale Baez,Hebbronville,74.84,,,,,Single-ply,SBD,M
Boys,74.84,DQ,Aaron Saenz,Kingsville King,73.94,,,,,Single-ply,SBD,M
Boys,74.84,DQ,Jonaven Gonzalez,Hebbronville,74.75,,,,,Single-ply,SBD,M
Boys,82.1,1,Conner Bowers,Bishop,79.65,226.8,147.42,217.72,591.94,Single-ply,SBD,M
Boys,82.1,2,Brit Bowers,Bishop,78.83,185.97,127.01,213.19,526.17,Single-ply,SBD,M
Boys,82.1,3,Mathew Garza,Corpus Christi West Oso,79.65,190.51,111.13,179.17,480.81,Single-ply,SBD,M
Boys,82.1,4,Christian Rosas,Falfurrias,77.02,142.88,79.38,149.69,371.95,Single-ply,SBD,M
Boys,82.1,DQ,John Martinez,Falfurrias,80.1,,,,,Single-ply,SBD,M
Boys,82.1,DQ,Ilan Escobedo,Santa Gertrudis Academy,81.19,,,,,Single-ply,SBD,M
Boys,82.1,DQ,Jacob Gonzalez,Kingsville King,81.19,,,,,Single-ply,SBD,M
Boys,82.1,DQ,Oscar Lopez,Agua Dulce,75.57,188.24,124.74,,,Single-ply,SBD,M
Boys,89.81,1,Daniel González,Kingsville King,88.99,272.16,158.76,254.01,684.92,Single-ply,SBD,M
Boys,89.81,2,Alan Medrano,Bishop,89.45,235.87,156.49,235.87,628.23,Single-ply,SBD,M
Boys,89.81,3,Ithel Carrillo,Hebbronville,89.72,238.14,151.95,204.12,594.21,Single-ply,SBD,M
Boys,89.81,DQ,Grayson May,Santa Gertrudis Academy,89.45,,,,,Single-ply,SBD,M
Boys,89.81,DQ,Mando Benavides,Corpus Christi West Oso,89.81,,,,,Single-ply,SBD,M
Boys,99.79,1,Ray Saenz,Bishop,98.16,276.69,163.29,267.62,707.6,Single-ply,SBD,M
Boys,99.79,2,Gilbert Arriaga,Kingsville King,99.34,258.55,149.69,272.16,680.39,Single-ply,SBD,M
Boys,99.79,3,Elias Cantu,Hebbronville,99.79,242.67,167.83,222.26,632.76,Single-ply,SBD,M
Boys,99.79,4,David Colecio,Bishop,96.16,229.06,149.69,226.8,605.55,Single-ply,SBD,M
Boys,99.79,5,Saulo Ramos,Kingsville King,97.61,219.99,136.08,197.31,553.38,Single-ply,SBD,M
Boys,99.79,6,Vicente Zavala,Santa Gertrudis Academy,96.98,185.97,97.52,156.49,439.98,Single-ply,SBD,M
Boys,99.79,7,Jesse Perez,Agua Dulce,99.16,136.08,79.38,145.15,360.61,Single-ply,SBD,M
Boys,99.79,DQ,Isiah Rios,Corpus Christi West Oso,99.79,,,,,Single-ply,SBD,M
Boys,109.77,1,Ismael Gonzalez,Kingsville King,107.5,260.82,161.03,226.8,648.64,Single-ply,SBD,M
Boys,109.77,DQ,Jessian CAstellanos,Kingsville King,108.41,,,,,Single-ply,SBD,M
Boys,109.77,DQ,Aidyn Cadena,Santa Gertrudis Academy,109.32,,,,,Single-ply,SBD,M
Boys,109.77,DQ,Chris Chavez,Corpus Christi West Oso,109.68,,,,,Single-ply,SBD,M
Boys,109.77,DQ,Juan Ruiz,Corpus Christi West Oso,109.32,,,,,Single-ply,SBD,M
Boys,124.74,1,Sam Salinas,Santa Gertrudis Academy,115.76,138.35,92.99,154.22,385.55,Single-ply,SBD,M
Boys,124.74,2,Mathew Torres,Santa Gertrudis Academy,114.76,115.67,74.84,136.08,326.59,Single-ply,SBD,M
Boys,124.74+,1,Jonathan Rodriguez #9,Agua Dulce,136.35,244.94,142.88,183.7,571.53,Single-ply,SBD,M
Boys,124.74+,2,Aaron Flores #2,Santa Gertrudis Academy,143.7,231.33,95.25,204.12,530.7,Single-ply,SBD,M
Boys,124.74+,DQ,Daniel Garza,Falfurrias,131.81,,,,,Single-ply,SBD,M
