Division,WeightClassKg,Place,Name,Team,BodyweightKg,Best3SquatKg,Best3BenchKg,Best3DeadliftKg,TotalKg,Equipment,Event,Sex
Boys,51.71,1,Michael Ramsey,De Leon,48.08,90.72,52.16,108.86,251.74,Single-ply,SBD,M
Boys,51.71,2,Jamie Smith #9,Comanche,46.72,92.99,56.7,99.79,249.48,Single-ply,SBD,M
Boys,51.71,3,Anthony Beltran,Hamilton,44,92.99,56.7,97.52,247.21,Single-ply,SBD,M
Boys,51.71,DQ,Austin Farrer,Fort Worth Western Hills,47.63,83.91,,83.91,,Single-ply,SBD,M
Boys,55.79,1,Justin Burnett,Hamilton,54.88,142.88,65.77,129.27,337.93,Single-ply,SBD,M
Boys,55.79,2,Alvin Cole,Brady,52.62,90.72,52.16,122.47,265.35,Single-ply,SBD,M
Boys,55.79,3,Nathan Hernandez,Llano,55.34,97.52,49.9,102.06,249.48,Single-ply,SBD,M
Boys,55.79,4,Dakkota Murray,Brady,55.79,97.52,43.09,102.06,242.67,Single-ply,SBD,M
Boys,55.79,DQ,David Valdez,Brady,55.34,106.59,,111.13,,Single-ply,SBD,M
Boys,55.79,DQ,Kenneth Mitchell #2,Bangs,54.88,156.49,,154.22,,Single-ply,SBD,M
Boys,55.79,DQ,DJ McKinney,San Saba,53.98,,38.56,102.06,,Single-ply,SBD,M
Boys,59.87,1,Walt Harden,Peaster,59.87,167.83,117.93,174.63,460.4,Single-ply,SBD,M
Boys,59.87,2,Cody Wisdom,Llano,59.87,127.01,68.04,147.42,342.46,Single-ply,SBD,M
Boys,59.87,3,Austin Williams,Fort Worth Western Hills,59.42,102.06,70.31,142.88,315.25,Single-ply,SBD,M
Boys,59.87,4,Mario Morado,Brady,59.42,97.52,61.23,120.2,278.96,Single-ply,SBD,M
Boys,59.87,5,Corey Cromwell,Bangs,58.51,106.59,61.23,106.59,274.42,Single-ply,SBD,M
Boys,59.87,6,Grant Leach,Fort Worth Western Hills,58.97,70.31,52.16,83.91,206.38,Single-ply,SBD,M
Boys,67.13,1,Isaac Brown,Bangs,67.13,192.78,99.79,217.72,510.29,Single-ply,SBD,M
Boys,67.13,2,Alex Cervantes,San Saba,67.13,199.58,99.79,208.65,508.02,Single-ply,SBD,M
Boys,67.13,3,Levi Bamber,Dublin,64.41,188.24,124.74,190.51,503.49,Single-ply,SBD,M
Boys,67.13,4,Allen Almgren,Bangs,66.22,199.58,92.99,183.7,476.27,Single-ply,SBD,M
Boys,67.13,5,Allan Hale,San Saba,65.77,165.56,104.33,185.97,455.86,Single-ply,SBD,M
Boys,67.13,6,Nathan Castro,Brady,62.14,172.37,99.79,181.44,453.59,Single-ply,SBD,M
Boys,67.13,7,David Hernandez #2,Brady,65.32,149.69,97.52,154.22,401.43,Single-ply,SBD,M
Boys,67.13,8,Sean Pyburn,Comanche,67.13,147.42,92.99,151.95,392.36,Single-ply,SBD,M
Boys,67.13,9,Kevin Harris,Fort Worth Western Hills,64.41,149.69,65.77,147.42,362.87,Single-ply,SBD,M
Boys,67.13,10,Michael Avila,Fort Worth Polytechnic,66.68,120.2,74.84,163.29,358.34,Single-ply,SBD,M
Boys,67.13,11,Nathan Craft,Cross Plains,62.6,106.59,83.91,151.95,342.46,Single-ply,SBD,M
Boys,67.13,12,Ruby Ramirez #1,Hamilton,62.14,124.74,74.84,129.27,328.85,Single-ply,SBD,M
Boys,67.13,13,Rodney Rice,Brady,62.6,108.86,70.31,122.47,301.64,Single-ply,SBD,M
Boys,67.13,14,Bo Crowder,Coleman,61.23,106.59,70.31,111.13,288.03,Single-ply,SBD,M
Boys,67.13,15,Brooks Jones,Coleman,61.69,104.33,65.77,106.59,276.69,Single-ply,SBD,M
Boys,67.13,16,Kaleb Nowlin,De Leon,65.77,81.65,68.04,102.06,251.74,Single-ply,SBD,M
Boys,67.13,17,Layne Walker,Comanche,65.32,83.91,61.23,97.52,242.67,Single-ply,SBD,M
Boys,67.13,DQ,Martin Calderon,Comanche,67.13,127.01,,136.08,,Single-ply,SBD,M
Boys,67.13,DQ,Adam Boyer,Brady,63.96,70.31,,,,Single-ply,SBD,M
Boys,67.13,DQ,Nick Davila,Millsap,63.05,138.35,,142.88,,Single-ply,SBD,M
Boys,67.13,DQ,Taylor Ochs,Peaster,66.22,183.7,,,,Single-ply,SBD,M
Boys,74.84,1,Jacob Carson,Bangs,73.03,174.63,104.33,206.38,485.34,Single-ply,SBD,M
Boys,74.84,2,Angel Salasar,Fort Worth Polytechnic,73.57,174.63,113.4,188.24,476.27,Single-ply,SBD,M
Boys,74.84,3,Carder Brooks,Hamilton,73.94,165.56,83.91,156.49,405.97,Single-ply,SBD,M
Boys,74.84,4,Chris Dominguez,Sidney,71.67,147.42,92.99,163.29,403.7,Single-ply,SBD,M
Boys,74.84,5,Edgar Barrios,Coleman,68.95,145.15,102.06,149.69,396.89,Single-ply,SBD,M
Boys,74.84,6,Garrett Stuard,Coleman,68.04,124.74,83.91,156.49,365.14,Single-ply,SBD,M
Boys,74.84,7,Blake Hammonds,Coleman,72.57,124.74,79.38,142.88,347,Single-ply,SBD,M
Boys,74.84,8,Chance Sinclair,Cross Plains,72.57,113.4,88.45,136.08,337.93,Single-ply,SBD,M
Boys,74.84,9,Shane Johnson,Millsap,72.12,99.79,68.04,133.81,301.64,Single-ply,SBD,M
Boys,74.84,10,Ben Smith #9,Lometa,70.31,104.33,72.57,104.33,281.23,Single-ply,SBD,M
Boys,74.84,DQ,Jamie Faust,Hamilton,68.49,142.88,,138.35,,Single-ply,SBD,M
Boys,74.84,DQ,Martin Cardiel,Bangs,74.84,145.15,83.91,,,Single-ply,SBD,M
Boys,82.1,1,Isaac Jiminez,San Saba,81.92,176.9,106.59,192.78,476.27,Single-ply,SBD,M
Boys,82.1,2,Francisco Munoz,Sidney,81.47,170.1,99.79,188.24,458.13,Single-ply,SBD,M
Boys,82.1,3,Nick Adams,Cross Plains,80.65,145.15,120.2,174.63,439.98,Single-ply,SBD,M
Boys,82.1,4,Jontaven King,Fort Worth Western Hills,80.38,142.88,111.13,165.56,419.57,Single-ply,SBD,M
Boys,82.1,5,Xander Leatherwood,Brady,80.47,142.88,99.79,172.37,415.04,Single-ply,SBD,M
Boys,82.1,6,Cole Barrett,Llano,76.02,165.56,90.72,154.22,410.5,Single-ply,SBD,M
Boys,82.1,7,Zach Hedfelt,Cross Plains,76.57,136.08,88.45,181.44,405.97,Single-ply,SBD,M
Boys,82.1,8,Clay Brown,Millsap,77.38,145.15,90.72,149.69,385.55,Single-ply,SBD,M
Boys,89.81,9,Gustavo Garcia,Fort Worth Polytechnic,82.28,115.67,106.59,147.42,369.68,Single-ply,SBD,M
Boys,82.1,10,Everto Gonzales,De Leon,77.11,104.33,79.38,136.08,319.78,Single-ply,SBD,M
Boys,82.1,11,Jordan Boggs,Brady,79.92,99.79,61.23,113.4,274.42,Single-ply,SBD,M
Boys,82.1,DQ,Jacob Beckworth,Bangs,81.74,185.97,,179.17,,Single-ply,SBD,M
Boys,89.81,1,Jake Long,Brady,89.36,238.14,147.42,244.94,630.49,Single-ply,SBD,M
Boys,89.81,2,Kyle Saunders,Peaster,83.55,206.38,115.67,206.38,528.44,Single-ply,SBD,M
Boys,89.81,3,Brad Barker,Peaster,87.09,195.04,129.27,201.85,526.17,Single-ply,SBD,M
Boys,89.81,4,Kayden Gass,Llano,88.45,204.12,117.93,204.12,526.17,Single-ply,SBD,M
Boys,89.81,5,Blaine Garcia,De Leon,89.45,197.31,102.06,204.12,503.49,Single-ply,SBD,M
Boys,89.81,6,Christian Basquez,Bangs,88.18,208.65,106.59,185.97,501.22,Single-ply,SBD,M
Boys,89.81,7,Caleb Moreau,Fort Worth Western Hills,89.27,192.78,102.06,197.31,492.15,Single-ply,SBD,M
Boys,89.81,8,David Arizola,Sidney,86.82,172.37,115.67,172.37,460.4,Single-ply,SBD,M
Boys,89.81,9,Matthew Belk,Millsap,86.09,174.63,95.25,181.44,451.32,Single-ply,SBD,M
Boys,89.81,10,Jose Aleman,Dublin,88.36,158.76,111.13,181.44,451.32,Single-ply,SBD,M
Boys,89.81,11,Christian George,Fort Worth Polytechnic,86.55,154.22,115.67,170.1,439.98,Single-ply,SBD,M
Boys,89.81,12,Marino Majia,Hamilton,86.73,181.44,83.91,158.76,424.11,Single-ply,SBD,M
Boys,89.81,13,Angel Barrios,Coleman,83.37,151.95,117.93,147.42,417.3,Single-ply,SBD,M
Boys,89.81,14,Charlie Thomas #3,Coleman,83.91,136.08,97.52,156.49,390.09,Single-ply,SBD,M
Boys,89.81,15,Ky Nguyen,Fort Worth Polytechnic,89.36,138.35,92.99,151.95,383.29,Single-ply,SBD,M
Boys,89.81,16,Jake Monroe,Millsap,86.09,140.61,86.18,124.74,351.53,Single-ply,SBD,M
Boys,89.81,17,Jose Campos,Fort Worth Polytechnic,86.82,115.67,97.52,127.01,340.19,Single-ply,SBD,M
Boys,89.81,18,Juan Garcia #17,San Saba,84.64,122.47,70.31,133.81,326.59,Single-ply,SBD,M
Boys,89.81,19,Juan DonJuan,Fort Worth Polytechnic,85,108.86,70.31,115.67,294.84,Single-ply,SBD,M
Boys,89.81,DQ,Aaron Koonce,De Leon,87.72,,117.93,,,Single-ply,SBD,M
Boys,99.79,1,Justin Taylor,Comanche,97.61,192.78,136.08,188.24,517.1,Single-ply,SBD,M
Boys,99.79,2,Cody Allen,Llano,97.89,204.12,115.67,174.63,494.42,Single-ply,SBD,M
Boys,99.79,3,Jason Poole,Fort Worth Western Hills,94.26,183.7,99.79,197.31,480.81,Single-ply,SBD,M
Boys,99.79,4,Tanner Weyerts,San Saba,90.54,176.9,77.11,192.78,446.79,Single-ply,SBD,M
Boys,99.79,5,Daniel Evatt,Llano,91.81,183.7,90.72,167.83,442.25,Single-ply,SBD,M
Boys,99.79,6,Matt Salinas,De Leon,92.44,158.76,102.06,181.44,442.25,Single-ply,SBD,M
Boys,99.79,7,Gage Lugo,Comanche,95.44,158.76,102.06,181.44,442.25,Single-ply,SBD,M
Boys,99.79,8,Dominic Rosales,San Saba,92.26,165.56,108.86,158.76,433.18,Single-ply,SBD,M
Boys,99.79,9,Manuel Rodriguez #6,Fort Worth Polytechnic,99.61,161.03,111.13,161.03,433.18,Single-ply,SBD,M
Boys,99.79,10,AJ Willingham,Fort Worth Western Hills,92.08,142.88,113.4,142.88,399.16,Single-ply,SBD,M
Boys,99.79,11,Joel Elizondo,Comanche,90.45,158.76,102.06,122.47,383.29,Single-ply,SBD,M
Boys,99.79,12,Sabastian Castillo,Brady,91.81,138.35,72.57,167.83,378.75,Single-ply,SBD,M
Boys,99.79,13,Jose Olivas,San Saba,92.62,120.2,90.72,149.69,360.61,Single-ply,SBD,M
Boys,99.79,14,Aaron Larson,Brady,93.35,106.59,61.23,127.01,294.84,Single-ply,SBD,M
Boys,99.79,15,Uriel Moreno,Fort Worth Polytechnic,93.71,111.13,70.31,108.86,290.3,Single-ply,SBD,M
Boys,99.79,DQ,Steven Gunnels,Fort Worth Polytechnic,96.71,,102.06,151.95,,Single-ply,SBD,M
Boys,99.79,DQ,Tyler Toomey,Fort Worth Polytechnic,95.16,133.81,,131.54,,Single-ply,SBD,M
Boys,109.77,1,Alex Aleman,Dublin,107.41,226.8,142.88,217.72,587.4,Single-ply,SBD,M
Boys,109.77,2,Taylor Smith #11,Bangs,105.69,240.4,129.27,206.38,576.06,Single-ply,SBD,M
Boys,109.77,3,Sam Lopez,Bangs,108.68,222.26,142.88,190.51,555.65,Single-ply,SBD,M
Boys,109.77,4,Austin Thomas,Cross Plains,100.33,170.1,113.4,183.7,467.2,Single-ply,SBD,M
Boys,109.77,5,Wil Sloan,San Saba,104.96,167.83,113.4,176.9,458.13,Single-ply,SBD,M
Boys,109.77,6,Kale Plumlee,Comanche,104.6,165.56,106.59,179.17,451.32,Single-ply,SBD,M
Boys,109.77,7,Kirby Massingill,Hamilton,106.59,174.63,81.65,154.22,410.5,Single-ply,SBD,M
Boys,109.77,8,Carl Gruben,Bangs,102.24,149.69,90.72,154.22,394.63,Single-ply,SBD,M
Boys,109.77,9,Juan Alvarez,Fort Worth Polytechnic,105.78,133.81,97.52,138.35,369.68,Single-ply,SBD,M
Boys,109.77,10,Michael McKinney,San Saba,104.42,124.74,68.04,145.15,337.93,Single-ply,SBD,M
Boys,109.77,DQ,Nathan Amstead,San Saba,103.51,113.4,,113.4,,Single-ply,SBD,M
Boys,109.77,DQ,Donald Ricketson,Llano,105.69,,86.18,124.74,,Single-ply,SBD,M
Boys,109.77,DQ,Brandon Breedlove,Bangs,105.96,183.7,,158.76,,Single-ply,SBD,M
Boys,124.74,1,Colt Caffey,Sidney,117.39,231.33,142.88,238.14,612.35,Single-ply,SBD,M
Boys,124.74,2,Jarrett Anderson,Bangs,116.75,204.12,151.95,204.12,560.19,Single-ply,SBD,M
Boys,124.74,3,Marcelino Felipe,Coleman,116.85,226.8,127.01,195.04,548.85,Single-ply,SBD,M
Boys,124.74,4,Marcelo Cavarillo,Brady,121.02,183.7,99.79,188.24,471.74,Single-ply,SBD,M
Boys,124.74,5,Jason Cortez,Fort Worth Western Hills,117.39,179.17,111.13,179.17,469.47,Single-ply,SBD,M
Boys,124.74,6,Dusty Parum,San Saba,114.94,117.93,68.04,136.08,322.05,Single-ply,SBD,M
Boys,124.74,DQ,Kenny Johnson,Fort Worth Western Hills,113.4,,106.59,192.78,,Single-ply,SBD,M
Boys,124.74+,1,Chance Furniss,Bangs,142.88,260.82,172.37,235.87,669.05,Single-ply,SBD,M
Boys,124.74+,2,Tyler McIntosh,San Saba,126.28,238.14,145.15,226.8,610.08,Single-ply,SBD,M
Boys,124.74+,3,Dave Smith #8,San Saba,195.04,217.72,129.27,170.1,517.1,Single-ply,SBD,M
Boys,124.74+,4,Diego Montoya,San Saba,142.25,190.51,131.54,176.9,498.95,Single-ply,SBD,M
Boys,124.74+,5,Manuel Cruz,Coleman,131.18,133.81,97.52,145.15,376.48,Single-ply,SBD,M
Boys,124.74+,6,Pedro Haas,Llano,149.05,142.88,72.57,142.88,358.34,Single-ply,SBD,M
