Division,WeightClassKg,Place,Name,Team,BodyweightKg,Best3SquatKg,Best3BenchKg,Best3DeadliftKg,TotalKg,Equipment,Event,Sex
Boys,51.71,1,Eddie Olvera,Los Fresnos,51.35,151.95,92.99,181.44,426.38,Single-ply,SBD,M
Boys,51.71,2,Brandon Sauceda,PSJA Memorial,50.26,149.69,79.38,161.03,390.09,Single-ply,SBD,M
Boys,51.71,3,Anthony Garcia,Weslaco,49.62,145.15,83.91,156.49,385.55,Single-ply,SBD,M
Boys,51.71,4,Alex Berrones,Brownsville Lopez,50.62,129.27,81.65,174.63,385.55,Single-ply,SBD,M
Boys,51.71,5,Alex Mena,Weslaco,50.8,145.15,74.84,147.42,367.41,Single-ply,SBD,M
Boys,55.79,6,Jose Quintero,Brownsville Lopez,51.8,124.74,79.38,151.95,356.07,Single-ply,SBD,M
Boys,55.79,7,Joe Anthony Tamez,PSJA Memorial,51.89,136.08,65.77,142.88,344.73,Single-ply,SBD,M
Boys,51.71,8,Kevin Sierra,PSJA Southwest,51.35,120.2,83.91,136.08,340.19,Single-ply,SBD,M
Boys,51.71,9,Josh Ysaguirre,San Benito,50.35,127.01,68.04,136.08,331.12,Single-ply,SBD,M
Boys,51.71,10,Leo Alaniz,Brownsville Lopez,51.53,115.67,77.11,138.35,331.12,Single-ply,SBD,M
Boys,51.71,11,David Lozano,Roma,50.62,127.01,65.77,136.08,328.85,Single-ply,SBD,M
Boys,51.71,12,Cody Acosta,PSJA,47.08,106.59,56.7,120.2,283.5,Single-ply,SBD,M
Boys,51.71,DQ,Brooks Guzman,Weslaco East,51.53,172.37,,,,Single-ply,SBD,M
Boys,55.79,1,Juan Rivera,Los Fresnos,55.16,165.56,117.93,206.38,489.88,Single-ply,SBD,M
Boys,55.79,2,Angel Flores #2,Weslaco East,54.98,179.17,99.79,197.31,476.27,Single-ply,SBD,M
Boys,55.79,3,Alejandro Flores,Weslaco East,54.34,179.17,108.86,181.44,469.47,Single-ply,SBD,M
Boys,55.79,4,Mauro Vargas,La Joya Juarez-Lincoln,55.16,154.22,106.59,174.63,435.45,Single-ply,SBD,M
Boys,55.79,5,Mike Barajas,Hidalgo Early College,55.52,154.22,99.79,176.9,430.91,Single-ply,SBD,M
Boys,55.79,6,Kaleb Espinoza,Donna,55.52,163.29,86.18,174.63,424.11,Single-ply,SBD,M
Boys,59.87,7,Abraham Zermeno,Donna North,55.88,142.88,92.99,170.1,405.97,Single-ply,SBD,M
Boys,59.87,8,Carlos Jaimez,Hidalgo Early College,55.97,145.15,86.18,172.37,403.7,Single-ply,SBD,M
Boys,55.79,9,Juan Tamez,Weslaco East,54.88,156.49,86.18,158.76,401.43,Single-ply,SBD,M
Boys,59.87,10,Angel Flores #2,Mercedes,55.97,140.61,95.25,154.22,390.09,Single-ply,SBD,M
Boys,55.79,DQ,Alex Aguilar #4,Brownsville Pace,53.61,142.88,,,,Single-ply,SBD,M
Boys,59.87,1,Raul Mota,San Benito,59.51,208.65,129.27,222.26,560.19,Single-ply,SBD,M
Boys,59.87,2,Randy Medellin,San Benito,59.87,188.24,104.33,185.97,478.54,Single-ply,SBD,M
Boys,59.87,3,Leo Tanguma,Rio Grande City Grulla,59.51,154.22,102.06,163.29,419.57,Single-ply,SBD,M
Boys,59.87,4,Branden Barajas,Hidalgo Early College,59.78,154.22,79.38,179.17,412.77,Single-ply,SBD,M
Boys,67.13,5,Alexis Gonzalez #3,PSJA North,60.06,147.42,95.25,167.83,410.5,Single-ply,SBD,M
Boys,59.87,6,Mario Garcia,Brownsville Pace,58.15,136.08,88.45,142.88,367.41,Single-ply,SBD,M
Boys,59.87,7,Artemio Balderas,PSJA Memorial,58.97,140.61,81.65,142.88,365.14,Single-ply,SBD,M
Boys,59.87,8,Ricky Cuellar,Brownsville Pace,59.6,142.88,74.84,136.08,353.8,Single-ply,SBD,M
Boys,59.87,9,Esai Marez,Mission Sharyland,59.6,117.93,65.77,142.88,326.59,Single-ply,SBD,M
Boys,59.87,10,Luis Martinez #18,PSJA,59.78,117.93,61.23,140.61,319.78,Single-ply,SBD,M
Boys,59.87,DQ,Allan Cruz,Mission Veterans Memorial,59.51,165.56,,,,Single-ply,SBD,M
Boys,67.13,1,Joshua Garcia,Weslaco,65.5,226.8,115.67,217.72,560.19,Single-ply,SBD,M
Boys,74.84,2,Jesse Rodriguez,PSJA Memorial,67.31,217.72,127.01,204.12,548.85,Single-ply,SBD,M
Boys,67.13,3,Aaron Anguiano,Pharr Valley View,65.95,213.19,113.4,208.65,535.24,Single-ply,SBD,M
Boys,67.13,4,Jordan Aguilar,Mercedes,66.77,190.51,131.54,210.92,532.97,Single-ply,SBD,M
Boys,74.84,5,Yayo Segura,Brownsville Pace,67.31,192.78,108.86,208.65,510.29,Single-ply,SBD,M
Boys,67.13,6,Branden Ruiz,Donna,66.95,185.97,117.93,204.12,508.02,Single-ply,SBD,M
Boys,67.13,7,Jorge Cavazos,Mercedes,66.95,172.37,111.13,172.37,455.86,Single-ply,SBD,M
Boys,67.13,8,Johnny Castillo,PSJA North,64.95,163.29,104.33,181.44,449.06,Single-ply,SBD,M
Boys,67.13,9,Mike Tamez,Donna,62.69,149.69,92.99,185.97,428.64,Single-ply,SBD,M
Boys,67.13,10,Sean De La Garza,Mission Veterans Memorial,66.77,156.49,104.33,156.49,417.3,Single-ply,SBD,M
Boys,67.13,11,Valentin Ayala,Hidalgo Early College,62.69,138.35,81.65,145.15,365.14,Single-ply,SBD,M
Boys,74.84,12,Angel Acosta,McAllen,67.31,136.08,74.84,154.22,365.14,Single-ply,SBD,M
Boys,67.13,13,Frank Gutierrez,McAllen,66.77,131.54,74.84,142.88,349.27,Single-ply,SBD,M
Boys,67.13,14,Kyle Sanchez,McAllen,63.78,113.4,63.5,117.93,294.84,Single-ply,SBD,M
Boys,67.13,DQ,JJ Camacho,Brownsville Pace,67.04,,,,,Single-ply,SBD,M
Boys,82.1,1,Eliseo Garzoria,Los Fresnos,74.93,210.92,108.86,260.82,580.6,Single-ply,SBD,M
Boys,74.84,2,Chris Jackson #13,Weslaco,73.57,217.72,117.93,240.4,576.06,Single-ply,SBD,M
Boys,74.84,3,Gilbert Guajardo,Pharr Valley View,74.3,226.8,127.01,219.99,573.79,Single-ply,SBD,M
Boys,74.84,4,Alex Santisteban,La Joya,71.94,206.38,115.67,208.65,530.7,Single-ply,SBD,M
Boys,74.84,5,Joe Rodriguez,PSJA Southwest,73.21,204.12,124.74,195.04,523.9,Single-ply,SBD,M
Boys,74.84,6,Octavio De La Cruz,Hidalgo Early College,73.03,185.97,111.13,197.31,494.42,Single-ply,SBD,M
Boys,74.84,7,Alec Gonzalez,Mercedes,68.67,181.44,106.59,201.85,489.88,Single-ply,SBD,M
Boys,74.84,8,Nacho Guevara,Brownsville Pace,72.03,183.7,108.86,185.97,478.54,Single-ply,SBD,M
Boys,74.84,9,Eric Ginez,Donna,73.57,195.04,102.06,179.17,476.27,Single-ply,SBD,M
Boys,74.84,10,Fabian Ledesma,Mercedes,73.66,172.37,90.72,142.88,405.97,Single-ply,SBD,M
Boys,74.84,11,Kevin Gonzalez,Rio Grande City Grulla,68.04,149.69,97.52,154.22,401.43,Single-ply,SBD,M
Boys,74.84,12,Haroldo Ramirez,Rio Grande City Grulla,74.66,158.76,81.65,154.22,394.63,Single-ply,SBD,M
Boys,74.84,13,Justin Jimenez,PSJA,68.67,108.86,74.84,115.67,299.37,Single-ply,SBD,M
Boys,74.84,DQ,Michael Valle,Hidalgo Early College,69.76,,,,,Single-ply,SBD,M
Boys,74.84,DQ,Jorge Valenzuela,Hidalgo Early College,70.4,133.81,,,,Single-ply,SBD,M
Boys,82.1,1,Ram Mendoza,Weslaco East,80.92,233.6,149.69,238.14,621.42,Single-ply,SBD,M
Boys,82.1,2,Jesus Reyna,Weslaco,81.1,251.74,140.61,229.06,621.42,Single-ply,SBD,M
Boys,82.1,3,Fabian Rodriguez,Los Fresnos,79.74,233.6,142.88,240.4,616.89,Single-ply,SBD,M
Boys,82.1,4,Robert Hernandez,La Joya Juarez-Lincoln,77.93,222.26,138.35,235.87,596.47,Single-ply,SBD,M
Boys,82.1,5,Robert Garza,Donna,80.29,247.21,131.54,215.46,594.21,Single-ply,SBD,M
Boys,82.1,6,Roy Pedraza,Weslaco East,77.75,204.12,136.08,244.94,585.13,Single-ply,SBD,M
Boys,82.1,7,Luis Ortiz,Los Fresnos,77.93,201.85,136.08,238.14,576.06,Single-ply,SBD,M
Boys,82.1,8,Desse Zarate,Rio Grande City Grulla,79.74,210.92,131.54,231.33,573.79,Single-ply,SBD,M
Boys,82.1,9,Trey Caballero,Weslaco,81.65,219.99,127.01,222.26,569.26,Single-ply,SBD,M
Boys,82.1,10,Salvador Castillo,Mission Sharyland,79.02,210.92,113.4,242.67,566.99,Single-ply,SBD,M
Boys,82.1,11,Ricardo Vela,Hidalgo Early College,77.11,199.58,122.47,240.4,562.45,Single-ply,SBD,M
Boys,82.1,12,Yonny Villarreal,La Joya,81.28,217.72,113.4,226.8,557.92,Single-ply,SBD,M
Boys,82.1,13,Ernesto Preciado,Pharr Valley View,80.01,195.04,117.93,185.97,498.95,Single-ply,SBD,M
Boys,82.1,14,Israel Estrada,PSJA North,78.11,188.24,122.47,185.97,496.68,Single-ply,SBD,M
Boys,82.1,15,Carlos Zarate,Mission Sharyland,81.37,188.24,104.33,204.12,496.68,Single-ply,SBD,M
Boys,89.81,16,Lazaro Rodriguez,PSJA Memorial,82.28,195.04,108.86,190.51,494.42,Single-ply,SBD,M
Boys,82.1,17,Andrew Cantu,Mission Sharyland,81.47,197.31,99.79,192.78,489.88,Single-ply,SBD,M
Boys,82.1,18,Andrew Leija,PSJA North,79.38,163.29,108.86,192.78,464.93,Single-ply,SBD,M
Boys,89.81,19,Ryan Smith,Mercedes,82.33,165.56,106.59,176.9,449.06,Single-ply,SBD,M
Boys,82.1,20,Roger Adame,Mercedes,80.56,165.56,97.52,181.44,444.52,Single-ply,SBD,M
Boys,82.1,21,Anthony Vallejo,Mercedes,81.01,158.76,104.33,181.44,444.52,Single-ply,SBD,M
Boys,82.1,DQ,Dylan Salinas,Mission Sharyland,79.65,,,,,Single-ply,SBD,M
Boys,82.1,DQ,Sal Mendez,PSJA Southwest,79.47,158.76,,,,Single-ply,SBD,M
Boys,82.1,DQ,Issac Aleman,Hidalgo Early College,81.47,,,,,Single-ply,SBD,M
Boys,89.81,1,Julio Garcia,La Joya Juarez-Lincoln,86.91,219.99,149.69,235.87,605.55,Single-ply,SBD,M
Boys,99.79,2,Fernando Hernandez,La Joya Juarez-Lincoln,89.99,224.53,145.15,231.33,601.01,Single-ply,SBD,M
Boys,89.81,3,Daniel Ramos,Brownsville Lopez,87.91,229.06,136.08,229.06,594.21,Single-ply,SBD,M
Boys,89.81,4,Juan Aguirre,San Benito,88.45,226.8,131.54,235.87,594.21,Single-ply,SBD,M
Boys,89.81,5,Julio Reyna,PSJA Southwest,87.63,217.72,122.47,226.8,566.99,Single-ply,SBD,M
Boys,89.81,6,Victor Garza,PSJA Southwest,87.72,226.8,136.08,195.04,557.92,Single-ply,SBD,M
Boys,89.81,7,Pedro Quiroz,Hidalgo Early College,84.01,181.44,142.88,226.8,551.11,Single-ply,SBD,M
Boys,89.81,8,Tony Cerda,La Joya,87.36,213.19,129.27,208.65,551.11,Single-ply,SBD,M
Boys,89.81,9,Pablo Garza,Brownsville Pace,86,192.78,131.54,217.72,542.04,Single-ply,SBD,M
Boys,99.79,10,Johnathan Garcia,PSJA Memorial,90.04,172.37,124.74,188.24,485.34,Single-ply,SBD,M
Boys,89.81,11,Lazaro Bernabe,Hidalgo Early College,89.81,183.7,97.52,197.31,478.54,Single-ply,SBD,M
Boys,89.81,12,Carlos Martinez #15,PSJA,88.27,176.9,115.67,181.44,474,Single-ply,SBD,M
Boys,89.81,13,Quiten Martinez,Rio Grande City,88.54,176.9,97.52,188.24,462.66,Single-ply,SBD,M
Boys,89.81,14,Joel Moreno,Mission Sharyland,88.81,142.88,106.59,188.24,437.72,Single-ply,SBD,M
Boys,89.81,15,David Garza,PSJA North,85.64,167.83,83.91,165.56,417.3,Single-ply,SBD,M
Boys,89.81,16,Caleb Longoria,Rio Grande City,88.45,136.08,86.18,142.88,365.14,Single-ply,SBD,M
Boys,89.81,DQ,Thor Hernandez,PSJA North,86.73,213.19,,,,Single-ply,SBD,M
Boys,89.81,DQ,Daniel Yanez,Donna,88.9,,,,,Single-ply,SBD,M
Boys,89.81,DQ,Justin Leanos,La Joya,82.64,201.85,115.67,,,Single-ply,SBD,M
Boys,99.79,1,Eddie Gomez,Edcouch-Elsa,99.79,278.96,136.08,249.48,664.51,Single-ply,SBD,M
Boys,99.79,2,Elijah Sanchez,Edcouch-Elsa,96.71,263.08,165.56,229.06,657.71,Single-ply,SBD,M
Boys,99.79,3,Jerry DeCanini,Weslaco East,96.89,242.67,145.15,247.21,635.03,Single-ply,SBD,M
Boys,99.79,4,Heriberto Hernandez,Weslaco,98.52,247.21,131.54,247.21,625.96,Single-ply,SBD,M
Boys,99.79,5,Rey Rodriguez,Pharr Valley View,98.88,272.16,127.01,213.19,612.35,Single-ply,SBD,M
Boys,99.79,6,Ricky Ramirez,PSJA Southwest,93.98,224.53,163.29,208.65,596.47,Single-ply,SBD,M
Boys,99.79,7,Nick Chavez,Donna,91.35,229.06,124.74,226.8,580.6,Single-ply,SBD,M
Boys,99.79,8,Matt Torres,San Benito,96.71,224.53,149.69,199.58,573.79,Single-ply,SBD,M
Boys,99.79,9,Jon Vasquez,PSJA Southwest,97.16,233.6,127.01,210.92,571.53,Single-ply,SBD,M
Boys,99.79,10,Daniel González,La Joya Juarez-Lincoln,99.43,213.19,129.27,226.8,569.26,Single-ply,SBD,M
Boys,99.79,11,Albino Mendez,Pharr Valley View,90.45,226.8,113.4,204.12,544.31,Single-ply,SBD,M
Boys,99.79,12,Gilbert Guerrero,Donna,97.52,188.24,142.88,204.12,535.24,Single-ply,SBD,M
Boys,99.79,13,David Cantu,Mission Sharyland,90.45,226.8,113.4,167.83,508.02,Single-ply,SBD,M
Boys,99.79,14,Javier de la Torre #1,Rio Grande City,95.98,192.78,106.59,206.38,505.76,Single-ply,SBD,M
Boys,99.79,15,Jaime Vera,Rio Grande City,95.25,181.44,111.13,204.12,496.68,Single-ply,SBD,M
Boys,99.79,16,Jose Fernandez #6,La Joya,99.79,170.1,102.06,188.24,460.4,Single-ply,SBD,M
Boys,99.79,17,Gilbert Romero,La Joya Juarez-Lincoln,92.26,192.78,102.06,156.49,451.32,Single-ply,SBD,M
Boys,99.79,18,Adolfo Trevino,Mission Sharyland,96.98,188.24,113.4,140.61,442.25,Single-ply,SBD,M
Boys,99.79,DQ,Jesus Costilla,Donna North,99.25,,,,,Single-ply,SBD,M
Boys,109.77,DQ,Juan Resendez,La Joya,100.02,183.7,,,,Single-ply,SBD,M
Boys,99.79,DQ,Israel Alfaro,Weslaco East,98.79,265.35,,,,Single-ply,SBD,M
Boys,109.77,1,German Lopez,Weslaco East,107.14,281.23,183.7,249.48,714.41,Single-ply,SBD,M
Boys,109.77,2,Juan Martinez,Donna North,106.59,254.01,145.15,256.28,655.44,Single-ply,SBD,M
Boys,109.77,3,Fernando Gonzalez,La Joya Palmview,107.32,272.16,149.69,226.8,648.64,Single-ply,SBD,M
Boys,109.77,4,Mark Cisneros,Donna,104.42,260.82,138.35,231.33,630.49,Single-ply,SBD,M
Boys,109.77,5,Freddy Martinez,Los Fresnos,107.14,226.8,158.76,201.85,587.4,Single-ply,SBD,M
Boys,109.77,6,Angel Valdez,PSJA Southwest,109,217.72,136.08,204.12,557.92,Single-ply,SBD,M
Boys,124.74,7,JP Torres,Donna,109.86,229.06,133.81,190.51,553.38,Single-ply,SBD,M
Boys,109.77,8,Daniel González,Brownsville Pace,107.05,238.14,124.74,174.63,537.51,Single-ply,SBD,M
Boys,109.77,9,Jonathan Ojeda,Brownsville Pace,104.51,192.78,111.13,192.78,496.68,Single-ply,SBD,M
Boys,109.77,10,Rj Leal,PSJA North,101.06,183.7,104.33,183.7,471.74,Single-ply,SBD,M
Boys,109.77,11,Ethan Mendiola,Donna North,103.6,158.76,111.13,181.44,451.32,Single-ply,SBD,M
Boys,109.77,12,Gerardo López,McAllen,108.77,147.42,74.84,120.2,342.46,Single-ply,SBD,M
Boys,109.77,DQ,Vicente Palacios,PSJA North,101.06,226.8,147.42,,,Single-ply,SBD,M
Boys,109.77,DQ,Andres Enriquez,PSJA,105.51,267.62,170.1,,,Single-ply,SBD,M
Boys,109.77,DQ,Jose Gomez,Mercedes,109.32,,,,,Single-ply,SBD,M
Boys,124.74,1,Jonathan Banda,Weslaco East,119.57,283.5,158.76,269.89,712.14,Single-ply,SBD,M
Boys,124.74,2,Nazario Garza,Rio Grande City Grulla,120.29,272.16,176.9,263.08,712.14,Single-ply,SBD,M
Boys,124.74,3,Roger Benavides,Rio Grande City,111.22,256.28,158.76,238.14,653.17,Single-ply,SBD,M
Boys,124.74,4,Ramiro Reza,San Benito,121.38,272.16,154.22,226.8,653.17,Single-ply,SBD,M
Boys,124.74,5,Christian Castro,Brownsville Pace,124.1,265.35,129.27,215.46,610.08,Single-ply,SBD,M
Boys,124.74,6,Shawn Gonzalez,PSJA Southwest,116.17,238.14,147.42,215.46,601.01,Single-ply,SBD,M
Boys,124.74,7,Luis Costilla,Donna North,110.13,226.8,136.08,226.8,589.67,Single-ply,SBD,M
Boys,124.74,8,Miguel Torres,Mission Veterans Memorial,118.39,213.19,142.88,204.12,560.19,Single-ply,SBD,M
Boys,124.74,9,Javi Gonzalez,Los Fresnos,120.2,217.72,133.81,204.12,555.65,Single-ply,SBD,M
Boys,124.74,10,Armando DeLeon,PSJA,118.02,201.85,120.2,210.92,532.97,Single-ply,SBD,M
Boys,124.74,11,Isaiah Leanos,McAllen,122.47,174.63,113.4,192.78,480.81,Single-ply,SBD,M
Boys,124.74,12,John Veliz,McAllen,111.58,156.49,102.06,154.22,412.77,Single-ply,SBD,M
Boys,124.74,13,Arturo Ochoa,McAllen,113.85,142.88,92.99,163.29,399.16,Single-ply,SBD,M
Boys,124.74,DQ,Rudy De La Torre,Weslaco,116.66,,,,,Single-ply,SBD,M
Boys,124.74+,1,Sergio Moralez,Weslaco East,164.93,326.59,215.46,294.84,836.88,Single-ply,SBD,M
Boys,124.74+,2,Ruben Hinojosa,Roma,142.79,294.84,170.1,251.74,716.68,Single-ply,SBD,M
Boys,124.74+,3,Eli Olivo,Donna North,126.73,272.16,156.49,231.33,659.98,Single-ply,SBD,M
Boys,124.74+,4,Bruce Castro,Los Fresnos,141.7,272.16,145.15,240.4,657.71,Single-ply,SBD,M
Boys,124.74+,DQ,Josh Trevino,Brownsville Lopez,138.07,,,,,Single-ply,SBD,M
Boys,124.74+,DQ,Jose Molina #1,Donna North,140.98,,,,,Single-ply,SBD,M
Boys,124.74+,DQ,Adrian Montalvo,Rio Grande City Grulla,132.72,,,,,Single-ply,SBD,M
Boys,124.74+,DQ,Zeke Garza,La Joya,147.78,,,,,Single-ply,SBD,M
Boys,124.74+,DQ,Danny Melendez,Mercedes,146.15,247.21,,,,Single-ply,SBD,M
Boys,124.74+,DQ,Brandon Perez #2,Weslaco,148.32,,,,,Single-ply,SBD,M
Boys,124.74+,DQ,Manuel Mata,PSJA North,125.37,294.84,165.56,,,Single-ply,SBD,M
