Division,WeightClassKg,Place,Name,Team,BodyweightKg,Best3SquatKg,Best3BenchKg,Best3DeadliftKg,TotalKg,Equipment,Event,Sex
Boys,51.71,1,Jordan Ruiz,Seagraves,51.17,145.15,88.45,149.69,383.29,Single-ply,SBD,M
Boys,51.71,2,Ivan Antuna,Plainview,48.99,115.67,70.31,142.88,328.85,Single-ply,SBD,M
Boys,51.71,3,Carlos Raya,Plainview,49.62,108.86,74.84,111.13,294.84,Single-ply,SBD,M
Boys,51.71,4,Salvador Antillon,Seminole,49.44,117.93,61.23,113.4,292.57,Single-ply,SBD,M
Boys,51.71,5,Adan Silvas,McCamey,50.44,104.33,54.43,120.2,278.96,Single-ply,SBD,M
Boys,51.71,6,Alex Figueroa,Sudan,51.35,97.52,56.7,104.33,258.55,Single-ply,SBD,M
Boys,51.71,7,Jesus Lozoya,Sudan,51.53,86.18,54.43,106.59,247.21,Single-ply,SBD,M
Boys,51.71,8,Billy Sutton,Whiteface,49.62,45.36,36.29,83.91,165.56,Single-ply,SBD,M
Boys,51.71,DQ,Zack Sherrod,Anton,50.17,,,,,Single-ply,SBD,M
Boys,59.87,1,Eric Rivas,Seminole,55.88,149.69,83.91,167.83,401.43,Single-ply,SBD,M
Boys,55.79,2,Tomas Vega,Alpine,55.61,147.42,83.91,165.56,396.89,Single-ply,SBD,M
Boys,55.79,3,Joseph Campos,Midland,55.34,145.15,74.84,158.76,378.75,Single-ply,SBD,M
Boys,59.87,4,Kisan Valenzuela,Kermit,55.97,145.15,88.45,145.15,378.75,Single-ply,SBD,M
Boys,55.79,5,Adam Martin,Sudan,55.61,142.88,74.84,154.22,371.95,Single-ply,SBD,M
Boys,55.79,6,Sawyer Jenkins,Seminole,55.43,131.54,79.38,149.69,360.61,Single-ply,SBD,M
Boys,55.79,7,Wesley Payton,Lamesa,54.98,122.47,77.11,149.69,349.27,Single-ply,SBD,M
Boys,55.79,8,Kevin Gonzalez,Fort Stockton,53.16,127.01,72.57,145.15,344.73,Single-ply,SBD,M
Boys,55.79,9,Daniel Valenzuela,Pecos,54.88,131.54,63.5,147.42,342.46,Single-ply,SBD,M
Boys,55.79,10,Van Phan,Alpine,52.34,127.01,70.31,136.08,333.39,Single-ply,SBD,M
Boys,59.87,11,Jorge Guitron,Sudan,56.02,104.33,88.45,133.81,326.59,Single-ply,SBD,M
Boys,59.87,12,Gian Cruz,Monahans,55.97,122.47,63.5,138.35,324.32,Single-ply,SBD,M
Boys,55.79,13,Byron Gryder,McCamey,54.34,133.81,54.43,131.54,319.78,Single-ply,SBD,M
Boys,55.79,14,Michael Lopez,Seagraves,54.52,117.93,56.7,136.08,310.71,Single-ply,SBD,M
Boys,55.79,15,Brandon Rhea,Andrews,53.71,106.59,65.77,136.08,308.44,Single-ply,SBD,M
Boys,55.79,16,Jessie Munoz,Odessa,55.43,111.13,68.04,124.74,303.91,Single-ply,SBD,M
Boys,55.79,17,Nik Clarkson,Sudan,53.43,120.2,58.97,122.47,301.64,Single-ply,SBD,M
Boys,55.79,18,Jacob Galindo,Odessa,52.53,113.4,61.23,124.74,299.37,Single-ply,SBD,M
Boys,55.79,19,Arturo Gonzalez #1,Odessa,53.8,97.52,61.23,97.52,256.28,Single-ply,SBD,M
Boys,55.79,DQ,Ronald Banman,Seminole,52.16,,54.43,,,Single-ply,SBD,M
Boys,59.87,1,Andrew Alvidrez,Seminole,59.42,172.37,108.86,190.51,471.74,Single-ply,SBD,M
Boys,67.13,2,Pablo Hinojosa,Lamesa,60.06,176.9,95.25,170.1,442.25,Single-ply,SBD,M
Boys,67.13,3,Ryan Vasquez,Monahans,59.96,136.08,90.72,165.56,392.36,Single-ply,SBD,M
Boys,59.87,4,Darian Vidana,Monahans,56.34,151.95,79.38,158.76,390.09,Single-ply,SBD,M
Boys,59.87,5,Nicolas Ybara,Pecos,59.69,142.88,95.25,151.95,390.09,Single-ply,SBD,M
Boys,59.87,6,Justin Workman,Pecos,59.33,136.08,92.99,158.76,387.82,Single-ply,SBD,M
Boys,59.87,7,Gabe Zamora,Sudan,59.15,129.27,83.91,165.56,378.75,Single-ply,SBD,M
Boys,59.87,8,Salvador Salamanca,Sudan,59.69,133.81,83.91,149.69,367.41,Single-ply,SBD,M
Boys,59.87,9,Eli Rodriguez,Seagraves,58.51,136.08,72.57,147.42,356.07,Single-ply,SBD,M
Boys,67.13,10,Rodrick Renteria,Pecos,60.1,127.01,95.25,131.54,353.8,Single-ply,SBD,M
Boys,59.87,11,Cesar Medrano,Sudan,59.06,117.93,86.18,145.15,349.27,Single-ply,SBD,M
Boys,59.87,12,Cole Hunt,Alpine,58.06,129.27,65.77,149.69,344.73,Single-ply,SBD,M
Boys,59.87,13,Israel Celaya,Fort Stockton,57.7,136.08,72.57,131.54,340.19,Single-ply,SBD,M
Boys,59.87,14,Cameron Hurd,Midland,58.88,113.4,58.97,136.08,308.44,Single-ply,SBD,M
Boys,59.87,15,Xavier Trillo,Sudan,58.24,113.4,63.5,122.47,299.37,Single-ply,SBD,M
Boys,67.13,16,Leo Galindo,Crane,60.06,113.4,68.04,113.4,294.84,Single-ply,SBD,M
Boys,59.87,17,Kevin Fehr,Wolfforth Frenship,59.87,90.72,43.09,113.4,247.21,Single-ply,SBD,M
Boys,59.87,DQ,Nathanial Rosales,McCamey,59.87,,,,,Single-ply,SBD,M
Boys,74.84,1,Thomas Garcia,Midland,67.22,188.24,127.01,192.78,508.02,Single-ply,SBD,M
Boys,67.13,2,Karlonte Jackson,Anton,66.77,208.65,90.72,197.31,496.68,Single-ply,SBD,M
Boys,67.13,3,Juan Losoya,Midland,65.68,190.51,79.38,183.7,453.59,Single-ply,SBD,M
Boys,67.13,4,Alex Valdez,Andrews,67.04,151.95,97.52,167.83,417.3,Single-ply,SBD,M
Boys,74.84,5,Marcus Ruff,Whiteface,67.36,145.15,83.91,181.44,410.5,Single-ply,SBD,M
Boys,74.84,6,David Denton,Wolfforth Frenship,67.22,158.76,83.91,163.29,405.97,Single-ply,SBD,M
Boys,67.13,7,Keele Valenzuela,Kermit,61.87,161.03,92.99,149.69,403.7,Single-ply,SBD,M
Boys,67.13,8,Faustino Rosas,Fort Stockton,64.59,154.22,81.65,167.83,403.7,Single-ply,SBD,M
Boys,67.13,9,Mario Ramirez,Odessa,66.41,142.88,88.45,165.56,396.89,Single-ply,SBD,M
Boys,67.13,10,Ethan Trotter,Andrews,64.68,133.81,77.11,136.08,347,Single-ply,SBD,M
Boys,67.13,11,Logan Gersbach,Seminole,63.32,115.67,83.91,136.08,335.66,Single-ply,SBD,M
Boys,67.13,12,Justice Andrews,Monahans,66.32,127.01,79.38,120.2,326.59,Single-ply,SBD,M
Boys,67.13,13,Derrick Garcia,Pecos,60.42,124.74,74.84,115.67,315.25,Single-ply,SBD,M
Boys,67.13,14,Josh Ashmore,McCamey,65.23,102.06,83.91,117.93,303.91,Single-ply,SBD,M
Boys,67.13,15,Sterling Hannsz,Monahans,62.96,95.25,54.43,120.2,269.89,Single-ply,SBD,M
Boys,67.13,DQ,Reed Jones,Odessa Permian,65.68,,,,,Single-ply,SBD,M
Boys,67.13,DQ,Manuel Quezada,Plains,65.86,161.03,,,,Single-ply,SBD,M
Boys,67.13,DQ,Cullen Holt,Plainview,65.41,165.56,,,,Single-ply,SBD,M
Boys,67.13,DQ,Joey Prieto,Andrews,64.05,167.83,,,,Single-ply,SBD,M
Boys,74.84,1,Jaime Ortiz #1,Crane,72.3,219.99,127.01,195.04,542.04,Single-ply,SBD,M
Boys,74.84,2,Matthew Gonzales,Fort Stockton,68.22,185.97,108.86,217.72,512.56,Single-ply,SBD,M
Boys,74.84,3,Pablo Jimenez,Plainview,73.21,190.51,108.86,204.12,503.49,Single-ply,SBD,M
Boys,74.84,4,Noah DiSalvo,Plainview,73.21,176.9,104.33,201.85,483.08,Single-ply,SBD,M
Boys,74.84,5,Xzavier Martinez,Midland,71.67,179.17,108.86,188.24,476.27,Single-ply,SBD,M
Boys,74.84,6,Marcus Aragon,Crane,72.48,165.56,117.93,158.76,442.25,Single-ply,SBD,M
Boys,74.84,7,Luke Sherman,Lockney,73.84,158.76,111.13,172.37,442.25,Single-ply,SBD,M
Boys,74.84,8,Joe Macias,Andrews,71.03,165.56,104.33,170.1,439.98,Single-ply,SBD,M
Boys,74.84,9,Jake Bramlet,Lockney,72.3,165.56,92.99,176.9,435.45,Single-ply,SBD,M
Boys,74.84,10,Ramon Juarez,Seminole,73.39,158.76,92.99,174.63,426.38,Single-ply,SBD,M
Boys,74.84,11,Ben Rodriquez,Fort Stockton,71.12,163.29,86.18,174.63,424.11,Single-ply,SBD,M
Boys,74.84,12,Leo Ureste,Fort Stockton,69.13,174.63,95.25,149.69,419.57,Single-ply,SBD,M
Boys,74.84,13,Brent Thompson,Andrews,72.94,158.76,92.99,163.29,415.04,Single-ply,SBD,M
Boys,74.84,14,Ignacio Rodriguez #3,Pecos,72.39,147.42,102.06,163.29,412.77,Single-ply,SBD,M
Boys,74.84,15,Justin Cabezuela,Odessa,73.48,142.88,97.52,161.03,401.43,Single-ply,SBD,M
Boys,74.84,16,Michael Guerrero,Lockney,70.94,140.61,97.52,161.03,399.16,Single-ply,SBD,M
Boys,74.84,17,Cesar Saldana,Odessa,74.39,136.08,81.65,172.37,390.09,Single-ply,SBD,M
Boys,74.84,18,Zane Bostick,Monahans,72.03,138.35,104.33,142.88,385.55,Single-ply,SBD,M
Boys,74.84,19,Jd Crenshaw,Andrews,72.85,122.47,97.52,161.03,381.02,Single-ply,SBD,M
Boys,74.84,20,Jake Strickland,Monahans,73.21,147.42,88.45,131.54,367.41,Single-ply,SBD,M
Boys,74.84,21,Juan Pando,Anton,73.94,145.15,68.04,138.35,351.53,Single-ply,SBD,M
Boys,74.84,22,Joaquein Ramirez,Seminole,68.49,72.57,58.97,136.08,267.62,Single-ply,SBD,M
Boys,74.84,DQ,Daniel Bagley,McCamey,69.04,115.67,,,,Single-ply,SBD,M
Boys,74.84,DQ,Tristan Babb,McCamey,74.57,129.27,,,,Single-ply,SBD,M
Boys,74.84,DQ,Cole Gatzki,Plains,71.85,151.95,97.52,158.76,,Single-ply,SBD,M
Boys,74.84,DQ,Mizeal Orona,Odessa,74.12,149.69,108.86,158.76,,Single-ply,SBD,M
Boys,74.84,DQ,Angel Rodriquez #1,Odessa,72.03,174.63,,,,Single-ply,SBD,M
Boys,82.1,1,Adrian Gonzales,Plainview,81.28,215.46,129.27,233.6,578.33,Single-ply,SBD,M
Boys,82.1,2,Phillip Fuentes,Midland,78.2,208.65,104.33,217.72,530.7,Single-ply,SBD,M
Boys,82.1,3,Andrew Dunlap,Plainview,81.56,199.58,122.47,201.85,523.9,Single-ply,SBD,M
Boys,82.1,4,Clayton Clair,Odessa,80.65,204.12,97.52,219.99,521.63,Single-ply,SBD,M
Boys,82.1,5,Jj Casarez,McCamey,78.11,190.51,120.2,192.78,503.49,Single-ply,SBD,M
Boys,82.1,6,Hector Ontiveros,Fort Stockton,80.74,176.9,115.67,204.12,496.68,Single-ply,SBD,M
Boys,82.1,7,Domingo Saucedo,Plainview,78.02,192.78,115.67,185.97,494.42,Single-ply,SBD,M
Boys,82.1,8,Caleb Morales,Lamesa,82.1,206.38,108.86,179.17,494.42,Single-ply,SBD,M
Boys,82.1,9,Casey Sanders,Wolfforth Frenship,80.01,174.63,124.74,192.78,492.15,Single-ply,SBD,M
Boys,89.81,10,Andrew Mendez,Wolfforth Frenship,82.28,183.7,102.06,199.58,485.34,Single-ply,SBD,M
Boys,82.1,11,Osmar Diaz,Sudan,80.83,170.1,113.4,197.31,480.81,Single-ply,SBD,M
Boys,82.1,12,George Klassen,Seminole,79.92,172.37,106.59,192.78,471.74,Single-ply,SBD,M
Boys,82.1,13,Nathan Montes,Monahans,81.37,181.44,120.2,167.83,469.47,Single-ply,SBD,M
Boys,82.1,14,Dexter Longley,Seminole,81.28,170.1,111.13,185.97,467.2,Single-ply,SBD,M
Boys,82.1,15,Aaron Castillo,Pecos,75.39,172.37,99.79,185.97,458.13,Single-ply,SBD,M
Boys,82.1,16,Eddic Villa,Fort Stockton,76.66,170.1,88.45,195.04,453.59,Single-ply,SBD,M
Boys,82.1,17,Cody Huelsberg,Alpine,77.02,181.44,97.52,165.56,444.52,Single-ply,SBD,M
Boys,82.1,18,AJ Sanchez,Monahans,80.2,167.83,99.79,167.83,435.45,Single-ply,SBD,M
Boys,82.1,19,Dalton Driver,Seminole,78.29,172.37,83.91,154.22,410.5,Single-ply,SBD,M
Boys,82.1,20,Nicholas Navarette,Pecos,78.47,151.95,92.99,163.29,408.23,Single-ply,SBD,M
Boys,82.1,21,Michael Deanda,Lamesa,78.38,158.76,77.11,151.95,387.82,Single-ply,SBD,M
Boys,82.1,22,Matthew Haroutunian,Alpine,76.57,113.4,79.38,138.35,331.12,Single-ply,SBD,M
Boys,82.1,23,Logan Falkenbury,Whiteface,76.38,108.86,68.04,104.33,281.23,Single-ply,SBD,M
Boys,82.1,24,Mark Flores,Crane,81.92,92.99,56.7,108.86,258.55,Single-ply,SBD,M
Boys,89.81,1,Lionel Sanchez,Midland,87.18,206.38,129.27,240.4,576.06,Single-ply,SBD,M
Boys,89.81,2,Joseph Chavez,Lockney,88.9,226.8,138.35,206.38,571.53,Single-ply,SBD,M
Boys,89.81,3,Aldo Marquez,Plainview,85.73,235.87,120.2,213.19,569.26,Single-ply,SBD,M
Boys,89.81,4,Sergio Leyva,Odessa,88.81,213.19,136.08,213.19,562.45,Single-ply,SBD,M
Boys,89.81,5,Shelby Mobley,Odessa,88.27,204.12,124.74,190.51,519.36,Single-ply,SBD,M
Boys,89.81,6,Azel Alvidrez,Andrews,89.18,188.24,124.74,206.38,519.36,Single-ply,SBD,M
Boys,89.81,7,Zach Lerma,Odessa,88.54,195.04,127.01,181.44,503.49,Single-ply,SBD,M
Boys,89.81,8,Tanner Vestal,Odessa Permian,86.55,190.51,102.06,192.78,485.34,Single-ply,SBD,M
Boys,89.81,9,David Gonzales,Odessa Permian,85.91,183.7,99.79,174.63,458.13,Single-ply,SBD,M
Boys,89.81,10,Andrew Navarette,Pecos,82.74,172.37,90.72,176.9,439.98,Single-ply,SBD,M
Boys,89.81,11,Jalen Falcon,Fort Stockton,88.72,172.37,83.91,181.44,437.72,Single-ply,SBD,M
Boys,89.81,12,David Montiel,Anton,82.83,136.08,92.99,181.44,410.5,Single-ply,SBD,M
Boys,89.81,13,Jose Trejo #3,Sudan,82.92,158.76,88.45,154.22,401.43,Single-ply,SBD,M
Boys,89.81,14,Parker May,Monahans,89.45,115.67,70.31,127.01,312.98,Single-ply,SBD,M
Boys,89.81,15,Alex Holguin,Monahans,88.45,92.99,65.77,138.35,297.1,Single-ply,SBD,M
Boys,89.81,DQ,Ozzy Zuniga,Odessa Permian,88,222.26,133.81,,,Single-ply,SBD,M
Boys,99.79,1,Anthony Montemayor,Lamesa,98.7,226.8,117.93,210.92,555.65,Single-ply,SBD,M
Boys,99.79,2,Angel Ornelas,Plainview,97.25,204.12,120.2,197.31,521.63,Single-ply,SBD,M
Boys,99.79,3,Michael Powers,Fort Stockton,98.07,195.04,113.4,206.38,514.83,Single-ply,SBD,M
Boys,99.79,4,Evan Card,Fort Stockton,99.52,204.12,97.52,210.92,512.56,Single-ply,SBD,M
Boys,99.79,5,Marcos Mercado,Lockney,96.07,181.44,124.74,190.51,496.68,Single-ply,SBD,M
Boys,99.79,6,Matt Foster,Wolfforth Frenship,94.8,204.12,90.72,199.58,494.42,Single-ply,SBD,M
Boys,99.79,7,Kyle Treadwell,Pecos,97.34,167.83,120.2,188.24,476.27,Single-ply,SBD,M
Boys,99.79,8,Chance Arriaga,Fort Stockton,94.71,176.9,104.33,181.44,462.66,Single-ply,SBD,M
Boys,99.79,9,Rolando Gutierrez,Seagraves,97.43,181.44,88.45,188.24,458.13,Single-ply,SBD,M
Boys,99.79,10,Dago Ortega,Odessa Permian,91.17,161.03,97.52,188.24,446.79,Single-ply,SBD,M
Boys,99.79,11,Alex Maldonado,Anton,97.98,181.44,74.84,190.51,446.79,Single-ply,SBD,M
Boys,99.79,12,John Palomin,Lockney,93.89,151.95,106.59,174.63,433.18,Single-ply,SBD,M
Boys,99.79,13,Juan Sosa,Odessa,95.16,167.83,104.33,149.69,421.84,Single-ply,SBD,M
Boys,99.79,14,Matt Cardenas,Wolfforth Frenship,99.16,170.1,113.4,136.08,419.57,Single-ply,SBD,M
Boys,99.79,15,Pedro Ybarra,McCamey,90.54,154.22,88.45,174.63,417.3,Single-ply,SBD,M
Boys,99.79,16,Cody Stephens,Crane,94.53,151.95,97.52,154.22,403.7,Single-ply,SBD,M
Boys,99.79,17,Marcus Williams #3,Kermit,95.25,151.95,97.52,147.42,396.89,Single-ply,SBD,M
Boys,99.79,18,Bobby Taylor,Whiteface,95.07,136.08,86.18,149.69,371.95,Single-ply,SBD,M
Boys,99.79,DQ,Josh Ontiveroz,Odessa Permian,91.26,147.42,,,,Single-ply,SBD,M
Boys,99.79,DQ,Junior Gomez,Odessa Permian,92.99,,,,,Single-ply,SBD,M
Boys,109.77,1,Angelo Samarripa,Plainview,105.87,290.3,190.51,235.87,716.68,Single-ply,SBD,M
Boys,109.77,2,James Iglesias,Lamesa,107.5,254.01,142.88,240.4,637.3,Single-ply,SBD,M
Boys,109.77,3,Eric Villegas,Midland,108.95,254.01,151.95,204.12,610.08,Single-ply,SBD,M
Boys,109.77,4,Avery Rodriguez #4,Odessa Permian,107.5,267.62,129.27,210.92,607.81,Single-ply,SBD,M
Boys,109.77,5,Landon Weeden,Odessa Permian,104.51,226.8,115.67,204.12,546.58,Single-ply,SBD,M
Boys,109.77,6,Brandon Lujan,Seminole,106.78,208.65,140.61,195.04,544.31,Single-ply,SBD,M
Boys,109.77,7,Robert Barker,Wolfforth Frenship,109.23,204.12,113.4,226.8,544.31,Single-ply,SBD,M
Boys,109.77,8,Austin Betancourt,Seminole,103.6,195.04,113.4,204.12,512.56,Single-ply,SBD,M
Boys,109.77,9,Victor Perez,Lamesa,109.77,197.31,115.67,185.97,498.95,Single-ply,SBD,M
Boys,109.77,10,James Slade,Odessa,104.42,190.51,97.52,208.65,496.68,Single-ply,SBD,M
Boys,109.77,11,Kevin Payne #3,Whiteface,109.41,185.97,90.72,172.37,449.06,Single-ply,SBD,M
Boys,109.77,DQ,Ceasar Rosalez,Seagraves,109.68,231.33,154.22,,,Single-ply,SBD,M
Boys,124.74,DQ,Ibraham Carrasco,Andrews,110,249.48,163.29,,,Single-ply,SBD,M
Boys,124.74,1,Brandon Wright #3,Midland,111.58,254.01,158.76,272.16,684.92,Single-ply,SBD,M
Boys,124.74,2,Emiliano Renteria,Lamesa,121.2,254.01,142.88,240.4,637.3,Single-ply,SBD,M
Boys,124.74,3,Charles Hunt,Midland,120.11,206.38,142.88,208.65,557.92,Single-ply,SBD,M
Boys,124.74,4,Robert Montferrand,Fort Stockton,115.21,215.46,124.74,208.65,548.85,Single-ply,SBD,M
Boys,124.74,5,Keith Kalka,Fort Stockton,113.76,217.72,122.47,183.7,523.9,Single-ply,SBD,M
Boys,124.74,6,Boston Alvarado,Fort Stockton,112.22,204.12,113.4,181.44,498.95,Single-ply,SBD,M
Boys,124.74,7,Hugo Sanchez,Odessa,115.76,188.24,115.67,195.04,498.95,Single-ply,SBD,M
Boys,124.74,8,Jordan Medrano,Odessa Permian,112.58,190.51,122.47,179.17,492.15,Single-ply,SBD,M
Boys,124.74,9,Shawn Pierce,Odessa Permian,112.85,176.9,124.74,181.44,483.08,Single-ply,SBD,M
Boys,124.74,10,Tommy Sotelo,Odessa,124.56,176.9,106.59,179.17,462.66,Single-ply,SBD,M
Boys,124.74,11,O'Shae Grant,Wolfforth Frenship,117.84,172.37,77.11,179.17,428.64,Single-ply,SBD,M
Boys,124.74,12,Reid McIlwain,Lamesa,120.93,163.29,95.25,165.56,424.11,Single-ply,SBD,M
Boys,124.74,DQ,Eduardo Lizalde,Odessa,114.03,192.78,,,,Single-ply,SBD,M
Boys,124.74+,1,James Martinez #4,Midland,132.81,260.82,172.37,226.8,659.98,Single-ply,SBD,M
Boys,124.74+,2,Andrew Rawling,Monahans,130.09,276.69,129.27,233.6,639.57,Single-ply,SBD,M
Boys,124.74+,3,Jesse Ramirez #1,Odessa,148.32,226.8,156.49,226.8,610.08,Single-ply,SBD,M
Boys,124.74+,4,Taylor York,Wolfforth Frenship,138.35,240.4,131.54,233.6,605.55,Single-ply,SBD,M
Boys,124.74+,5,Steven Manahan,McCamey,125.37,240.4,149.69,213.19,603.28,Single-ply,SBD,M
Boys,124.74+,6,Cameron Wesley,Midland,126.82,247.21,133.81,192.78,573.79,Single-ply,SBD,M
Boys,124.74+,7,Todd Garner,Wolfforth Frenship,130.63,224.53,136.08,204.12,564.72,Single-ply,SBD,M
Boys,124.74+,8,Dakota Gonzalez,Fort Stockton,140.34,226.8,142.88,195.04,564.72,Single-ply,SBD,M
Boys,124.74+,9,Nicolas Franco,Pecos,147.33,235.87,140.61,181.44,557.92,Single-ply,SBD,M
Boys,124.74+,10,Jordan Copeland,Midland,140.8,215.46,131.54,201.85,548.85,Single-ply,SBD,M
Boys,124.74+,11,Tyler Ramos,Pecos,132.54,244.94,124.74,174.63,544.31,Single-ply,SBD,M
Boys,124.74+,12,Damien Venegas,McCamey,133.9,215.46,124.74,170.1,510.29,Single-ply,SBD,M
Boys,124.74+,13,Gerardo Martinez,Plains,135.81,185.97,106.59,195.04,487.61,Single-ply,SBD,M
Boys,124.74+,14,Dimitri Pena,Monahans,140.61,188.24,111.13,149.69,449.06,Single-ply,SBD,M
Boys,124.74+,DQ,Mariano Alonzo,Lockney,129.27,158.76,97.52,,,Single-ply,SBD,M
Boys,124.74+,DQ,Ivan Trillo,Sudan,139.98,181.44,,,,Single-ply,SBD,M
