Division,WeightClassKg,Place,Name,Team,BodyweightKg,Best3SquatKg,Best3BenchKg,Best3DeadliftKg,TotalKg,Equipment,Event,Sex
Boys,51.71,1,Hector Gonzalez,Baytown Goose Creek Memorial,51.17,136.08,81.65,142.88,360.61,Single-ply,SBD,M
Boys,51.71,2,Dandrea Hutchinson,Dickinson,48.26,113.4,61.23,136.08,310.71,Single-ply,SBD,M
Boys,51.71,3,Deleon Lewis,Anahuac,48.99,92.99,52.16,124.74,269.89,Single-ply,SBD,M
Boys,51.71,4,Keenan Gatson,La Marque,51.71,90.72,54.43,106.59,251.74,Single-ply,SBD,M
Boys,51.71,DQ,Ronald Lee,Navasota,51.71,,,,,Single-ply,SBD,M
Boys,51.71,DQ,Jaylen Myles,Navasota,51.71,,,,,Single-ply,SBD,M
Boys,55.79,1,Ethan Torres,New Caney,55.79,176.9,90.72,151.95,419.57,Single-ply,SBD,M
Boys,55.79,2,Erick Julio,Houston Northbrook,55.61,124.74,63.5,136.08,324.32,Single-ply,SBD,M
Boys,55.79,3,Kole Joiner,La Marque,52.34,122.47,65.77,133.81,322.05,Single-ply,SBD,M
Boys,55.79,DQ,Sean Unterriener,Splendora,53.98,120.2,,,,Single-ply,SBD,M
Boys,55.79,DQ,Brandon Limas,Wharton,54.25,,,,,Single-ply,SBD,M
Boys,59.87,1,Oscar Puente,New Caney,58.97,145.15,99.79,165.56,410.5,Single-ply,SBD,M
Boys,59.87,2,Juan Chavez,New Caney,59.69,151.95,99.79,149.69,401.43,Single-ply,SBD,M
Boys,59.87,3,Dario Santillan,New Caney,56.79,138.35,99.79,142.88,381.02,Single-ply,SBD,M
Boys,59.87,4,Gaven Cameron,Danbury,59.33,131.54,92.99,136.08,360.61,Single-ply,SBD,M
Boys,59.87,5,Avery Toole,Dayton,56.06,97.52,61.23,133.81,292.57,Single-ply,SBD,M
Boys,67.13,1,Darick Henderson,Navasota,67.13,183.7,115.67,199.58,498.95,Single-ply,SBD,M
Boys,67.13,2,Josiah Griffith,Dayton,62.78,174.63,113.4,195.04,483.08,Single-ply,SBD,M
Boys,67.13,3,Drake Bordages,Hamshire-Fannett,66.13,183.7,97.52,163.29,444.52,Single-ply,SBD,M
Boys,67.13,4,Antonio Garcia,Splendora,65.41,163.29,104.33,174.63,442.25,Single-ply,SBD,M
Boys,67.13,5,Andres Castillo,Needville,63.78,163.29,97.52,174.63,435.45,Single-ply,SBD,M
Boys,67.13,6,Joseph Flores,Huffman Hargrave,66.32,149.69,102.06,181.44,433.18,Single-ply,SBD,M
Boys,67.13,7,Zach Odom,Huffman Hargrave,66.13,154.22,83.91,190.51,428.64,Single-ply,SBD,M
Boys,67.13,8,Colby Bueltmann,Dayton,66.86,133.81,95.25,161.03,390.09,Single-ply,SBD,M
Boys,67.13,9,Cory Siek,Dayton,67.04,149.69,70.31,163.29,383.29,Single-ply,SBD,M
Boys,67.13,10,Kameron Baker,Beaumont United,67.04,147.42,77.11,156.49,381.02,Single-ply,SBD,M
Boys,67.13,11,Bryan Cervantez,Pasadena,60.24,127.01,102.06,147.42,376.48,Single-ply,SBD,M
Boys,67.13,12,Nathan Gurecky,Wharton,60.24,129.27,77.11,154.22,360.61,Single-ply,SBD,M
Boys,67.13,13,Donovan Krushall,Wharton,65.05,106.59,70.31,131.54,308.44,Single-ply,SBD,M
Boys,67.13,14,Jacob Perez #5,Baytown Goose Creek Memorial,67.04,74.84,47.63,102.06,224.53,Single-ply,SBD,M
Boys,67.13,DQ,Christian Hendricks,Baytown Goose Creek Memorial,62.32,,,,,Single-ply,SBD,M
Boys,67.13,DQ,Pierre Bynum,Port Arthur Memorial,66.95,,,,,Single-ply,SBD,M
Boys,67.13,DQ,Josh Alvarado,La Porte,66.32,138.35,,,,Single-ply,SBD,M
Boys,74.84,1,KeShaun Jnoffin,Baytown Goose Creek Memorial,74.03,226.8,122.47,226.8,576.06,Single-ply,SBD,M
Boys,74.84,2,Kyler Teykl,Needville,73.94,208.65,115.67,188.24,512.56,Single-ply,SBD,M
Boys,74.84,3,Lane Labauve,Danbury,71.3,199.58,106.59,204.12,510.29,Single-ply,SBD,M
Boys,74.84,4,Caleb Evans-Pickens,New Caney Porter,72.57,192.78,117.93,195.04,505.76,Single-ply,SBD,M
Boys,74.84,5,Ethan Castaneda,Needville,72.94,174.63,120.2,204.12,498.95,Single-ply,SBD,M
Boys,74.84,6,Christian Ramirez #1,Dayton,73.12,190.51,111.13,190.51,492.15,Single-ply,SBD,M
Boys,74.84,7,Marcel Casas,Dickinson,73.57,199.58,92.99,190.51,483.08,Single-ply,SBD,M
Boys,74.84,8,Westen Nugent,Sour Lake Hardin-Jefferson,72.03,195.04,120.2,165.56,480.81,Single-ply,SBD,M
Boys,74.84,9,William Palmer,Dickinson,73.21,201.85,88.45,181.44,471.74,Single-ply,SBD,M
Boys,74.84,10,Bryce Johnston,Baytown Goose Creek Memorial,74.84,176.9,106.59,183.7,467.2,Single-ply,SBD,M
Boys,74.84,11,Jacob Galle,Sour Lake Hardin-Jefferson,71.76,167.83,97.52,195.04,460.4,Single-ply,SBD,M
Boys,74.84,12,Donovan Thomas,Navasota,68.58,149.69,102.06,185.97,437.72,Single-ply,SBD,M
Boys,74.84,13,Joesph Sterling,Liberty,74.3,145.15,108.86,174.63,428.64,Single-ply,SBD,M
Boys,74.84,14,Miles DeLeon,Wharton,69.85,133.81,113.4,172.37,419.57,Single-ply,SBD,M
Boys,74.84,15,Tai Pham,Anahuac,70.58,151.95,83.91,181.44,417.3,Single-ply,SBD,M
Boys,74.84,16,Deric Lowe,Beaumont United,67.68,142.88,79.38,147.42,369.68,Single-ply,SBD,M
Boys,74.84,17,Jacob Henriquez,Pasadena,71.76,127.01,83.91,158.76,369.68,Single-ply,SBD,M
Boys,74.84,18,Josh Morgan,Liberty,73.75,124.74,79.38,158.76,362.87,Single-ply,SBD,M
Boys,74.84,19,Connor Halbrooks,Huffman Hargrave,69.49,117.93,95.25,140.61,353.8,Single-ply,SBD,M
Boys,74.84,20,Jairo Rivera,Pasadena Memorial,71.03,117.93,77.11,136.08,331.12,Single-ply,SBD,M
Boys,74.84,21,Jessie Valadez,Navasota,70.13,122.47,72.57,124.74,319.78,Single-ply,SBD,M
Boys,74.84,22,Clayton Johnson #2,Danbury,68.22,97.52,74.84,113.4,285.76,Single-ply,SBD,M
Boys,74.84,DQ,Andrew Hernandez #2,Splendora,73.39,,,,,Single-ply,SBD,M
Boys,74.84,DQ,Ja'Shawn Nickerson,Wharton,71.21,,,,,Single-ply,SBD,M
Boys,74.84,DQ,Krashawn Davis,Anahuac,73.39,,,,,Single-ply,SBD,M
Boys,74.84,DQ,Robert Galindo,Dickinson,72.85,222.26,,,,Single-ply,SBD,M
Boys,82.1,1,Tre Evans,Edna,78.29,217.72,138.35,233.6,589.67,Single-ply,SBD,M
Boys,82.1,2,Blaine Waggoner,Hamshire-Fannett,79.92,226.8,127.01,206.38,560.19,Single-ply,SBD,M
Boys,82.1,3,Tanner Stacy,Needville,81.83,204.12,142.88,208.65,555.65,Single-ply,SBD,M
Boys,82.1,4,Garrett Halbrooks,Huffman Hargrave,80.47,176.9,138.35,206.38,521.63,Single-ply,SBD,M
Boys,82.1,5,Aj San Miguel,Huffman Hargrave,77.93,188.24,136.08,192.78,517.1,Single-ply,SBD,M
Boys,82.1,6,Keagan Wilson,Huffman Hargrave,80.1,213.19,104.33,190.51,508.02,Single-ply,SBD,M
Boys,82.1,7,Malakai Bethea,Pasadena Memorial,77.93,185.97,102.06,217.72,505.76,Single-ply,SBD,M
Boys,82.1,8,Ryan James,Baytown Lee,80.01,183.7,111.13,204.12,498.95,Single-ply,SBD,M
Boys,82.1,9,Everardo Avalos,Splendora,80.83,185.97,124.74,188.24,498.95,Single-ply,SBD,M
Boys,82.1,10,Dominic Chong,Dickinson,80.47,192.78,111.13,185.97,489.88,Single-ply,SBD,M
Boys,82.1,11,Justin McAlpin,New Caney,81.28,167.83,127.01,192.78,487.61,Single-ply,SBD,M
Boys,82.1,12,Giovanni Zaso,Pasadena Memorial,77.75,190.51,95.25,188.24,474,Single-ply,SBD,M
Boys,82.1,13,Deryk Villarreal,Huffman Hargrave,79.29,165.56,97.52,201.85,464.93,Single-ply,SBD,M
Boys,82.1,14,Jt Williams,Liberty,75.75,133.81,90.72,195.04,419.57,Single-ply,SBD,M
Boys,82.1,15,Tod Ulrich,Baytown Goose Creek Memorial,78.34,151.95,102.06,158.76,412.77,Single-ply,SBD,M
Boys,82.1,16,Markis Fontenot,Beaumont United,78.93,161.03,74.84,151.95,387.82,Single-ply,SBD,M
Boys,82.1,17,Zachary Brigner,Navasota,82.1,167.83,99.79,106.59,374.21,Single-ply,SBD,M
Boys,82.1,18,Parnell Lujan,Baytown Lee,79.2,106.59,77.11,176.9,360.61,Single-ply,SBD,M
Boys,82.1,DQ,Elijah Cruz,Baytown Goose Creek Memorial,77.66,154.22,111.13,,,Single-ply,SBD,M
Boys,82.1,DQ,Rafel Martinez,Liberty,82.1,,,,,Single-ply,SBD,M
Boys,82.1,DQ,Alexander Lopez,Dayton,79.83,,111.13,,,Single-ply,SBD,M
Boys,82.1,DQ,Armondo Gracia,Pasadena,81.19,165.56,,,,Single-ply,SBD,M
Boys,89.81,1,Gavin Bennett,Dayton,88.27,224.53,124.74,222.26,571.53,Single-ply,SBD,M
Boys,89.81,2,Alexander Valencia,Baytown Lee,88.36,219.99,122.47,226.8,569.26,Single-ply,SBD,M
Boys,89.81,3,Adrian Villarreal,Pasadena,87.91,201.85,129.27,197.31,528.44,Single-ply,SBD,M
Boys,89.81,4,Mason Stutes,Hamshire-Fannett,87.27,204.12,124.74,183.7,512.56,Single-ply,SBD,M
Boys,89.81,5,Johnathan Lopez,La Porte,86.27,197.31,120.2,190.51,508.02,Single-ply,SBD,M
Boys,89.81,6,Ragis Fontenot,Liberty,83.73,188.24,106.59,197.31,492.15,Single-ply,SBD,M
Boys,89.81,7,Logan Dehoyos,Anahuac,87.63,185.97,99.79,204.12,489.88,Single-ply,SBD,M
Boys,89.81,8,Jose Navarro,Wharton,87.18,172.37,113.4,195.04,480.81,Single-ply,SBD,M
Boys,89.81,9,Jayden DeKelaita,Dickinson,85.28,192.78,74.84,204.12,471.74,Single-ply,SBD,M
Boys,89.81,10,Ben Palacios,Pasadena Memorial,87,167.83,102.06,185.97,455.86,Single-ply,SBD,M
Boys,89.81,11,Anthony Copado,Dickinson,84.01,165.56,95.25,192.78,453.59,Single-ply,SBD,M
Boys,89.81,12,Layne Werner,Hamshire-Fannett,87,185.97,83.91,181.44,451.32,Single-ply,SBD,M
Boys,89.81,13,Kevin Hernandez,Anahuac,86,149.69,90.72,176.9,417.3,Single-ply,SBD,M
Boys,89.81,14,Nahn Pham,Anahuac,82.19,165.56,88.45,136.08,390.09,Single-ply,SBD,M
Boys,89.81,15,Bryan Resendiz,Houston Northbrook,84.55,113.4,68.04,136.08,317.51,Single-ply,SBD,M
Boys,89.81,DQ,Zach Ryans,Channelview,88.27,199.58,,,,Single-ply,SBD,M
Boys,89.81,DQ,Trystain Conner,Sour Lake Hardin-Jefferson,83.28,183.7,,,,Single-ply,SBD,M
Boys,89.81,DQ,Cj Alrousan,Pasadena Memorial,89.81,,,,,Single-ply,SBD,M
Boys,89.81,DQ,Brayn Medina,Baytown Lee,87.45,183.7,,,,Single-ply,SBD,M
Boys,89.81,DQ,Gage Gaona,Wharton,88.99,133.81,,,,Single-ply,SBD,M
Boys,89.81,DQ,Jay Rainwater,Wharton,83.28,149.69,,,,Single-ply,SBD,M
Boys,89.81,DQ,Hayden Scott,Wharton,88.54,122.47,,,,Single-ply,SBD,M
Boys,89.81,DQ,Michael Jaramillo,Pasadena,89.81,142.88,,,,Single-ply,SBD,M
Boys,89.81,DQ,Christian Middleton,La Marque,86.36,192.78,,,,Single-ply,SBD,M
Boys,99.79,1,Kareem Guillott,Port Arthur Memorial,97.89,233.6,142.88,226.8,603.28,Single-ply,SBD,M
Boys,99.79,2,Malik Holmes,La Marque,94.98,235.87,131.54,226.8,594.21,Single-ply,SBD,M
Boys,99.79,3,David Hernandez #11,La Porte,99.43,226.8,133.81,226.8,587.4,Single-ply,SBD,M
Boys,99.79,4,Eric Bright,La Porte,93.44,215.46,111.13,219.99,546.58,Single-ply,SBD,M
Boys,99.79,5,Gabriel Winters,Beaumont United,94.89,197.31,106.59,238.14,542.04,Single-ply,SBD,M
Boys,99.79,6,Jordan Malvo,Beaumont United,97.98,217.72,111.13,206.38,535.24,Single-ply,SBD,M
Boys,99.79,7,Donovan Hill,Dickinson,90.26,204.12,120.2,204.12,528.44,Single-ply,SBD,M
Boys,99.79,8,Christian Serrano,Channelview,97.34,192.78,95.25,226.8,514.83,Single-ply,SBD,M
Boys,99.79,9,Adrian Tamez,Pasadena Memorial,90.72,192.78,106.59,208.65,508.02,Single-ply,SBD,M
Boys,99.79,10,Nathan Cabrera,Pasadena Memorial,93.35,208.65,113.4,185.97,508.02,Single-ply,SBD,M
Boys,99.79,11,Jeremiah Taylor,La Marque,94.62,181.44,113.4,201.85,496.68,Single-ply,SBD,M
Boys,99.79,12,Prince Echaverry,Houston Northbrook,96.52,181.44,97.52,167.83,446.79,Single-ply,SBD,M
Boys,99.79,13,Lukas LaFargue,Dayton,92.08,183.7,104.33,129.27,417.3,Single-ply,SBD,M
Boys,99.79,14,Caleb Richardson,Beaumont United,96.8,154.22,83.91,174.63,412.77,Single-ply,SBD,M
Boys,99.79,15,David Keen Jr,New Caney,93.98,156.49,99.79,136.08,392.36,Single-ply,SBD,M
Boys,99.79,16,Agustin Muniz,Wharton,96.98,115.67,72.57,129.27,317.51,Single-ply,SBD,M
Boys,99.79,DQ,Steven Pena,Wharton,99.79,,,,,Single-ply,SBD,M
Boys,99.79,DQ,Keilonn Allen,Wharton,92.44,188.24,,,,Single-ply,SBD,M
Boys,99.79,DQ,Caleb Monroe,Coldspring-Oakhurst,93.08,217.72,,,,Single-ply,SBD,M
Boys,99.79,DQ,Coen Sallier,Beaumont United,97.79,192.78,108.86,,,Single-ply,SBD,M
Boys,99.79,DQ,Hector Lopez,Liberty,92.44,195.04,,,,Single-ply,SBD,M
Boys,109.77,1,Jamaal Edwards,Beaumont United,106.32,244.94,140.61,244.94,630.49,Single-ply,SBD,M
Boys,109.77,2,Zyhon Bell,New Caney Porter,102.97,244.94,151.95,229.06,625.96,Single-ply,SBD,M
Boys,109.77,3,Jordan Lewis #4,New Caney Porter,103.51,258.55,131.54,217.72,607.81,Single-ply,SBD,M
Boys,109.77,4,Mario Maldonado,Splendora,106.32,226.8,145.15,226.8,598.74,Single-ply,SBD,M
Boys,109.77,5,Donoven Jackson,Port Arthur Memorial,103.96,233.6,129.27,233.6,596.47,Single-ply,SBD,M
Boys,109.77,6,Mark St Julian,Dayton,102.06,229.06,124.74,226.8,580.6,Single-ply,SBD,M
Boys,109.77,7,Layne Berry,Hamshire-Fannett,101.51,249.48,122.47,206.38,578.33,Single-ply,SBD,M
Boys,109.77,8,Marquez Ricardo,Needville,109.59,226.8,136.08,206.38,569.26,Single-ply,SBD,M
Boys,109.77,9,Chris Hein,Needville,107.59,195.04,115.67,206.38,517.1,Single-ply,SBD,M
Boys,109.77,10,Brayden Mills,New Caney,109.77,190.51,131.54,195.04,517.1,Single-ply,SBD,M
Boys,109.77,11,Zach Pitts,Huffman Hargrave,104.14,219.99,111.13,183.7,514.83,Single-ply,SBD,M
Boys,109.77,12,Terence Jackson,Beaumont United,105.78,158.76,120.2,226.8,505.76,Single-ply,SBD,M
Boys,109.77,13,J'Vonte Dozier,La Marque,106.68,190.51,111.13,181.44,483.08,Single-ply,SBD,M
Boys,109.77,14,Logan Lofton,New Caney,106.78,181.44,117.93,156.49,455.86,Single-ply,SBD,M
Boys,109.77,15,Jakobe Auzston,Dickinson,100.61,163.29,95.25,181.44,439.98,Single-ply,SBD,M
Boys,109.77,16,Jaylon Jones,Baytown Lee,103.42,147.42,111.13,181.44,439.98,Single-ply,SBD,M
Boys,109.77,17,Justin King,Beaumont United,104.6,136.08,102.06,165.56,403.7,Single-ply,SBD,M
Boys,109.77,DQ,Kolin McCullough,Sour Lake Hardin-Jefferson,109.77,,,,,Single-ply,SBD,M
Boys,109.77,DQ,Jerimiah Garcia,Houston Northbrook,107.68,,,,,Single-ply,SBD,M
Boys,109.77,DQ,Jordan Thomas #3,Port Arthur Memorial,106.5,,,,,Single-ply,SBD,M
Boys,109.77,DQ,Rafael Ramos,Pasadena,108.32,,,,,Single-ply,SBD,M
Boys,109.77,DQ,Zach Davis,Liberty,105.96,151.95,,,,Single-ply,SBD,M
Boys,124.74,1,Albert Regis,La Porte,114.58,240.4,147.42,231.33,619.15,Single-ply,SBD,M
Boys,124.74,2,Anthony Richard,La Marque,118.66,272.16,113.4,233.6,619.15,Single-ply,SBD,M
Boys,124.74,3,Shohn Alexander,Dayton,109.86,249.48,151.95,204.12,605.55,Single-ply,SBD,M
Boys,124.74,4,Lucas Tanton,Dayton,123.38,240.4,149.69,215.46,605.55,Single-ply,SBD,M
Boys,124.74,5,Keith Manney,Dickinson,119.11,222.26,136.08,181.44,539.77,Single-ply,SBD,M
Boys,124.74,6,Rashad Futch,Baytown Lee,116.21,206.38,102.06,226.8,535.24,Single-ply,SBD,M
Boys,124.74,7,Blaine Rich,Liberty,112.49,190.51,99.79,226.8,517.1,Single-ply,SBD,M
Boys,124.74,8,Billy Haynes,Baytown Lee,121.38,188.24,131.54,197.31,517.1,Single-ply,SBD,M
Boys,124.74,9,Christian Shores,Danbury,116.94,181.44,122.47,167.83,471.74,Single-ply,SBD,M
Boys,124.74,10,Jose Lopez,Navasota,114.67,163.29,90.72,163.29,417.3,Single-ply,SBD,M
Boys,124.74,DQ,Markel Martin,Beaumont United,124.65,,,,,Single-ply,SBD,M
Boys,124.74,DQ,Dalton Patterson,Dayton,122.38,199.58,147.42,,,Single-ply,SBD,M
Boys,124.74,DQ,Joel Otero,Dickinson,120.47,244.94,,,,Single-ply,SBD,M
Boys,124.74+,1,Markale White,Dickinson,134.54,267.62,165.56,254.01,687.19,Single-ply,SBD,M
Boys,124.74+,2,Brandon Rangel,Dickinson,136.35,276.69,158.76,238.14,673.58,Single-ply,SBD,M
Boys,124.74+,3,Byron Henderson,Channelview,140.16,256.28,172.37,235.87,664.51,Single-ply,SBD,M
Boys,124.74+,4,Tyler Talavera,New Caney Porter,134.08,272.16,161.03,229.06,662.24,Single-ply,SBD,M
Boys,124.74+,5,Adrian Gomez,Pasadena,130.36,249.48,154.22,224.53,628.23,Single-ply,SBD,M
Boys,124.74+,6,Enrique Montes,Sour Lake Hardin-Jefferson,125.55,272.16,127.01,199.58,598.74,Single-ply,SBD,M
Boys,124.74+,7,Boenisch Blake,Needville,133.36,226.8,133.81,226.8,587.4,Single-ply,SBD,M
Boys,124.74+,8,Tre'Vonte Caines,Port Arthur Memorial,141.16,233.6,127.01,226.8,587.4,Single-ply,SBD,M
Boys,124.74+,9,Sterling Mack,La Marque,126.82,240.4,140.61,190.51,571.53,Single-ply,SBD,M
Boys,124.74+,10,Haiden Shostak,Baytown Goose Creek Memorial,161.93,217.72,127.01,226.8,571.53,Single-ply,SBD,M
Boys,124.74+,11,Nicholas Prado,Houston Northbrook,133.17,238.14,133.81,192.78,564.72,Single-ply,SBD,M
Boys,124.74+,12,Jesus Perales,Houston Northbrook,128.64,238.14,129.27,192.78,560.19,Single-ply,SBD,M
Boys,124.74+,13,Nathanial Davila,La Porte,130.82,226.8,133.81,183.7,544.31,Single-ply,SBD,M
Boys,124.74+,14,Jayden Whitten,Coldspring-Oakhurst,129.36,219.99,111.13,183.7,514.83,Single-ply,SBD,M
Boys,124.74+,15,Seth Sterns,Liberty,125.65,188.24,113.4,204.12,505.76,Single-ply,SBD,M
Boys,124.74+,16,Dereiaz Wilson,Dickinson,127.73,199.58,140.61,163.29,503.49,Single-ply,SBD,M
Boys,124.74+,17,Chandler Sanders,Liberty,125.83,199.58,120.2,181.44,501.22,Single-ply,SBD,M
Boys,124.74+,18,Alfredo Nieto,Baytown Lee,142.07,188.24,102.06,208.65,498.95,Single-ply,SBD,M
Boys,124.74+,19,Wyatt Hail,New Caney,126.46,199.58,104.33,172.37,476.27,Single-ply,SBD,M
Boys,124.74+,20,Omar Nieto,Baytown Lee,131.09,174.63,102.06,183.7,460.4,Single-ply,SBD,M
Boys,124.74+,21,Orlando Arellano,Navasota,128.55,170.1,102.06,136.08,408.23,Single-ply,SBD,M
Boys,124.74+,22,Jy'Eric Houston,Navasota,131.09,158.76,74.84,133.81,367.41,Single-ply,SBD,M
Boys,124.74+,DQ,Alex Smith #3,Anahuac,142.88,,,,,Single-ply,SBD,M
Boys,124.74+,DQ,Paula Vaipulu,Channelview,138.35,,,,,Single-ply,SBD,M
