Place,Name,BirthDate,Team,WeightClassKg,BodyweightKg,Squat1Kg,Squat2Kg,Squat3Kg,Best3SquatKg,Bench1Kg,Bench2Kg,Bench3Kg,Best3BenchKg,Deadlift1Kg,Deadlift2Kg,Deadlift3Kg,Best3DeadliftKg,TotalKg,Sex,Division,Event,Equipment
1,Aneesha M,2001-12-07,KER,47,46.26,125,140,150,150,-70,72.5,-80,72.5,130,147.5,152.5,152.5,375,F,Open,SBD,Single-ply
2,Najuka Tatu Ghare,1995-02-09,RSPB,47,46.61,-145,145,-150,145,65,72.5,77.5,77.5,135,142.5,-150,142.5,365,F,Open,SBD,Single-ply
3,Reema Kumari,1995-04-06,PUN,47,39.65,122.5,130,-135,130,45,50,52.5,52.5,117.5,127.5,-132.5,127.5,310,F,Open,SBD,Single-ply
4,Sushmita Deshmukh,1996-06-11,MAH,47,42.66,-100,100,-105,100,52.5,57.5,-60,57.5,115,125,130,130,287.5,F,Open,SBD,Single-ply
5,Anjali Sangle,1999-07-08,GUJ,47,47,90,100,110,110,50,55,-60,55,100,110,-115,110,275,F,Open,SBD,Single-ply
1,Seeya Metilda Baiju,2002-07-09,KER,52,50.3,115,130,-145,130,50,60,-65,60,-115,115,125,125,315,F,Open,SBD,Single-ply
DQ,Kajol Gaurav,1995-01-01,RSPB,52,51.78,-150,-150,-150,,-80,,,,-150,,,,,F,Open,SBD,Single-ply
1,Sonal Sawant,1998-10-01,MAH,57,57,-170,-170,170,170,110,117.5,-125,117.5,145,155,-165,155,442.5,F,Open,SBD,Single-ply
2,Sudha Kumari,1979-01-06,BIH,57,56.13,-160,160,172.5,172.5,97.5,105,,105,140,142.5,155,155,432.5,F,Open,SBD,Single-ply
3,Shaik Sadiya Almas,2002-10-27,A P,57,56.4,150,-160,160,160,65,70,75,75,140,-147.5,147.5,147.5,382.5,F,Open,SBD,Single-ply
4,Dhanashri Mahadik,2003-05-27,MAH,57,56.51,110,125,132.5,132.5,65,75,-80,75,110,120,-125,120,327.5,F,Open,SBD,Single-ply
DQ,Poonam,1990-08-20,PUN,57,56.33,-145,-145,147.5,147.5,85,90,-92.5,90,-120,,,,,F,Open,SBD,Single-ply
1,Anjali Sharma,1999-05-25,RAJ,63,63,160,-172.5,175,175,112.5,120,125,125,140,147.5,152.5,152.5,452.5,F,Open,SBD,Single-ply
2,Sampada Nagvekar,1998-08-10,MAH,63,63,175,185,-190,185,82.5,-90,-90,82.5,145,155,-160,155,422.5,F,Open,SBD,Single-ply
3,Hritvika Sardesai,2000-03-31,MAH,63,63,140,-150,150,150,70,-75,75,75,140,150,-155,150,375,F,Open,SBD,Single-ply
4,Aditi Bairagi,2002-09-28,M P,63,61.99,120,127.5,-132.5,127.5,70,-80,80,80,115,125,-130,125,332.5,F,Open,SBD,Single-ply
DQ,Manju Rani,1999-12-27,HAR,63,61.54,-180,-180,-180,,-90,,,,-180,,,,,F,Open,SBD,Single-ply
DQ,Lucky Ahmed,1996-11-07,ASA,63,62.61,-170,-180,-180,,-85,,,,-145,,,,,F,Open,SBD,Single-ply
1,Sana Malagi,1994-03-04,KAR,72,72,-205,205,-212.5,205,95,100,102.5,102.5,170,182.5,-187.5,182.5,490,F,Open,SBD,Single-ply
2,Akhaya Shedge,1995-05-13,MAH,72,70.13,180,190,-197.5,190,90,-95,-95,90,180,192.5,-210,192.5,472.5,F,Open,SBD,Single-ply
3,Aishwarya Ramesh,2002-03-19,KER,72,69.2,120,-140,145,145,65,72.5,77.5,77.5,130,145,160,160,382.5,F,Open,SBD,Single-ply
4,Shivkanya Gupta,1964-07-26,M P,72,69.76,77.5,82.5,-87.5,82.5,45,50,55,55,95,102.5,110,110,247.5,F,Open,SBD,Single-ply
1,Sonali Gite,1990-03-31,RSPB,84,84,232.5,242.5,-250,242.5,127.5,137.5,-142.5,137.5,180,-192.5,192.5,192.5,572.5,F,Open,SBD,Single-ply
2,Anuja Sawant,1999-08-06,MAH,84,78.3,160,175,-185,175,-120,-120,120,120,130,142.5,-150,142.5,437.5,F,Open,SBD,Single-ply
3,Gayatri Tomar,1966-11-04,M P,84,82.23,100,-110,-110,100,60,70,-77.5,70,110,120,-125,120,290,F,Open,SBD,Single-ply
DQ,Bhakti Ambre,1982-03-19,MAH,84,80.31,-230,-230,-230,,-135,,,,-170,,,,,F,Open,SBD,Single-ply
1,Sharmila De,1990-10-17,RSPB,84+,110.71,220,-230,230,230,130,-137.5,137.5,137.5,150,160,170,170,537.5,F,Open,SBD,Single-ply
2,Pratiksha Salvi,1997-07-11,MAH,84+,84.2,190,205,-212.5,205,95,105,-112.5,105,160,172.5,177.5,177.5,487.5,F,Open,SBD,Single-ply
3,B. Chandrika,1993-02-21,A P,84+,94.16,160,-180,-180,160,60,70,80,80,140,160,-175,160,400,F,Open,SBD,Single-ply
4,M Ashwini,1995-07-22,T.N,84+,85.34,-130,-130,130,130,65,75,80,80,-127.5,127.5,140,140,350,F,Open,SBD,Single-ply
DQ,Preeti Temghare,1989-10-21,RSPB,84+,84.7,-220,-220,-220,,-95,,,,-150,,,,,F,Open,SBD,Single-ply
DQ,Shreya Bordwekar,1998-01-28,MAH,84+,127.66,190,202.5,210,210,100,107.5,-112.5,107.5,-180,-180,-180,,,F,Open,SBD,Single-ply
1,Yadhnesh V. Raut,1998-08-29,KAR,59,58.8,-205,205,-215,205,112.5,117.5,120,120,-190,190,-195,190,515,M,Open,SBD,Single-ply
2,Durvraj Kure,2000-01-01,M P,59,55.95,-170,170,185,185,100,105,-107.5,105,190,200,-210,200,490,M,Open,SBD,Single-ply
3,P. Bharath Kumar,2002-03-08,A P,59,58.39,170,172.5,-190,172.5,80,90,95,95,180,192.5,197.5,197.5,465,M,Open,SBD,Single-ply
4,Ilamparithi B,2001-06-28,PUD,59,57.08,-170,-175,175,175,110,-115,-115,110,170,-175,-175,170,455,M,Open,SBD,Single-ply
5,Aman Sangle,2002-01-21,GUJ,59,58.6,150,160,-170,160,60,-70,70,70,160,175,185,185,415,M,Open,SBD,Single-ply
1,Sahil Mahesh Utekar,1996-10-27,MAH,66,65.43,-272.5,272.5,282.5,282.5,150,157.5,162.5,162.5,250,262.5,-270,262.5,707.5,M,Open,SBD,Single-ply
2,A. Sheik Mohamed Ali,1999-10-07,T.N,66,65.59,-235,-235,235,235,137.5,147.5,-152.5,147.5,230,240,-245,240,622.5,M,Open,SBD,Single-ply
1,Gurjot Arora,1997-08-07,PUN,74,72.08,-260,260,267.5,267.5,-155,-155,157.5,157.5,260,272.5,277.5,277.5,702.5,M,Open,SBD,Single-ply
2,Aman Singh,1998-08-11,MAH,74,71.5,250,262.5,-275,262.5,140,152.5,160,160,-250,250,260,260,682.5,M,Open,SBD,Single-ply
3,Jaspal,,Utt,74,73.9,252.5,-260,-260,252.5,132.5,142.5,145,145,255,265,-285,265,662.5,M,Open,SBD,Single-ply
4,Jay Patel,1995-08-11,GUJ,74,72.8,170,,,170,-180,180,-187.5,180,250,257.5,-262.5,257.5,607.5,M,Open,SBD,Single-ply
5,L Thavamani Gugan,2004-04-04,T.N,74,72.86,150,160,-170,160,70,80,85,85,150,160,170,170,415,M,Open,SBD,Single-ply
6,Prakash Sangle,1972-01-14,GUJ,74,69.85,130,140,-150,140,60,70,80,80,130,145,-160,145,365,M,Open,SBD,Single-ply
DQ,Amit Kumar #2,1989-07-18,Utt,74,70.86,-242.5,-242.5,-255,,-135,,,,-250,,,,,M,Open,SBD,Single-ply
DQ,Shivam X,1996-11-08,BIH,74,68.95,-245,-245,-265,,155,-165,165,165,225,227.5,240,240,,M,Open,SBD,Single-ply
DQ,Vivek Kumar Gupta,1995-12-05,BIH,74,71.91,-267.5,-267.5,267.5,267.5,-167.5,-167.5,-167.5,,237.5,-242.5,,237.5,,M,Open,SBD,Single-ply
1,Nilesh Garate,1991-05-12,MAH,83,81.71,292.5,315,325,325,210,225,-230,225,240,265,277.5,277.5,827.5,M,Open,SBD,Single-ply
2,Omkar Khedkar,1998-04-10,MAH,83,76.37,-260,260,267.5,267.5,140,147.5,152.5,152.5,240,252.5,260,260,680,M,Open,SBD,Single-ply
3,Chandan Kumar Singh,1998-05-03,BIH,83,75.27,-220,220,-230,220,-130,130,-135,130,210,212.5,225,225,575,M,Open,SBD,Single-ply
4,A Manimaran,1974-04-13,T.N,83,75.5,-200,200,225,225,95,97.5,100,100,180,200,210,210,535,M,Open,SBD,Single-ply
5,Tanaji Patil,1966-06-01,MAH,83,79.21,-190,-190,190,190,105,112.5,120,120,190,200,-210,200,510,M,Open,SBD,Single-ply
6,Kantilal Takle,1959-05-01,MAH,83,79.04,-140,140,-160,140,85,95,-100,95,140,160,170,170,405,M,Open,SBD,Single-ply
1,Akash Binu,1997-09-16,KER,93,92.55,282.5,-285,320,320,172.5,182.5,-190,182.5,272.5,285,295,295,797.5,M,Open,SBD,Single-ply
2,Ulaganathan T,1994-07-26,T.N,93,92.3,300,315,-325,315,-180,180,187.5,187.5,270,285,-292.5,285,787.5,M,Open,SBD,Single-ply
3,S. Naveen,2001-07-26,T.N,93,88.4,280,-290,-290,280,145,155,-162.5,155,275,282.5,-287.5,282.5,717.5,M,Open,SBD,Single-ply
4,B Badirnath,1973-07-13,A P,93,91.33,240,-250,,240,150,160,,160,230,245,,245,645,M,Open,SBD,Single-ply
5,S Arunachalam,1969-11-19,MAH,93,90.78,200,-210,-210,200,130,137.5,145,145,190,200,207.5,207.5,552.5,M,Open,SBD,Single-ply
6,Nayan Sangle,1997-09-08,GUJ,93,88.6,150,160,-175,160,85,95,-100,95,150,160,170,170,425,M,Open,SBD,Single-ply
7,Chandrasen Yadav,1959-06-26,M P,93,86.91,-120,-120,120,120,70,-85,85,85,120,130,-140,130,335,M,Open,SBD,Single-ply
DQ,Satwinder Pal Singh,1986-10-17,PUN,93,84.27,-160,-160,-160,,-80,,,,-140,,,,,M,Open,SBD,Single-ply
1,N Mahaboobkhan,1997-07-21,T.N,105,103.8,280,290,300,300,180,185,190,190,230,240,245,245,735,M,Open,SBD,Single-ply
2,Anant Bhat,1996-07-10,KAR,105,93.7,265,280,-290,280,165,172.5,180,180,235,247.5,-255,247.5,707.5,M,Open,SBD,Single-ply
3,Trilok Singh,1998-06-23,Utt,105,93.1,270,-282.5,-282.5,270,150,-160,162.5,162.5,-260,265,-275,265,697.5,M,Open,SBD,Single-ply
4,Thangapandian V,2001-11-11,T.N,105,101.46,-265,265,275,275,-180,-180,180,180,230,240,-260,240,695,M,Open,SBD,Single-ply
5,Praveen Kumar Yadav,1990-07-27,RAJ,105,93.2,220,222.5,-230,222.5,130,132.5,-145,132.5,220,250,260,260,615,M,Open,SBD,Single-ply
6,Rajat Kumar P Kamble,1997-12-27,KAR,105,96.57,200,220,-240,220,105,115,120,120,170,185,200,200,540,M,Open,SBD,Single-ply
7,Shayam Sahani,1959-11-19,MAH,105,94.3,110,125,-135,125,95,97.5,-102.5,97.5,140,150,160,160,382.5,M,Open,SBD,Single-ply
1,Debi Prasad Chatterjee,1980-01-02,JHA,120,117,300,-310,310,310,215,225,-230,225,280,-290,-290,280,815,M,Open,SBD,Single-ply
2,Sandeep Singh #6,2000-03-23,PUN,120,118.75,260,272.5,277.5,277.5,170,-182.5,-187.5,170,260,275,280,280,727.5,M,Open,SBD,Single-ply
3,Sagar Mirashi,1996-09-30,MAH,120,111.27,-275,275,-290,275,180,-187.5,187.5,187.5,250,257.5,262.5,262.5,725,M,Open,SBD,Single-ply
4,Mathew T J,1969-05-30,KER,120,111.81,225,-245,-250,225,107.5,120,125,125,195,210,220,220,570,M,Open,SBD,Single-ply
5,Girish Binjwe,1971-10-01,MAH,120,106.09,185,-200,210,210,125,135,145,145,185,205,-215,205,560,M,Open,SBD,Single-ply
DQ,Ankit Chouhan,1992-11-19,M P,120,113.92,320,322.5,-345,322.5,-225,-225,-225,,-200,,,,,M,Open,SBD,Single-ply
DQ,Amit Maurya,,U.P,120,118.79,325,-340,-340,325,150,162.5,-170,162.5,-300,-300,-300,,,M,Open,SBD,Single-ply
1,Abhishek B. Horkeri,1998-06-08,KAR,120+,128.58,-300,360,370,370,-200,205,210,210,265,272.5,282.5,282.5,862.5,M,Open,SBD,Single-ply
2,Apoorv Dubey,1993-03-28,M P,120+,122.64,300,305,315,315,190,205,,205,-240,240,280,280,800,M,Open,SBD,Single-ply
3,N Saravanakumar,1994-05-07,T.N,120+,145.89,-180,180,200,200,100,120,-200,120,170,180,-190,180,500,M,Open,SBD,Single-ply
4,Mathangi Rahul Gowtham,2000-01-07,A P,120+,130.42,150,-170,170,170,80,90,-100,90,150,170,-177.5,170,430,M,Open,SBD,Single-ply
