Division,WeightClassKg,Place,Name,Team,BodyweightKg,Best3SquatKg,Best3BenchKg,Best3DeadliftKg,TotalKg,Equipment,Event,Sex
Boys,51.71,1,Edgar Barbosa,Laredo Cigarroa,51.62,138.35,81.65,147.42,367.41,Single-ply,SBD,M
Boys,51.71,2,Robert Ramos,Corpus Christi Tuloso-Midway,51.35,138.35,77.11,142.88,358.34,Single-ply,SBD,M
Boys,51.71,3,Juan Muniz,Laredo Cigarroa,51.44,117.93,58.97,117.93,294.84,Single-ply,SBD,M
Boys,51.71,NS,Chris Marroquin,Hebbronville,,,,,,Single-ply,SBD,M
Boys,55.79,1,Martin Villarreal,Laredo United South,52.8,154.22,88.45,183.7,426.38,Single-ply,SBD,M
Boys,55.79,2,Eric Oliva,Laredo United South,54.61,149.69,86.18,151.95,387.82,Single-ply,SBD,M
Boys,59.87,3,Matthew Valdez,San Diego,55.97,133.81,79.38,172.37,385.55,Single-ply,SBD,M
Boys,55.79,4,Rj Hinojosa,Banquete,54.61,149.69,86.18,145.15,381.02,Single-ply,SBD,M
Boys,55.79,5,Anthony Sanchez,Falfurrias,55.43,120.2,70.31,129.27,319.78,Single-ply,SBD,M
Boys,55.79,DQ,Josh Baez,Falfurrias,54.43,102.06,,,,Single-ply,SBD,M
Boys,55.79,DQ,Eli Torress,Laredo Nixon,53.61,,,,,Single-ply,SBD,M
Boys,55.79,NS,Randy Castillo,Bruni,,,,,,Single-ply,SBD,M
Boys,55.79,NS,Cesar Garcia #3,Bishop,,,,,,Single-ply,SBD,M
Boys,55.79,NS,Ricky Gonzalez,San Diego,,,,,,Single-ply,SBD,M
Boys,67.13,1,Cesar Alfaro,Laredo United South,60.06,174.63,117.93,185.97,478.54,Single-ply,SBD,M
Boys,59.87,2,David Lopez #7,Laredo United South,59.33,163.29,115.67,181.44,460.4,Single-ply,SBD,M
Boys,67.13,3,Ted Crain,Falfurrias,60.06,174.63,74.84,170.1,419.57,Single-ply,SBD,M
Boys,59.87,4,Mario Cantu,Laredo Cigarroa,59.78,133.81,92.99,172.37,399.16,Single-ply,SBD,M
Boys,67.13,5,Ramon Huerta,Falfurrias,60.06,102.06,65.77,138.35,306.17,Single-ply,SBD,M
Boys,59.87,NS,Joel Lopez,Bruni,,,,,,Single-ply,SBD,M
Boys,59.87,NS,Luis Mendoza,Laredo Martin,,,,,,Single-ply,SBD,M
Boys,59.87,NS,Carlos Verdarte,Laredo United South,,,,,,Single-ply,SBD,M
Boys,59.87,NS,David Nesmith,Taft,,,,,,Single-ply,SBD,M
Boys,59.87,NS,Adam Contreras #2,San Diego,,,,,,Single-ply,SBD,M
Boys,59.87,NS,Tomas Guzman,Taft,,,,,,Single-ply,SBD,M
Boys,67.13,1,Rico Rodriguez,San Diego,66.13,240.4,142.88,258.55,641.83,Single-ply,SBD,M
Boys,67.13,2,Jeremiah Keever,Bishop,65.86,181.44,95.25,185.97,462.66,Single-ply,SBD,M
Boys,67.13,3,Albert Salinas,Bishop,67.04,170.1,99.79,163.29,433.18,Single-ply,SBD,M
Boys,67.13,4,Jose Mosequeda,Laredo Cigarroa,66.95,142.88,77.11,192.78,412.77,Single-ply,SBD,M
Boys,67.13,5,Xaivian Stewart,Banquete,66.59,124.74,97.52,174.63,396.89,Single-ply,SBD,M
Boys,67.13,6,Josh Cruz,Bishop,62.87,131.54,74.84,136.08,342.46,Single-ply,SBD,M
Boys,67.13,7,Rudy Ramos,Laredo Nixon,60.78,104.33,54.43,131.54,290.3,Single-ply,SBD,M
Boys,67.13,DQ,Elijio Montalvo,Falfurrias,67.13,,,,,Single-ply,SBD,M
Boys,67.13,DQ,Marcos Casas,Falfurrias,60.96,,,,,Single-ply,SBD,M
Boys,67.13,DQ,Everando Guerrero,Hebbronville,65.95,158.76,,,,Single-ply,SBD,M
Boys,67.13,NS,Travis Charles,Bishop,,,,,,Single-ply,SBD,M
Boys,67.13,NS,Miguel Salazar,Corpus Christi Tuloso-Midway,,,,,,Single-ply,SBD,M
Boys,67.13,NS,Fermin Rendon,Laredo Nixon,,,,,,Single-ply,SBD,M
Boys,67.13,NS,Albert Estrada,Laredo Martin,,,,,,Single-ply,SBD,M
Boys,67.13,NS,David Sturgeon,Taft,,,,,,Single-ply,SBD,M
Boys,67.13,DQ,Aaron Serrato,Freer,66.32,165.56,92.99,,,Single-ply,SBD,M
Boys,74.84,1,Kevin Guerrero,Hebbronville,72.3,219.99,138.35,219.99,578.33,Single-ply,SBD,M
Boys,74.84,2,Jordy Silguero,Hebbronville,68.4,206.38,129.27,199.58,535.24,Single-ply,SBD,M
Boys,74.84,3,Carlos Charles,Bishop,74.66,204.12,117.93,190.51,512.56,Single-ply,SBD,M
Boys,74.84,4,Marcus Cortez,Falfurrias,74.12,170.1,122.47,188.24,480.81,Single-ply,SBD,M
Boys,74.84,5,Horacio Herrera,Laredo Cigarroa,74.66,174.63,99.79,201.85,476.27,Single-ply,SBD,M
Boys,74.84,6,Andy Gonzales,Taft,68.27,161.03,120.2,192.78,474,Single-ply,SBD,M
Boys,74.84,7,John Trevino,Hebbronville,73.66,172.37,106.59,195.04,474,Single-ply,SBD,M
Boys,74.84,8,Edgar Trejo,Laredo United South,73.84,167.83,104.33,199.58,471.74,Single-ply,SBD,M
Boys,74.84,9,Estevan Alfaro,Bruni,73.94,161.03,95.25,199.58,455.86,Single-ply,SBD,M
Boys,74.84,10,Bobby Benavides,Robstown,69.58,145.15,124.74,183.7,453.59,Single-ply,SBD,M
Boys,74.84,11,Rudy Luna,Robstown,71.58,163.29,106.59,183.7,453.59,Single-ply,SBD,M
Boys,74.84,12,Sergio Garcia,Laredo Nixon,74.03,181.44,92.99,167.83,442.25,Single-ply,SBD,M
Boys,74.84,13,Aaron Hunter,Bruni,73.03,149.69,95.25,181.44,426.38,Single-ply,SBD,M
Boys,74.84,14,Lupe Arredondo,Freer,73.03,142.88,83.91,138.35,365.14,Single-ply,SBD,M
Boys,74.84,15,Lucas Mora,Falfurrias,73.75,108.86,68.04,163.29,340.19,Single-ply,SBD,M
Boys,82.1,16,Dalton Patrick,Taft,75.02,115.67,83.91,124.74,324.32,Single-ply,SBD,M
Boys,74.84,17,Liam McMahan,Bruni,69.08,104.33,81.65,120.2,306.17,Single-ply,SBD,M
Boys,74.84,DQ,Dylan Vasquez,Falfurrias,74.75,195.04,,,,Single-ply,SBD,M
Boys,74.84,NS,Salvador Johnson,Bruni,,,,,,Single-ply,SBD,M
Boys,74.84,NS,Richard Rodriguez,Ben Bolt-Palito Blanco,,,,,,Single-ply,SBD,M
Boys,74.84,NS,Javier Botello,Laredo Nixon,,,,,,Single-ply,SBD,M
Boys,74.84,NS,Edgar Mendiola,Laredo Nixon,,,,,,Single-ply,SBD,M
Boys,74.84,NS,David Reyes,Laredo Martin,,,,,,Single-ply,SBD,M
Boys,74.84,NS,Vicente Aguilar,Robstown,,,,,,Single-ply,SBD,M
Boys,74.84,NS,Eddie Garza,San Diego,,,,,,Single-ply,SBD,M
Boys,89.81,1,Rene Saenz,Hebbronville,82.28,231.33,115.67,199.58,546.58,Single-ply,SBD,M
Boys,82.1,2,Victor Ramos,Laredo United South,81.65,197.31,115.67,206.38,519.36,Single-ply,SBD,M
Boys,82.1,3,David Galvan,Laredo Cigarroa,80.92,183.7,92.99,201.85,478.54,Single-ply,SBD,M
Boys,82.1,4,Daniel Briones,Laredo United South,81.01,176.9,106.59,190.51,474,Single-ply,SBD,M
Boys,82.1,5,Diego Leal,Banquete,81.65,195.04,99.79,170.1,464.93,Single-ply,SBD,M
Boys,82.1,6,Diego Chapa,Laredo Cigarroa,81.56,183.7,97.52,179.17,460.4,Single-ply,SBD,M
Boys,82.1,7,Ricky de la Paz,San Diego,78.74,154.22,92.99,172.37,419.57,Single-ply,SBD,M
Boys,82.1,8,Gilbet Jasso,Robstown,82.1,167.83,92.99,156.49,417.3,Single-ply,SBD,M
Boys,82.1,9,Jeremy Alaniz,Freer,78.93,158.76,95.25,158.76,412.77,Single-ply,SBD,M
Boys,82.1,10,Austin Gonzales,Freer,76.57,158.76,83.91,156.49,399.16,Single-ply,SBD,M
Boys,82.1,11,Javier Perez,Banquete,75.75,122.47,97.52,149.69,369.68,Single-ply,SBD,M
Boys,82.1,NS,Julio Cruz,Bruni,,,,,,Single-ply,SBD,M
Boys,82.1,NS,Christian Garza,Falfurrias,,,,,,Single-ply,SBD,M
Boys,82.1,NS,Adrian Munoz,Laredo Martin,,,,,,Single-ply,SBD,M
Boys,82.1,NS,Frank Garcia,Laredo Martin,,,,,,Single-ply,SBD,M
Boys,82.1,NS,Benito Orozco,Laredo Martin,,,,,,Single-ply,SBD,M
Boys,89.81,1,Ryan de la Cruz,San Diego,89.81,294.84,129.27,258.55,682.66,Single-ply,SBD,M
Boys,89.81,2,Jose Jr Vela,Falfurrias,88.81,249.48,138.35,226.8,614.62,Single-ply,SBD,M
Boys,89.81,3,Roy Saenz,Bishop,83.37,206.38,124.74,222.26,553.38,Single-ply,SBD,M
Boys,89.81,4,Kevin Pena,Robstown,87.54,208.65,129.27,199.58,537.51,Single-ply,SBD,M
Boys,89.81,5,Carlos Muñoz,Laredo Nixon,89.18,195.04,104.33,224.53,523.9,Single-ply,SBD,M
Boys,89.81,6,Ben Burkett,Bishop,82.55,190.51,122.47,181.44,494.42,Single-ply,SBD,M
Boys,89.81,7,Matthew Dickson,Corpus Christi Tuloso-Midway,85.18,163.29,124.74,197.31,485.34,Single-ply,SBD,M
Boys,89.81,8,Daniel Barrera,Hebbronville,88.72,161.03,122.47,188.24,471.74,Single-ply,SBD,M
Boys,89.81,9,Mike DeLeon,Falfurrias,86.36,170.1,113.4,181.44,464.93,Single-ply,SBD,M
Boys,89.81,10,Andrew Garza,Falfurrias,85.82,158.76,106.59,188.24,453.59,Single-ply,SBD,M
Boys,99.79,DQ,Esteban Arredondo,Hebbronville,89.99,181.44,111.13,,,Single-ply,SBD,M
Boys,89.81,DQ,Matt Garcia,Ben Bolt-Palito Blanco,88.18,247.21,167.83,,,Single-ply,SBD,M
Boys,89.81,NS,Bryan Vela,Bruni,,,,,,Single-ply,SBD,M
Boys,89.81,NS,Joe Guevarra,Laredo Martin,,,,,,Single-ply,SBD,M
Boys,89.81,NS,Alfonso Montalvo,Riviera Kaufer,,,,,,Single-ply,SBD,M
Boys,99.79,1,Luis Lopez #3,San Diego,93.98,317.51,174.63,256.28,748.43,Single-ply,SBD,M
Boys,99.79,2,Reno Perez,San Diego,94.26,263.08,131.54,249.48,644.1,Single-ply,SBD,M
Boys,99.79,3,Erick Fernandez,Laredo Nixon,97.7,231.33,151.95,226.8,610.08,Single-ply,SBD,M
Boys,99.79,4,Philip Barrientos,Bishop,90.36,226.8,136.08,224.53,587.4,Single-ply,SBD,M
Boys,99.79,5,Heriberto Canales,Hebbronville,99.61,238.14,122.47,226.8,587.4,Single-ply,SBD,M
Boys,109.77,6,Edgar Martinez #1,Laredo United South,99.97,210.92,124.74,215.46,551.11,Single-ply,SBD,M
Boys,99.79,7,John Vargas,Falfurrias,98.16,190.51,124.74,183.7,498.95,Single-ply,SBD,M
Boys,99.79,8,Dabi Reyna,Robstown,96.07,133.81,92.99,195.04,421.84,Single-ply,SBD,M
Boys,99.79,9,Frank Rossi,Hebbronville,90.72,165.56,79.38,167.83,412.77,Single-ply,SBD,M
Boys,99.79,DQ,Jose Coreas,Laredo Cigarroa,94.62,222.26,,,,Single-ply,SBD,M
Boys,99.79,DQ,Edward Silva,Robstown,97.43,158.76,,,,Single-ply,SBD,M
Boys,99.79,DQ,Mark Duron,Laredo Martin,98.52,244.94,145.15,,,Single-ply,SBD,M
Boys,99.79,NS,Lane Hazelip,Taft,,,,,,Single-ply,SBD,M
Boys,99.79,NS,Aaron Auguliar,Bishop,,,,,,Single-ply,SBD,M
Boys,99.79,NS,Emmanuel Sanchez,Taft,,,,,,Single-ply,SBD,M
Boys,99.79,DQ,Luis Guerra,Bishop,97.52,244.94,113.4,,,Single-ply,SBD,M
Boys,109.77,1,Victor Martinez,Laredo Martin,108.68,281.23,172.37,224.53,678.12,Single-ply,SBD,M
Boys,109.77,2,Ricky Martinez,Laredo United,105.6,269.89,136.08,181.44,587.4,Single-ply,SBD,M
Boys,109.77,3,Rolando Garza,Hebbronville,107.23,199.58,129.27,226.8,555.65,Single-ply,SBD,M
Boys,109.77,4,Paul Gonzalez,Laredo United South,102.6,192.78,136.08,201.85,530.7,Single-ply,SBD,M
Boys,109.77,5,Orlando Rodriguez,Laredo Cigarroa,101.7,170.1,99.79,204.12,474,Single-ply,SBD,M
Boys,109.77,6,Marcus Hinojosa,Bishop,107.05,190.51,106.59,170.1,467.2,Single-ply,SBD,M
Boys,109.77,7,Victor Nenque,Laredo Nixon,102.87,172.37,92.99,167.83,433.18,Single-ply,SBD,M
Boys,109.77,8,José Saldaña,Taft,109.23,167.83,106.59,156.49,430.91,Single-ply,SBD,M
Boys,109.77,9,Miguel Davila,Falfurrias,101.33,142.88,81.65,147.42,371.95,Single-ply,SBD,M
Boys,109.77,DQ,Frank Villarreal,Laredo Martin,109.23,263.08,,,,Single-ply,SBD,M
Boys,109.77,NS,Jacob Aguayo,Taft,,,,,,Single-ply,SBD,M
Boys,109.77,NS,Alex Garcia #6,San Diego,,,,,,Single-ply,SBD,M
Boys,124.74,1,Kevin Leal,Freer,112.13,224.53,124.74,190.51,539.77,Single-ply,SBD,M
Boys,124.74,2,Joe Castillo #2,Taft,111.31,188.24,129.27,195.04,512.56,Single-ply,SBD,M
Boys,124.74,3,Jacob Chapa,Bruni,121.2,213.19,108.86,176.9,498.95,Single-ply,SBD,M
Boys,124.74,4,Bobby Pulido,Falfurrias,122.11,142.88,140.61,188.24,471.74,Single-ply,SBD,M
Boys,124.74,5,Xavier Rangel,Laredo Nixon,117.93,181.44,99.79,188.24,469.47,Single-ply,SBD,M
Boys,124.74,6,Thomas Zaragosa,Bishop,122.29,192.78,104.33,172.37,469.47,Single-ply,SBD,M
Boys,124.74,7,Gilbert Hernandez,Laredo Cigarroa,119.57,172.37,106.59,176.9,455.86,Single-ply,SBD,M
Boys,124.74,8,Sebastian Betancourt,Hebbronville,111.04,190.51,108.86,133.81,433.18,Single-ply,SBD,M
Boys,124.74,DQ,Zac Gonzalez,Bishop,123.74,,,,,Single-ply,SBD,M
Boys,124.74,NS,Chris Lira,Bruni,,,,,,Single-ply,SBD,M
Boys,124.74,NS,Mario Alaniz,San Diego,,,,,,Single-ply,SBD,M
Boys,124.74+,1,Jose Flores #2,Laredo Cigarroa,144.79,317.51,149.69,235.87,703.07,Single-ply,SBD,M
Boys,124.74+,2,Hector Garza,Robstown,141.97,247.21,133.81,204.12,585.13,Single-ply,SBD,M
Boys,124.74+,3,Arturo Pena,Robstown,153.31,208.65,124.74,188.24,521.63,Single-ply,SBD,M
Boys,124.74+,4,David Salazar,Freer,126.1,176.9,113.4,181.44,471.74,Single-ply,SBD,M
Boys,124.74+,5,Gerardo Urdiales,Laredo Nixon,136.35,163.29,106.59,197.31,467.2,Single-ply,SBD,M
Boys,124.74+,6,John Paul Blair,Bruni,161.93,68.04,86.18,183.7,337.93,Single-ply,SBD,M
Boys,124.74+,7,Cam Menchaca,Falfurrias,146.96,90.72,63.5,113.4,267.62,Single-ply,SBD,M
Boys,124.74+,DQ,JR Sandoval,Laredo United,150.96,,,,,Single-ply,SBD,M
Boys,124.74+,DQ,Rudy Flores,Laredo United South,134.72,,,,,Single-ply,SBD,M
Boys,124.74+,DQ,Miguel Aparicio,Taft,125.46,,,,,Single-ply,SBD,M
Boys,124.74+,NS,Lane Mc Donald,Robstown,,,,,,Single-ply,SBD,M
Boys,124.74+,NS,Leo Espinoza,Laredo Martin,,,,,,Single-ply,SBD,M
