Place,Name,Sex,BirthDate,Age,Country,Equipment,Division,Lot,BodyweightKg,WeightClassKg,Squat1Kg,Squat2Kg,Squat3Kg,Best3SquatKg,Bench1Kg,Bench2Kg,Bench3Kg,Best3BenchKg,Deadlift1Kg,Deadlift2Kg,Deadlift3Kg,Best3DeadliftKg,TotalKg,Points,Event,Team
1,Archita Shirodkar,F,10/02/2005,19,IND,Sleeves,J19-23,8,62.1,64,105,115,120,120,60,65,-71,65,115,125,132,132,317,408.97,SBD,IND
2,Lalita Gadeanang,F,10/10/2004,20,NRU,Sleeves,J19-23,26,61,64,100,110,115,115,45,55,57,57,110,125,-130,125,297,387.55,SBD,NRU
1,Joelie Scott,F,9/05/2004,20,NZL,Sleeves,J19-23,4,70.85,72,130,135,140,140,82,87,-90,87,145,155,163,163,390,466.71,SBD,NZL
2,Emma Bowden,F,13/02/2001,23,NZL,Sleeves,J19-23,9,70.9,72,120,130,-135,130,80,85,-90,85,140,150,156,156,371,443.81,SBD,NZL
3,Samira Dabwido,F,22/01/2004,20,NRU,Sleeves,J19-23,6,72,72,135,-145,-145,135,55,-60,-65,55,-125,130,-138,130,320,379.84,SBD,NRU
1,Lilly-Lee Sprague,F,17/07/2004,20,AUS,Sleeves,J19-23,2,73.75,84,135,145,151,151,65,70,75,75,155,168,172,172,398,466.93,SBD,AUS
1,Brea DeJonge,F,25/09/1986,38,AUS,Sleeves,J19-23,3,116.8,100+,190,202,212,212,100,105,110,110,185,195,205,205,527,534.87,SBD,AUS
1,Emma Page,F,27/04/1984,40,AUS,Sleeves,M40-44,,56.1,58,100,110,115,115,60,65,-67,65,-110,110,-115,110,290,400.64,SBD,AUS
1,Cara Collett,F,25/03/1984,40,NZL,Sleeves,M40-44,5,68.8,72,105,-117,-117,105,-58,58,-63,58,115,120,125,125,288,350,SBD,NZL
1,Rachel Green,F,15/06/1980,44,NZL,Sleeves,M40-44,6,81.75,84,145,153,-160,153,75,-82,-82,75,160,170,178,178,406,455.55,SBD,NZL
1,Detsalana Olsson,F,4/09/1982,42,NRU,Sleeves,M40-44,2,90.8,100,125,132,140,140,68,75,80,80,120,135,-145,135,355,383.97,SBD,NRU
1,Kelly Jarvie,F,15/12/1982,41,AUS,Sleeves,M40-44,7,121.85,100+,155,160,166,166,78,83,-85,83,185,-191,-191,185,434,436.39,SBD,AUS
1,Sandra Alcorn,F,27/01/1972,52,AUS,Sleeves,M50-54,9,57.95,58,117,122,124,124,61,63,-65,63,156,165,-172,165,352,475.32,SBD,AUS
1,Kellie Perry,F,23/03/1973,51,NZL,Sleeves,M50-54,10,71.4,72,103,111,-116,111,60,64,-67,64,133,148,-151,148,323,385.01,SBD,NZL
1,Tasha Page,F,10/08/1971,53,AUS,Sleeves,M50-54,7,82.5,84,120,130,140,140,70,75,78,78,160,172,182,182,400,447.24,SBD,AUS
2,Diana Lopez,F,20/05/1971,53,MEX,Sleeves,M50-54,5,76.7,84,120,-130,-130,120,60,65,-70,65,125,135,-145,135,320,368.71,SBD,MEX
1,Kellie Watson,F,30/07/1971,53,AUS,Sleeves,M50-54,6,92.5,100,84,94,100,100,60,65,68,68,120,130,140,140,308,331.25,SBD,AUS
2,Lidia Paul,F,8/04/1972,52,SRI,Sleeves,M50-54,3,97.05,100,-80,-85,85,85,35,45,50,50,80,100,125,125,260,275.82,SBD,SRI
1,Pancy Cook,F,24/11/1973,50,NRU,Sleeves,M50-54,5,103,100+,105,115,125,125,58,64,-67,64,90,110,-130,110,299,312.35,SBD,NRU
1,Jan Roesch,F,4/11/1968,55,AUS,Sleeves,M55-59,4,82.5,84,120,128,-132,128,60,65,70,70,150,161,-165,161,359,401.4,SBD,AUS
1,Andrea Daley,F,27/04/1967,57,AUS,Sleeves,M55-59,4,89.8,100,121,131,140,140,60,65,-67,65,-132,142,150,150,355,385.32,SBD,AUS
1,Philippa MacManus,F,18/04/1962,62,NZL,Sleeves,M60-64,8,81.7,84,102,108,-110,108,58,-62,-63,58,135,-145,-145,135,301,337.82,SBD,NZL
2,Meredith Brocklebank,F,11/07/1963,61,NZL,Sleeves,M60-64,3,79.7,84,65,-70,-70,65,33,37,-40,37,70,80,85,85,187,211.97,SBD,NZL
1,Debbie Martin,F,16/07/1954,70,NZL,Sleeves,M70-74,2,72,72,100,106,111,111,63,-71,-71,63,115,123,-133,123,297,352.54,SBD,NZL
1,Shaojun Li,F,17/03/1991,33,AUS,Sleeves,Open,,52.4,53,110,115,-120,115,-49,49,51,51,135,140,-148,140,306,444.86,SBD,AUS
2,Justmine Menke,F,4/02/2008,16,NRU,Sleeves,Open,16,50.25,53,110,120,-125,120,45,50,-57,50,115,125,-130,125,295,443.38,SBD,NRU
1,Mawanting Liu,F,11/11/1999,24,CHN,Sleeves,Open,8,56.6,58,118,128,135,135,83,86,88,88,155,164,-167,164,387,531.27,SBD,CHN
2,Sandra Alcorn,F,27/01/1972,52,AUS,Sleeves,Open,9,57.95,58,117,122,124,124,61,63,-65,63,156,165,-172,165,352,475.32,SBD,AUS
3,Emma Page,F,27/04/1984,40,AUS,Sleeves,Open,,56.1,58,100,110,115,115,60,65,-67,65,-110,110,-115,110,290,400.64,SBD,AUS
1,Miaomiao Wang,F,25/08/1991,33,CHN,Sleeves,Open,5,63.25,64,135,-140,-140,135,106,-110,-110,106,145,155,-160,155,396,505.1,SBD,CHN
2,Archita Shirodkar,F,10/02/2005,19,IND,Sleeves,Open,8,62.1,64,105,115,120,120,60,65,-71,65,115,125,132,132,317,408.97,SBD,IND
3,Lalita Gadeanang,F,10/10/2004,20,NRU,Sleeves,Open,26,61,64,100,110,115,115,45,55,57,57,110,125,-130,125,297,387.55,SBD,NRU
1,Isabella Thomson,F,3/03/1989,35,AUS,Sleeves,Open,1,71,72,177,185,-188,185,90,-95,-95,90,190,-200,200,200,475,567.81,SBD,AUS
2,Ning Chien,F,10/11/1989,34,AUS,Sleeves,Open,8,70.8,72,149,155,157,157,94,98,100,100,169,180,184,184,441,527.93,SBD,AUS
3,Joelie Scott,F,9/05/2004,20,NZL,Sleeves,Open,4,70.85,72,130,135,140,140,82,87,-90,87,145,155,163,163,390,466.71,SBD,NZL
4,Emma Bowden,F,13/02/2001,23,NZL,Sleeves,Open,9,70.9,72,120,130,-135,130,80,85,-90,85,140,150,156,156,371,443.81,SBD,NZL
5,Leila Warnes,F,24/04/1997,27,AUS,Sleeves,Open,7,70.65,72,115,125,135,135,70,75,-77,75,145,-155,157,157,367,439.82,SBD,AUS
6,Wardia Kaadan,F,18/08/1997,27,AUS,Sleeves,Open,3,65.6,72,115,122,-126,122,55,61,-64,61,135,141,147,147,330,411.86,SBD,NZL
7,Kellie Perry,F,23/03/1973,51,NZL,Sleeves,Open,10,71.4,72,103,111,-116,111,60,64,-67,64,133,148,-151,148,323,385.01,SBD,NZL
8,Samira Dabwido,F,22/01/2004,20,NRU,Sleeves,Open,6,72,72,135,-145,-145,135,55,-60,-65,55,-125,130,-138,130,320,379.84,SBD,NRU
9,Debbie Martin,F,16/07/1954,70,NZL,Sleeves,Open,2,72,72,100,106,111,111,63,-71,-71,63,115,123,-133,123,297,352.54,SBD,NZL
10,Cara Collett,F,25/03/1984,40,NZL,Sleeves,Open,5,68.8,72,105,-117,-117,105,-58,58,-63,58,115,120,125,125,288,350,SBD,NZL
1,Rachel Green,F,15/06/1980,44,NZL,Sleeves,Open,6,81.75,84,145,153,-160,153,75,-82,-82,75,160,170,178,178,406,455.55,SBD,NZL
2,Tasha Page,F,10/08/1971,53,AUS,Sleeves,Open,7,82.5,84,120,130,140,140,70,75,78,78,160,172,182,182,400,447.24,SBD,AUS
3,Lilly-Lee Sprague,F,17/07/2004,20,AUS,Sleeves,Open,2,73.75,84,135,145,151,151,65,70,75,75,155,168,172,172,398,466.93,SBD,AUS
4,Chinmayee Das,F,13/05/1988,36,IND,Sleeves,Open,1,77.55,84,140,-150,-150,140,50,60,-65,60,140,160,170,170,370,424.27,SBD,IND
5,Jan Roesch,F,4/11/1968,55,AUS,Sleeves,Open,4,82.5,84,120,128,-132,128,60,65,70,70,150,161,-165,161,359,401.4,SBD,AUS
6,Diana Lopez,F,20/05/1971,53,MEX,Sleeves,Open,5,76.7,84,120,-130,-130,120,60,65,-70,65,125,135,-145,135,320,368.71,SBD,MEX
7,Philippa MacManus,F,18/04/1962,62,NZL,Sleeves,Open,8,81.7,84,102,108,-110,108,58,-62,-63,58,135,-145,-145,135,301,337.82,SBD,NZL
8,Meredith Brocklebank,F,11/07/1963,61,NZL,Sleeves,Open,3,79.7,84,65,-70,-70,65,33,37,-40,37,70,80,85,85,187,211.97,SBD,NZL
1,Andrea Daley,F,27/04/1967,57,AUS,Sleeves,Open,4,89.8,100,121,131,140,140,60,65,-67,65,-132,142,150,150,355,385.32,SBD,AUS
2,Detsalana Olsson,F,4/09/1982,42,NRU,Sleeves,Open,2,90.8,100,125,132,140,140,68,75,80,80,120,135,-145,135,355,383.97,SBD,NRU
3,Kellie Watson,F,30/07/1971,53,AUS,Sleeves,Open,6,92.5,100,84,94,100,100,60,65,68,68,120,130,140,140,308,331.25,SBD,AUS
4,Lidia Paul,F,8/04/1972,52,SRI,Sleeves,Open,3,97.05,100,-80,-85,85,85,35,45,50,50,80,100,125,125,260,275.82,SBD,SRI
1,Brea DeJonge,F,25/09/1986,38,AUS,Sleeves,Open,3,116.8,100+,190,202,212,212,100,105,110,110,185,195,205,205,527,534.87,SBD,AUS
2,Riley Bell-Kainiu,F,19/11/2006,17,NZL,Sleeves,Open,1,114.5,100+,170,180,-188,180,80,88,95,95,170,185,-201,185,460,468.93,SBD,NZL
3,Kelly Jarvie,F,15/12/1982,41,AUS,Sleeves,Open,7,121.85,100+,155,160,166,166,78,83,-85,83,185,-191,-191,185,434,436.39,SBD,AUS
4,Pancy Cook,F,24/11/1973,50,NRU,Sleeves,Open,5,103,100+,105,115,125,125,58,64,-67,64,90,110,-130,110,299,312.35,SBD,NRU
1,Justmine Menke,F,4/02/2008,16,NRU,Sleeves,Y14-18,16,50.25,53,110,120,-125,120,45,50,-57,50,115,125,-130,125,295,443.38,SBD,NRU
1,Riley Bell-Kainiu,F,19/11/2006,17,NZL,Sleeves,Y14-18,1,114.5,100+,170,180,-188,180,80,88,95,95,170,185,-201,185,460,468.93,SBD,NZL
1,Archita Shorodkar,F,10/02/2005,19,IND,Sleeves,J19-23,7,62.75,64,,,,,-60,65,70,70,,,,,70,89.72,B,IND
1,Lidia Paul,F,8/04/1972,52,SRI,Sleeves,Open,11,97.15,100,,,,,-35,40,50,50,,,,,50,53.03,B,SRI
1,Hani Watson,F,20/09/1982,42,AUS,Sleeves,M40-44,15,114.75,100+,,,,,120,127,132,132,,,,,132,134.5,B,AUS
1,Hani Watson,F,20/09/1982,42,AUS,Multi-ply,M40-44,16,114.75,100+,,,,,120,126,131,131,,,,,131,133.48,B,AUS
1,Hani Watson,F,20/09/1982,42,AUS,Multi-ply,Open,16,114.75,100+,,,,,120,126,131,131,,,,,131,133.48,B,AUS
1,Hani Watson,F,20/09/1982,42,AUS,Sleeves,Open,15,114.75,100+,,,,,120,127,132,132,,,,,132,134.5,B,AUS
1,Archita Shorodkar,F,10/02/2005,19,IND,Sleeves,Open,7,62.75,64,,,,,-60,65,70,70,,,,,70,89.72,B,IND
1,Lidia Paul,F,8/04/1972,52,SRI,Sleeves,M50-54,11,97.15,100,,,,,-35,40,50,50,,,,,50,53.03,B,SRI
1,Archita Shorodkar,F,10/02/2005,19,IND,Multi-ply,J19-23,20,62.75,64,,,,,75,80,-83,80,,,,,80,102.54,B,IND
1,Archita Shorodkar,F,10/02/2005,19,IND,Multi-ply,Open,20,62.75,64,,,,,75,80,-83,80,,,,,80,102.54,B,IND
1,Archita Shorodkar,F,10/02/2005,19,IND,Sleeves,J19-23,7,62.75,64,,,,,,,,,125,,,125,125,160.22,D,IND
1,Archita Shorodkar,F,10/02/2005,19,IND,Sleeves,Open,7,62.75,64,,,,,,,,,125,,,125,125,160.22,D,IND
1,Archita Shorodkar,F,10/02/2005,19,IND,Multi-ply,J19-23,21,62.75,64,,,,,,,,,135,140,145,145,145,185.86,D,IND
1,Archita Shorodkar,F,10/02/2005,19,IND,Multi-ply,Open,21,62.75,64,,,,,,,,,135,140,145,145,145,185.86,D,IND
1,Jiarui Cao,M,24/10/2001,22,CHN,Sleeves,J19-23,16,66.75,69,200,210,216,216,152,158,160,160,220,-235,-235,220,596,549.59,SBD,CHN
2,Yameow Kepae,M,22/03/2004,20,NRU,Sleeves,J19-23,17,66.95,69,-215,215,-227,215,115,120,-125,120,195,-200,200,200,535,492.3,SBD,NRU
1,KD Dabwido,M,1/08/2004,20,NRU,Sleeves,J19-23,6,74,77,-210,-210,210,210,130,136,-140,136,205,215,220,220,566,486.73,SBD,NRU
1,Wise Temaki,M,27/05/2002,22,NRU,Sleeves,J19-23,14,83.03,85,220,230,-240,230,150,155,157,157,240,250,-255,250,637,510.56,SBD,NRU
2,Khalid Adbulsamad,M,15/06/2003,21,AUS,Sleeves,J19-23,21,81.95,85,212,-222,222,222,121,125,128,128,220,230,236,236,586,473.23,SBD,AUS
3,Daniel Stergiou,M,29/07/2003,21,AUS,Sleeves,J19-23,17,81,85,215,-225,-225,215,-120,-124,124,124,230,245,-252,245,584,474.86,SBD,AUS
4,Callum Maule,M,20/04/2005,19,AUS,Sleeves,J19-23,18,84.05,85,180,195,207,207,110,125,-135,125,200,220,232,232,564,448.9,SBD,AUS
1,Edwin Gao,M,17/11/2002,21,AUS,Sleeves,J19-23,16,92.75,94,205,215,225,225,133,139,-141,139,260,-272,-272,260,624,471.38,SBD,AUS
2,Dylan Wild,M,15/11/2002,21,GBR,Sleeves,J19-23,19,91.55,94,-162,175,185,185,115,-120,-120,115,225,240,-250,240,540,410.58,SBD,GBR
3,Georgios Tsakirakis,M,26/12/2003,20,AUS,Sleeves,J19-23,18,92.85,94,165,-180,-180,165,-125,-125,125,125,175,185,-195,185,475,358.63,SBD,AUS
1,Rulheng Wang,M,12/03/2001,23,CHN,Sleeves,J19-23,18,94.2,105,245,-255,255,255,175,180,-187,180,240,250,255,255,690,517.3,SBD,CHN
2,Zayne Jensen,M,10/11/2002,21,AUS,Sleeves,J19-23,20,102.5,105,215,230,245,245,125,135,145,145,240,260,-275,260,650,469.09,SBD,AUS
3,Rhys Bubb,M,31/10/2001,22,AUS,Sleeves,J19-23,14,104.2,105,222,232,236,236,136,-140,-140,136,260,270,275,275,647,463.77,SBD,AUS
4,Author Kepae,M,25/01/2001,23,NRU,Sleeves,J19-23,12,97.6,105,245,255,-265,255,-135,135,-140,135,-240,-240,240,240,630,464.52,SBD,NRU
1,Seth Snijder,M,2/11/2005,18,NZL,Sleeves,J19-23,1,147.05,120+,270,285,300,300,144,152,160,160,310,320,330,330,790,511.49,SBD,NZL
1,Chris Simmonds,M,18/03/1983,41,AUS,Sleeves,M40-44,4,73.4,77,140,150,160,160,100,110,115,115,160,180,191,191,466,402.86,SBD,AUS
1,Brian Chen,M,26/10/1980,43,AUS,Sleeves,M40-44,15,84.45,85,172,180,187,187,115,120,-122,120,232,240,246,246,553,438.97,SBD,AUS
1,Tokan Temaki,M,3/07/1980,44,NRU,Sleeves,M40-44,15,87.35,94,215,220,-230,220,135,137,-140,137,205,-210,210,210,567,441.8,SBD,NRU
1,Todd Braggins,M,1/09/1984,40,AUS,Sleeves,M40-44,19,103.95,105,230,238,-243,238,150,157,162,162,230,241,-248,241,641,459.92,SBD,AUS
1,Hamza Imadojemun,M,28/04/1984,40,NGR,Sleeves,M40-44,14,115.1,120,190,205,215,215,-155,-162,162,162,220,237,250,250,627,433.19,SBD,NGR
1,Robin Mihrshahi,M,9/06/1979,45,AUS,Sleeves,M45-49,14,68.55,69,130,-140,140,140,110,117,-122,117,170,188,,188,445,402.8,SBD,AUS
1,Matthew Bolonis,M,30/09/1975,49,AUS,Sleeves,M45-49,20,83.7,85,183,-192,-192,183,105,112,117,117,230,243,-250,243,543,433.21,SBD,AUS
1,Paul Speering,M,2/09/1979,45,AUS,Sleeves,M45-49,9,99.45,105,225,-235,235,235,80,,,80,255,-264,-264,255,570,416.75,SBD,AUS
1,James Payne,M,10/02/1975,49,NZL,Sleeves,M45-49,15,114.75,120,220,239,-245,239,137,144,150,150,265,285,-300,285,674,466.13,SBD,NZL
2,Jon Chadwick,M,16/06/1977,47,AUS,Sleeves,M45-49,19,116.2,120,217,232,-242,232,150,158,-165,158,192,205,215,215,605,416.67,SBD,AUS
1,Jason Wharton,M,24/11/1970,53,NRU,Sleeves,M50-54,16,114.3,120,205,217,,217,140,145,-148,145,220,240,-260,240,602,416.89,SBD,NRU
1,Michael Gardiner,M,4/04/1968,56,AUS,Sleeves,M55-59,1,61.9,62,130,145,160,160,-100,105,-115,105,-190,-200,210,210,475,462.58,SBD,AUS
1,Peter Roberts,M,20/11/1966,57,AUS,Sleeves,M55-59,9,75.4,77,125,135,145,145,90,98,106,106,160,175,190,190,441,374.7,SBD,AUS
1,Simon Jeary,M,24/10/1969,54,AUS,Sleeves,M55-59,19,83.45,85,-182,193,202,202,102,110,114,114,210,225,-237,225,541,432.35,SBD,AUS
2,Phil Menzie,M,10/02/1968,56,AUS,Sleeves,M55-59,13,78.7,85,150,165,170,170,105,-110,,105,170,,,170,445,368.14,SBD,AUS
1,Greg Roberts,M,2/09/1967,57,AUS,Sleeves,M55-59,17,91.4,94,-145,145,155,155,80,83,-85,83,173,183,190,190,428,325.7,SBD,AUS
1,Steve Lousich,M,4/06/1965,59,NZL,Sleeves,M55-59,13,119.05,120,235,250,-255,250,165,170,-177,170,200,215,225,225,645,440.79,SBD,NZL
2,Ruwan Paul,M,23/04/1969,55,SRI,Sleeves,M55-59,12,115.5,120,-175,185,195,195,-95,95,105,105,175,185,,185,485,334.69,SBD,SRI
1,Mark Ashcroft,M,24/04/1967,57,AUS,Sleeves,M55-59,9,133.95,120+,-150,150,160,160,100,105,-110,105,205,225,-245,225,490,324.12,SBD,AUS
1,Craig James,M,2/03/1962,62,AUS,Sleeves,M60-64,19,67.6,69,75,95,105,105,70,-77,-77,70,110,135,147,147,322,294.3,SBD,AUS
DQ,Robert Frost,M,20/01/1949,75,AUS,Sleeves,M75-79,25,64.4,69,-55,55,60,60,-35,,,,115,120,125,125,,,SBD,AUS
1,Guanheng Wu,M,13/07/1998,26,AUS,Sleeves,Open,5,60.9,62,185,-193,193,193,116,-121,-121,116,240,250,-261,250,559,551.03,SBD,CHN
2,Blanco Olsson Wharton,M,23/05/1991,33,NRU,Sleeves,Open,4,60.2,62,170,-180,180,180,130,135,-140,135,195,-205,-205,195,510,507.11,SBD,NRU
3,Michael Gardiner,M,4/04/1968,56,AUS,Sleeves,Open,1,61.9,62,130,145,160,160,-100,105,-115,105,-190,-200,210,210,475,462.58,SBD,AUS
4,Nadeem Mihrshahi,M,9/01/2009,15,AUS,Sleeves,Open,10,61.35,62,130,140,150,150,95,-103,103,103,130,150,160,160,413,404.88,SBD,AUS
1,Chaoke HU,M,19/09/1992,32,CHN,Sleeves,Open,12,66.9,69,220,228,-237,228,130,142,145,145,250,265,-279,265,638,587.39,SBD,CHN
2,Jiarui Cao,M,24/10/2001,22,CHN,Sleeves,Open,16,66.75,69,200,210,216,216,152,158,160,160,220,-235,-235,220,596,549.59,SBD,CHN
3,Yameow Kepae,M,22/03/2004,20,NRU,Sleeves,Open,17,66.95,69,-215,215,-227,215,115,120,-125,120,195,-200,200,200,535,492.3,SBD,NRU
4,Owen Malarkey,M,10/02/2006,18,AUS,Sleeves,Open,20,68.6,69,170,175,192,192,115,-120,-120,115,210,222,-225,222,529,478.59,SBD,AUS
5,Sarabjit Singh,M,10/04/1993,31,IND,Sleeves,Open,13,68.65,69,150,165,178,178,-90,90,100,100,170,190,200,200,478,432.23,SBD,IND
6,Aggam Ahlawadi,M,19/05/1996,28,IND,Sleeves,Open,,68.95,69,147,155,162,162,103,108,-115,108,182,193,-200,193,463,417.41,SBD,IND
7,Robin Mihrshahi,M,9/06/1979,45,AUS,Sleeves,Open,14,68.55,69,130,-140,140,140,110,117,-122,117,170,188,,188,445,402.8,SBD,AUS
8,Craig James,M,2/03/1962,62,AUS,Sleeves,Open,19,67.6,69,75,95,105,105,70,-77,-77,70,110,135,147,147,322,294.3,SBD,AUS
DQ,Robert Frost,M,20/01/1949,75,AUS,Sleeves,Open,25,64.4,69,-55,55,60,60,-35,,,,115,120,125,125,,,SBD,AUS
DQ,Mahassin Daoe,M,21/03/1991,33,NRU,Sleeves,Open,15,68.5,69,-212,-212,-212,,,,,,,,,,,,SBD,NRU
1,Dyke Daoe,M,31/08/1992,32,NRU,Sleeves,Open,1,76.55,77,230,-242,250,250,150,158,-162,158,260,275,-290,275,683,574.8,SBD,NRU
2,Aatish Kumar Bej,M,8/12/1996,27,IND,Sleeves,Open,3,76.9,77,210,220,230,230,110,120,130,130,200,225,250,250,610,511.9,SBD,IND
3,KD Dabwido,M,1/08/2004,20,NRU,Sleeves,Open,6,74,77,-210,-210,210,210,130,136,-140,136,205,215,220,220,566,486.73,SBD,NRU
4,Chris Simmonds,M,18/03/1983,41,AUS,Sleeves,Open,4,73.4,77,140,150,160,160,100,110,115,115,160,180,191,191,466,402.86,SBD,AUS
5,Peter Roberts,M,20/11/1966,57,AUS,Sleeves,Open,9,75.4,77,125,135,145,145,90,98,106,106,160,175,190,190,441,374.7,SBD,AUS
6,Narayan Kunwar,M,29/07/2000,24,NEP,Sleeves,Open,2,75.5,77,147,155,-162,155,-85,87,-92,87,185,,,185,427,362.5,SBD,NEP
7,Elijah Aldred,M,5/03/2010,14,AUS,Sleeves,Open,7,74.9,77,-135,142,-150,142,107,-115,115,115,145,-150,150,150,407,347.28,SBD,AUS
1,Wise Temaki,M,27/05/2002,22,NRU,Sleeves,Open,14,83.03,85,220,230,-240,230,150,155,157,157,240,250,-255,250,637,510.56,SBD,NRU
2,Ashton Kareko,M,3/05/2007,17,AUS,Sleeves,Open,16,83.5,85,230,240,-243,240,120,125,130,130,250,-265,-268,250,620,495.31,SBD,NZL
3,Khalid Adbulsamad,M,15/06/2003,21,AUS,Sleeves,Open,21,81.95,85,212,-222,222,222,121,125,128,128,220,230,236,236,586,473.23,SBD,AUS
4,Daniel Stergiou,M,29/07/2003,21,AUS,Sleeves,Open,17,81,85,215,-225,-225,215,-120,-124,124,124,230,245,-252,245,584,474.86,SBD,AUS
5,Callum Maule,M,20/04/2005,19,AUS,Sleeves,Open,18,84.05,85,180,195,207,207,110,125,-135,125,200,220,232,232,564,448.9,SBD,AUS
6,Brian Chen,M,26/10/1980,43,AUS,Sleeves,Open,15,84.45,85,172,180,187,187,115,120,-122,120,232,240,246,246,553,438.97,SBD,AUS
7,Matthew Bolonis,M,30/09/1975,49,AUS,Sleeves,Open,20,83.7,85,183,-192,-192,183,105,112,117,117,230,243,-250,243,543,433.21,SBD,AUS
8,Simon Jeary,M,24/10/1969,54,AUS,Sleeves,Open,19,83.45,85,-182,193,202,202,102,110,114,114,210,225,-237,225,541,432.35,SBD,AUS
9,Phil Menzie,M,10/02/1968,56,AUS,Sleeves,Open,13,78.7,85,150,165,170,170,105,-110,,105,170,,,170,445,368.14,SBD,AUS
1,QI Liu,M,16/06/1991,33,CHN,Sleeves,Open,14,90.15,94,260,273,278,278,147,151,-155,151,307,316,326,326,755,578.58,SBD,CHN
2,Matthew Middleton,M,21/08/1988,36,AUS,Sleeves,Open,13,92.9,94,-270,-280,280,280,160,170,175,175,270,290,300,300,755,569.88,SBD,AUS
3,Dave Mwardaga,M,9/11/1988,35,NRU,Sleeves,Open,,92.15,94,270,280,290,290,160,170,-177,170,-270,280,-296,280,740,560.81,SBD,NRU
4,Angin Gadabu,M,9/06/1995,29,NRU,Sleeves,Open,22,94,94,255,270,280,280,175,190,-201,190,255,-265,-276,255,725,544.1,SBD,NRU
5,Ben Hogan,M,3/11/1992,31,AUS,Sleeves,Open,20,91.8,94,243,256,-260,256,165,-172,174,174,260,268,-270,268,698,529.99,SBD,AUS
6,Edwin Gao,M,17/11/2002,21,AUS,Sleeves,Open,16,92.75,94,205,215,225,225,133,139,-141,139,260,-272,-272,260,624,471.38,SBD,AUS
7,Javara Clark,M,4/10/2006,18,NZL,Sleeves,Open,11,88.85,94,198,208,217,217,-130,135,140,140,202,218,228,228,585,451.71,SBD,NZL
8,Tokan Temaki,M,3/07/1980,44,NRU,Sleeves,Open,15,87.35,94,215,220,-230,220,135,137,-140,137,205,-210,210,210,567,441.8,SBD,NRU
9,Luke Macarone,M,19/09/1994,30,AUS,Sleeves,Open,21,90.55,94,170,185,200,200,130,140,150,150,190,205,215,215,565,432,SBD,AUS
10,Dylan Wild,M,15/11/2002,21,GBR,Sleeves,Open,19,91.55,94,-162,175,185,185,115,-120,-120,115,225,240,-250,240,540,410.58,SBD,GBR
11,Georgios Tsakirakis,M,26/12/2003,20,AUS,Sleeves,Open,18,92.85,94,165,-180,-180,165,-125,-125,125,125,175,185,-195,185,475,358.63,SBD,AUS
12,Greg Roberts,M,2/09/1967,57,AUS,Sleeves,Open,17,91.4,94,-145,145,155,155,80,83,-85,83,173,183,-190,183,423,321.89,SBD,AUS
1,Xi Tan,M,26/08/1996,28,CHN,Sleeves,Open,16,103.7,105,275,295,302,302,160,170,173,173,295,325,-331,325,800,574.57,SBD,CHN
2,Fern Cook,M,9/06/1964,60,NRU,Sleeves,Open,11,104.9,105,280,300,-310,300,160,170,180,180,250,270,285,285,765,546.87,SBD,NRU
3,Rulheng Wang,M,12/03/2001,23,CHN,Sleeves,Open,18,94.2,105,245,-255,255,255,175,180,-187,180,240,250,255,255,690,517.3,SBD,CHN
4,Mitchell Moszko,M,12/02/1995,29,AUS,Sleeves,Open,15,104.4,105,230,245,255,255,155,-170,-170,155,-250,-250,250,250,660,472.72,SBD,AUS
5,Zayne Jensen,M,10/11/2002,21,AUS,Sleeves,Open,20,102.5,105,215,230,245,245,125,135,145,145,240,260,-275,260,650,469.09,SBD,AUS
6,Rhys Bubb,M,31/10/2001,22,AUS,Sleeves,Open,14,104.2,105,222,232,236,236,136,-140,-140,136,260,270,275,275,647,463.77,SBD,AUS
7,Todd Braggins,M,1/09/1984,40,AUS,Sleeves,Open,19,103.95,105,230,238,-243,238,150,157,162,162,230,241,-248,241,641,459.92,SBD,AUS
8,Jiannan Li,M,24/09/1990,34,CHN,Sleeves,Open,10,101.8,105,200,220,240,240,125,-145,150,150,230,245,-260,245,635,459.6,SBD,CHN
9,Author Kepae,M,25/01/2001,23,NRU,Sleeves,Open,12,97.6,105,245,255,-265,255,-135,135,-140,135,-240,-240,240,240,630,464.52,SBD,NRU
10,Justin Dolores,M,30/06/2000,24,NZL,Sleeves,Open,12,103.75,105,215,225,-230,225,160,165,-170,165,230,240,-245,240,630,452.38,SBD,NZL
11,Jonathan Seymour,M,9/06/1964,60,AUS,Sleeves,Open,13,99.85,105,215,230,-233,230,130,137,-145,137,220,-227,,220,587,428.42,SBD,AUS
12,Paul Speering,M,2/09/1979,45,AUS,Sleeves,Open,9,99.45,105,225,-235,235,235,80,,,80,255,-264,-264,255,570,416.75,SBD,AUS
13,Monu Gir Goswami,M,20/03/1990,34,IND,Sleeves,Open,17,94.25,105,-190,190,205,205,125,132,,132,210,222,230,230,567,424.98,SBD,SBD
1,Joash Teabuge,M,12/08/1985,39,NRU,Sleeves,Open,18,120,120,305,-320,,305,180,190,200,200,236,250,265,265,770,524.93,SBD,NRU
2,Dave Napper,M,11/05/1987,37,AUS,Sleeves,Open,17,118.55,120,225,245,265,265,155,165,175,175,250,280,301,301,741,507.07,SBD,AUS
3,Tevita Pongi,M,8/04/1993,31,AUS,Sleeves,Open,11,118.45,120,255,265,272,272,181,187,191,191,245,255,257,257,720,492.83,SBD,AUS
4,James Payne,M,10/02/1975,49,NZL,Sleeves,Open,15,114.75,120,220,239,-245,239,137,144,150,150,265,285,-300,285,674,466.13,SBD,NZL
5,Steve Lousich,M,4/06/1965,59,NZL,Sleeves,Open,13,119.05,120,235,250,-255,250,165,170,-177,170,200,215,225,225,645,440.79,SBD,NZL
6,Hamza Imadojemun,M,28/04/1984,40,NGR,Sleeves,Open,14,115.1,120,190,205,215,215,-155,-162,162,162,220,237,250,250,627,433.19,SBD,NGR
7,Jon Chadwick,M,16/06/1977,47,AUS,Sleeves,Open,19,116.2,120,217,232,-242,232,150,158,-165,158,192,205,215,215,605,416.67,SBD,AUS
8,Jason Wharton,M,24/11/1970,53,NRU,Sleeves,Open,16,114.3,120,205,217,,217,140,145,-148,145,220,240,-260,240,602,416.89,SBD,NRU
9,Ruwan Paul,M,23/04/1969,55,SRI,Sleeves,Open,12,115.5,120,-175,185,195,195,-95,95,105,105,175,185,,185,485,334.69,SBD,SRI
1,Aaron Terry,M,5/08/1989,35,USA,Sleeves,Open,4,130.4,120+,315,335,350,350,195,208,213,213,325,340,350,350,913,608.02,SBD,USA
2,AI Carlito Temaki,M,30/05/1988,36,NRU,Sleeves,Open,6,150.65,120+,360,380,-400,380,200,210,-220,210,230,240,-245,240,830,534.62,SBD,NRU
3,Ke Fang,M,27/08/2000,24,CHN,Sleeves,Open,8,123,120+,280,305,-311,305,-207,-207,212,212,265,290,303,303,820,554.91,SBD,CHN
4,Seth Snijder,M,2/11/2005,18,NZL,Sleeves,Open,1,147.05,120+,270,285,300,300,144,152,160,160,310,320,330,330,790,511.49,SBD,NZL
5,Mitchell Therle,M,11/12/2001,22,AUS,Sleeves,Open,2,174.75,120+,200,215,230,230,110,120,130,130,220,240,260,260,620,387.4,SBD,AUS
6,Luis Escobar,M,21/12/1988,35,AUS,Sleeves,Open,5,132.2,120+,220,230,240,240,135,143,150,150,200,215,-230,215,605,401.5,SBD,AUS
7,Mark Ashcroft,M,24/04/1967,57,AUS,Sleeves,Open,9,133.95,120+,-150,150,160,160,100,105,-110,105,205,225,-245,225,490,324.12,SBD,AUS
1,Nadeem Mihrshahi,M,9/01/2009,15,AUS,Sleeves,Y14-18,10,61.35,62,130,140,150,150,95,-103,103,103,130,150,160,160,413,404.88,SBD,AUS
1,Owen Malarkey,M,10/02/2006,18,AUS,Sleeves,Y14-18,20,68.6,69,170,175,192,192,115,-120,-120,115,210,222,-225,222,529,478.59,SBD,AUS
1,Elijah Aldred,M,5/03/2010,14,AUS,Sleeves,Y14-18,7,74.9,77,-135,142,-150,142,107,-115,115,115,145,-150,150,150,407,347.28,SBD,AUS
1,Ashton Kareko,M,3/05/2007,17,AUS,Sleeves,Y14-18,16,83.5,85,230,240,-243,240,120,125,130,130,250,-265,-268,250,620,495.31,SBD,NZL
1,Javara Clark,M,4/10/2006,18,NZL,Sleeves,Y14-18,11,88.85,94,198,208,217,217,-130,135,140,140,202,218,228,228,585,451.71,SBD,NZL
1,Patrick Grundler,M,28/12/2003,20,NRU,Sleeves,J19-23,21,69,69,,,,,120,127,-135,127,,,,,127,114.44,B,NRU
1,Zeya Cai,M,21/02/1992,32,CHN,Sleeves,J19-23,8,79.5,85,,,,,136,152,-158,152,,,,,152,124.98,B,CHN
DQ,Ian Middlemiss,M,2/10/1980,44,AUS,Sleeves,M40-44,11,103.9,105,,,,,-200,-204,-206,,,,,,,,B,AUS
1,Ruwan Paul,M,23/04/1969,55,SRI,Sleeves,M55-59,12,115.35,120,,,,,90,100,-110,100,,,,,100,69.04,B,SRI
1,Andrew Swindells,M,16/03/1964,60,AUS,Sleeves,M60-64,10,75.2,77,,,,,-100,100,-105,100,,,,,100,85.11,B,AUS
1,Brian Froggatt,M,7/02/1958,66,NZL,Sleeves,M65-69,,67.2,69,,,,,113,-118,-118,113,,,,,113,103.71,B,NZL
1,Kai Choong Yuen,M,25/03/1944,80,AUS,Sleeves,M80+,,61.2,62,,,,,-85,85,-93,85,,,,,85,83.48,B,AUS
1,John Dellow,M,23/02/1941,83,AUS,Sleeves,M80+,10,93.1,94,,,,,100,-105,105,105,,,,,105,79.17,B,AUS
1,Kai Yuen,M,25/03/1944,80,AUS,Sleeves,Open,,61.2,62,,,,,-85,85,-93,85,,,,,85,83.48,B,AUS
1,Usukhbayar Od-Erdene,M,9/06/1996,28,AUS,Sleeves,Open,24,68.8,69,,,,,155,160,168,168,,,,,168,151.69,B,AUS
2,Rykers Daoe,M,10/11/1988,35,NRU,Sleeves,Open,23,68,69,,,,,140,-145,-145,140,,,,,140,127.43,B,NRU
3,Patrick Grundler,M,28/12/2003,20,NRU,Sleeves,Open,21,69,69,,,,,120,127,-135,127,,,,,127,114.44,B,NRU
4,Brian Froggatt,M,11/05/1905,,NZL,Sleeves,Open,,67.2,69,,,,,113,-118,-118,113,,,,,113,103.71,B,NZL
1,Andrew Swindells,M,16/03/1964,60,AUS,Sleeves,Open,10,75.2,77,,,,,-100,100,-105,100,,,,,100,85.11,B,AUS
1,Zeya Cai,M,21/02/1992,32,CHN,Sleeves,Open,8,79.5,85,,,,,136,152,-158,152,,,,,152,124.98,B,CHN
1,Edcoan Demaunga,M,5/01/1998,26,NRU,Sleeves,Open,13,93.55,94,,,,,175,182,-195,182,,,,,182,136.91,B,NRU
2,Monu Gir Coswami,M,20/03/1990,34,,Sleeves,Open,30,93.1,94,,,,,-125,130,135,135,,,,,135,101.79,B,IND
3,John Dellow,M,23/02/1941,83,AUS,Sleeves,Open,10,93.1,94,,,,,100,-105,105,105,,,,,105,79.17,B,AUS
1,Monu Gir Goswami,M,20/03/1990,34,IND,Sleeves,Open,17,94.25,105,,,,,125,132,,132,,,,,132,98.94,B,SBD
DQ,Ian Middlemiss,M,2/10/1980,44,AUS,Sleeves,Open,11,103.9,105,,,,,-200,-204,-206,,,,,,,,B,AUS
1,Ruwan Paul,M,23/04/1969,55,SRI,Sleeves,Open,12,115.35,120,,,,,90,100,-110,100,,,,,100,69.04,B,SRI
1,Liam Tekani-Walters,M,6/04/1995,29,AUS,Sleeves,Open,14,167.05,120+,,,,,235,245,-250,245,,,,,245,154.47,B,AUS
2,Hex Kingi,M,6/03/1977,47,NZL,Sleeves,Open,10,176.25,120+,,,,,220,230,-235,230,,,,,230,143.47,B,NZL
1,Dylan Braan,M,2/12/1998,25,AUS,Multi-ply,Open,12,171.95,120+,,,,,151,158,163,163,,,,,163,102.18,B,AUS
1,John Rivers,M,4/10/1954,70,AUS,Multi-ply,M70-74,10,103.7,105,,,,,120,125,-130,125,,,,,125,89.78,B,AUS
1,John Rivers,M,4/10/1954,70,AUS,Multi-ply,Open,10,103.7,105,,,,,120,125,-130,125,,,,,125,89.78,B,AUS
1,Sarabjit Singh,M,10/04/1993,31,IND,Sleeves,Open,,58.65,62,,,,,,,,,170,190,,190,190,192.7,D,IND
1,Aggam Ahlawadi,M,19/05/1996,28,IND,Sleeves,Open,,68.95,69,,,,,,,,,180,195,,195,195,175.8,D,IND
1,Narayan Kunwar,M,29/07/2000,24,NEP,Sleeves,Open,,75.5,77,,,,,,,,,-195,195,-203,195,195,165.54,D,NEP
