Division,WeightClassKg,Place,Name,Team,BodyweightKg,Best3SquatKg,Best3BenchKg,Best3DeadliftKg,TotalKg,Equipment,Event,Sex
Boys,51.71,1,Gabriel Hancock,Bovina,50.8,142.88,92.99,149.69,385.55,Single-ply,SBD,M
Boys,51.71,2,Dang Nguyen,Amarillo Highland Park,49.9,111.13,52.16,129.27,292.57,Single-ply,SBD,M
Boys,51.71,3,Anthony Washington,Plainview,50.26,108.86,56.7,124.74,290.3,Single-ply,SBD,M
Boys,51.71,4,Derek Adame,Plainview,48.99,99.79,52.16,104.33,256.28,Single-ply,SBD,M
Boys,51.71,5,Brian Tran,Amarillo Highland Park,47.17,90.72,52.16,108.86,251.74,Single-ply,SBD,M
Boys,51.71,6,Efren Miranda,Levelland,49.99,79.38,43.09,115.67,238.14,Single-ply,SBD,M
Boys,51.71,7,Jonathan Hernandez,Lamesa,51.71,83.91,47.63,95.25,226.8,Single-ply,SBD,M
Boys,51.71,8,Blas Gonzales,Bovina,49.9,68.04,45.36,108.86,222.26,Single-ply,SBD,M
Boys,51.71,9,Juan Moreno,Amarillo Highland Park,49.8,74.84,49.9,92.99,217.72,Single-ply,SBD,M
Boys,51.71,10,Ronnie Doty,Panhandle,47.99,74.84,38.56,102.06,215.46,Single-ply,SBD,M
Boys,51.71,11,Jose Quiroz,Bovina,51.26,54.43,40.82,74.84,170.1,Single-ply,SBD,M
Boys,51.71,12,Kordell Lawrence,Dalhart,41.28,43.09,34.02,74.84,151.95,Single-ply,SBD,M
Boys,55.79,1,Jordan Ruiz,Seagraves,55.61,181.44,113.4,192.78,487.61,Single-ply,SBD,M
Boys,55.79,2,Matt Longoria,Tulia,53.25,124.74,58.97,138.35,322.05,Single-ply,SBD,M
Boys,55.79,3,Justin Tovar,Abernathy,52.62,115.67,79.38,124.74,319.78,Single-ply,SBD,M
Boys,59.87,4,Francisco Elizalde,Muleshoe,55.88,102.06,72.57,136.08,310.71,Single-ply,SBD,M
Boys,55.79,5,Servando Cavazos,Abernathy,52.16,95.25,58.97,113.4,267.62,Single-ply,SBD,M
Boys,59.87,6,Justin Lee #4,Amarillo Highland Park,55.97,92.99,52.16,122.47,267.62,Single-ply,SBD,M
Boys,55.79,7,Jayson Stephenson,Abernathy,54.98,95.25,63.5,102.06,260.82,Single-ply,SBD,M
Boys,55.79,DQ,Matt Cordova,Amarillo Highland Park,52.16,,,,,Single-ply,SBD,M
Boys,55.79,DQ,Fernando Corpus,Amarillo Highland Park,52.62,,,,,Single-ply,SBD,M
Boys,55.79,DQ,Dalton Jemkins,Plainview,55.43,95.25,,,,Single-ply,SBD,M
Boys,55.79,DQ,Colten Brown,Stinnett West Texas,54.61,,,,,Single-ply,SBD,M
Boys,59.87,1,Adam Martin,Sudan,58.06,151.95,86.18,172.37,410.5,Single-ply,SBD,M
Boys,59.87,2,Anthony Arriola,Abernathy,58.79,113.4,79.38,136.08,328.85,Single-ply,SBD,M
Boys,59.87,3,Christian Paez,Muleshoe,58.97,115.67,72.57,136.08,324.32,Single-ply,SBD,M
Boys,59.87,4,Ramiro Carmona,Bovina,58.97,113.4,65.77,145.15,324.32,Single-ply,SBD,M
Boys,59.87,5,Zach Sanchez,Levelland,59.42,115.67,74.84,124.74,315.25,Single-ply,SBD,M
Boys,59.87,6,Ryan Cole,Canyon,59.42,104.33,61.23,108.86,274.42,Single-ply,SBD,M
Boys,59.87,7,Steven Tello,Dalhart,58.97,102.06,52.16,106.59,260.82,Single-ply,SBD,M
Boys,59.87,8,Alexander Garcia,Plainview,58.51,99.79,52.16,97.52,249.48,Single-ply,SBD,M
Boys,59.87,DQ,Bernie De La Cruz,Bovina,58.97,,,,,Single-ply,SBD,M
Boys,59.87,DQ,Trent Morgan,Amarillo Highland Park,59.42,136.08,,,,Single-ply,SBD,M
Boys,59.87,DQ,Dom Pham,Amarillo Highland Park,57.61,,,,,Single-ply,SBD,M
Boys,59.87,DQ,Joseph Partin,Plainview,58.24,104.33,,,,Single-ply,SBD,M
Boys,67.13,1,Lincoln Zapata,Plainview,66.68,181.44,104.33,188.24,474,Single-ply,SBD,M
Boys,67.13,2,Pablo Hinojosa,Lamesa,64.5,185.97,99.79,185.97,471.74,Single-ply,SBD,M
Boys,67.13,3,DeQuante Jackson,Anton,65.86,188.24,86.18,192.78,467.2,Single-ply,SBD,M
Boys,67.13,4,Elliot Hanna,Levelland,66.68,181.44,83.91,170.1,435.45,Single-ply,SBD,M
Boys,67.13,5,Franky Medina,Dalhart,66.68,158.76,90.72,158.76,408.23,Single-ply,SBD,M
Boys,67.13,6,Esdras Rodriguez,Friona,61.6,145.15,74.84,161.03,381.02,Single-ply,SBD,M
Boys,67.13,7,Eli Rodriguez,Seagraves,62.6,140.61,83.91,151.95,376.48,Single-ply,SBD,M
Boys,67.13,8,Jacob Garza,Olton,64.41,131.54,92.99,151.95,376.48,Single-ply,SBD,M
Boys,67.13,9,Fabian Bencomo,Dalhart,62.6,129.27,70.31,142.88,342.46,Single-ply,SBD,M
Boys,67.13,10,Stefan Schlabs,Vega,62.6,136.08,83.91,122.47,342.46,Single-ply,SBD,M
Boys,67.13,11,Xavier Baker,Sudan,66.22,124.74,70.31,142.88,337.93,Single-ply,SBD,M
Boys,67.13,12,Rene Cantu,Memphis,61.51,111.13,63.5,161.03,335.66,Single-ply,SBD,M
Boys,67.13,13,Steven Vallejo,Plainview,65.32,115.67,63.5,151.95,331.12,Single-ply,SBD,M
Boys,67.13,14,Alex Davis #1,Panhandle,67.13,124.74,65.77,129.27,319.78,Single-ply,SBD,M
Boys,67.13,15,Brian Amador,Lamesa,62.14,111.13,72.57,124.74,308.44,Single-ply,SBD,M
Boys,67.13,16,Rickie Johnson,Tulia,63.5,127.01,77.11,104.33,308.44,Single-ply,SBD,M
Boys,67.13,17,Colton White,Vega,66.22,108.86,72.57,113.4,294.84,Single-ply,SBD,M
Boys,67.13,18,Kevin Mendoza,Muleshoe,66.95,113.4,61.23,117.93,292.57,Single-ply,SBD,M
Boys,67.13,19,Sammy Sanchez,Amarillo Highland Park,61.69,102.06,61.23,127.01,290.3,Single-ply,SBD,M
Boys,67.13,20,Nathan Basaldua,Tulia,63.96,81.65,68.04,113.4,263.08,Single-ply,SBD,M
Boys,67.13,21,Patrick Fleming,Anton,61.23,77.11,40.82,120.2,238.14,Single-ply,SBD,M
Boys,67.13,22,Eric Alcozar,Plainview,63.5,77.11,54.43,102.06,233.6,Single-ply,SBD,M
Boys,67.13,DQ,Jordon Mora,Plainview,65.32,92.99,,,,Single-ply,SBD,M
Boys,67.13,DQ,Joseph Tran,Amarillo Highland Park,64.86,172.37,,,,Single-ply,SBD,M
Boys,67.13,DQ,Daniel Martinez #20,Floydada,64.86,145.15,,,,Single-ply,SBD,M
Boys,67.13,DQ,Caelon Gibson,Floydada,65.95,145.15,,,,Single-ply,SBD,M
Boys,67.13,DQ,Chuck Durham,Stinnett West Texas,63.59,102.06,,,,Single-ply,SBD,M
Boys,74.84,1,Marcus Ruff,Whiteface,74.84,172.37,104.33,197.31,474,Single-ply,SBD,M
Boys,74.84,2,Karlonte Jackson,Anton,67.49,183.7,83.91,201.85,469.47,Single-ply,SBD,M
Boys,74.84,3,Guillermo Davila,Dalhart,74.39,183.7,102.06,165.56,451.32,Single-ply,SBD,M
Boys,74.84,4,Mitchel Godbolt,Levelland,74.84,163.29,92.99,176.9,433.18,Single-ply,SBD,M
Boys,74.84,5,Edward Jalomo,Olton,71.21,163.29,90.72,167.83,421.84,Single-ply,SBD,M
Boys,74.84,6,Dalten Lumen,Panhandle,70.4,149.69,92.99,172.37,415.04,Single-ply,SBD,M
Boys,74.84,7,Andres Vasquez,Levelland,72.12,149.69,92.99,151.95,394.63,Single-ply,SBD,M
Boys,74.84,8,Jamie Herrera,Plainview,74.3,127.01,97.52,158.76,383.29,Single-ply,SBD,M
Boys,74.84,9,Braden Bessire,Muleshoe,69.22,149.69,77.11,147.42,374.21,Single-ply,SBD,M
Boys,74.84,10,Logan Kilpatrick,Bovina,74.39,138.35,81.65,154.22,374.21,Single-ply,SBD,M
Boys,74.84,11,Logan Lamberson,Panhandle,73.84,131.54,77.11,158.76,367.41,Single-ply,SBD,M
Boys,74.84,12,Abel Martinez,Bovina,73.48,124.74,81.65,151.95,358.34,Single-ply,SBD,M
Boys,74.84,13,Austin Bullock,Bushland,73.48,124.74,70.31,142.88,337.93,Single-ply,SBD,M
Boys,74.84,14,Fabian Honesto,Whiteface,70.58,127.01,68.04,140.61,335.66,Single-ply,SBD,M
Boys,74.84,15,Nick Aguayo,Lamesa,67.81,120.2,61.23,151.95,333.39,Single-ply,SBD,M
Boys,74.84,16,Antwane Sanders,Borger,74.39,122.47,68.04,142.88,333.39,Single-ply,SBD,M
Boys,74.84,17,Evan Gomez,Whiteface,71.67,131.54,79.38,120.2,331.12,Single-ply,SBD,M
Boys,74.84,18,Dustin Baumgardner,Panhandle,70.67,113.4,61.23,149.69,324.32,Single-ply,SBD,M
Boys,74.84,19,Carlos Hinojosa,Lamesa,69.76,122.47,68.04,127.01,317.51,Single-ply,SBD,M
Boys,74.84,20,Jace Taylor,Stinnett West Texas,70.85,106.59,72.57,120.2,299.37,Single-ply,SBD,M
Boys,74.84,21,Lamarcus Yannis,Memphis,68.67,95.25,61.23,136.08,292.57,Single-ply,SBD,M
Boys,74.84,22,Julian Borunda,Muleshoe,71.49,97.52,63.5,124.74,285.76,Single-ply,SBD,M
Boys,74.84,23,Gage Alexander,Panhandle,74.21,86.18,63.5,113.4,263.08,Single-ply,SBD,M
Boys,82.1,24,Tano Castillo,Whiteface,75.02,83.91,49.9,102.06,235.87,Single-ply,SBD,M
Boys,74.84,25,Stephen Carter,Panhandle,68.49,72.57,52.16,95.25,219.99,Single-ply,SBD,M
Boys,74.84,DQ,Adrian Chavez,Panhandle,67.77,43.09,,,,Single-ply,SBD,M
Boys,74.84,DQ,David Velo,Bovina,73.66,131.54,,,,Single-ply,SBD,M
Boys,74.84,DQ,I Summerlan,Friona,67.59,,,,,Single-ply,SBD,M
Boys,74.84,DQ,Ethan Andrade,Plainview,71.67,133.81,,,,Single-ply,SBD,M
Boys,82.1,1,Aaron Chavarria,Floydada,81.19,213.19,129.27,217.72,560.19,Single-ply,SBD,M
Boys,82.1,2,Michael Garcia #9,Friona,79.11,179.17,117.93,190.51,487.61,Single-ply,SBD,M
Boys,82.1,3,Phong Nguyen,Amarillo Highland Park,77.56,161.03,97.52,190.51,449.06,Single-ply,SBD,M
Boys,82.1,4,Staley Arredondo,Lamesa,81.65,181.44,90.72,174.63,446.79,Single-ply,SBD,M
Boys,82.1,5,Kody Duncan,Levelland,76.38,165.56,97.52,174.63,437.72,Single-ply,SBD,M
Boys,82.1,6,Cade McCallie,Canyon,81.19,170.1,90.72,174.63,435.45,Single-ply,SBD,M
Boys,82.1,7,Bailey Settle,Plainview,77.56,167.83,97.52,163.29,428.64,Single-ply,SBD,M
Boys,82.1,8,Kain Alexander,Levelland,80.74,142.88,97.52,154.22,394.63,Single-ply,SBD,M
Boys,82.1,9,Edwin Delgado,Sudan,79.92,136.08,90.72,165.56,392.36,Single-ply,SBD,M
Boys,82.1,10,Landon Warren,Bushland,78.93,129.27,92.99,165.56,387.82,Single-ply,SBD,M
Boys,82.1,11,Marcus Ortiz,Borger,79.83,149.69,77.11,149.69,376.48,Single-ply,SBD,M
Boys,82.1,12,J'Ryn Vela,Plainview,76.2,117.93,72.57,154.22,344.73,Single-ply,SBD,M
Boys,82.1,13,Alex Quinonez,Seagraves,79.83,120.2,83.91,131.54,335.66,Single-ply,SBD,M
Boys,82.1,14,Montana Coffman,Whiteface,78.29,122.47,63.5,145.15,331.12,Single-ply,SBD,M
Boys,82.1,15,Alec Long,Vega,81.19,113.4,61.23,136.08,310.71,Single-ply,SBD,M
Boys,82.1,16,Gilbert Pena,Plainview,75.84,108.86,63.5,117.93,290.3,Single-ply,SBD,M
Boys,82.1,17,Jt Bennett,Stinnett West Texas,77.56,83.91,70.31,102.06,256.28,Single-ply,SBD,M
Boys,82.1,18,Tarren Bails,Bushland,75.75,68.04,56.7,104.33,229.06,Single-ply,SBD,M
Boys,89.81,1,Kalub Williams,Memphis,87.91,176.9,108.86,213.19,498.95,Single-ply,SBD,M
Boys,89.81,2,Nick Anna,Plains,86.64,163.29,104.33,185.97,453.59,Single-ply,SBD,M
Boys,89.81,3,Cody Duran,Memphis,85.09,183.7,90.72,156.49,430.91,Single-ply,SBD,M
Boys,89.81,4,Damion Montes,Sudan,83.82,142.88,92.99,174.63,410.5,Single-ply,SBD,M
Boys,89.81,5,Leonel Carillo,Bovina,89.36,136.08,99.79,170.1,405.97,Single-ply,SBD,M
Boys,89.81,6,Adam Jones #6,Panhandle,87.45,154.22,79.38,163.29,396.89,Single-ply,SBD,M
Boys,89.81,7,Troy Valasquez,Plainview,87.54,145.15,79.38,158.76,383.29,Single-ply,SBD,M
Boys,89.81,8,Daniel Ratliff,Plainview,88.9,142.88,90.72,149.69,383.29,Single-ply,SBD,M
Boys,89.81,9,Dalton Gray,Anton,84.19,145.15,77.11,158.76,381.02,Single-ply,SBD,M
Boys,89.81,10,Israel Rosalez,Seagraves,89.36,147.42,92.99,136.08,376.48,Single-ply,SBD,M
Boys,89.81,11,Hector Lopez,Bovina,89.49,131.54,88.45,147.42,367.41,Single-ply,SBD,M
Boys,89.81,12,John Stiles,Muleshoe,89.81,99.79,92.99,154.22,347,Single-ply,SBD,M
Boys,89.81,13,James Lutz,Muleshoe,85.55,120.2,77.11,136.08,333.39,Single-ply,SBD,M
Boys,89.81,14,Kendall Anders,Amarillo Highland Park,88,102.06,74.84,147.42,324.32,Single-ply,SBD,M
Boys,89.81,15,Rosendo Cantu,Plainview,83.01,102.06,77.11,142.88,322.05,Single-ply,SBD,M
Boys,89.81,16,Obed Lujan,Dalhart,87.09,102.06,77.11,138.35,317.51,Single-ply,SBD,M
Boys,89.81,17,David Galvan,Plainview,87.09,102.06,72.57,124.74,299.37,Single-ply,SBD,M
Boys,89.81,18,Ross Steadman,Sudan,85.28,92.99,61.23,140.61,294.84,Single-ply,SBD,M
Boys,89.81,DQ,Ivan Delgado,Whiteface,88.45,170.1,102.06,,,Single-ply,SBD,M
Boys,99.79,1,Octavius Ledbetter,Memphis,99.79,226.8,127.01,192.78,546.58,Single-ply,SBD,M
Boys,99.79,2,Eddie Campos,Levelland,94.8,170.1,127.01,170.1,467.2,Single-ply,SBD,M
Boys,99.79,3,Eddie Sanchez,Lamesa,97.07,190.51,111.13,165.56,467.2,Single-ply,SBD,M
Boys,99.79,4,Javier Torres,Dalhart,98.43,170.1,102.06,192.78,464.93,Single-ply,SBD,M
Boys,99.79,5,Daniel Soltero,Friona,91.35,170.1,108.86,176.9,455.86,Single-ply,SBD,M
Boys,99.79,6,Gabe Marquez,Dalhart,91.17,181.44,90.72,172.37,444.52,Single-ply,SBD,M
Boys,99.79,7,Ruben Silva,Dimmitt,99.34,163.29,113.4,158.76,435.45,Single-ply,SBD,M
Boys,99.79,8,Paul Ochoa,Levelland,90.26,183.7,92.99,156.49,433.18,Single-ply,SBD,M
Boys,99.79,9,Sergio Orozco,Dalhart,96.8,170.1,102.06,158.76,430.91,Single-ply,SBD,M
Boys,99.79,10,Jesus Rosas,Seagraves,97.52,158.76,102.06,156.49,417.3,Single-ply,SBD,M
Boys,109.77,11,Alex Pena,Dimmitt,99.97,163.29,102.06,145.15,410.5,Single-ply,SBD,M
Boys,99.79,12,Kalob Brumley,Canyon,93.44,158.76,90.72,158.76,408.23,Single-ply,SBD,M
Boys,99.79,13,Anthony Anzuldua,Dalhart,98.88,158.76,90.72,158.76,408.23,Single-ply,SBD,M
Boys,99.79,14,Matthew Graham,Bushland,98.43,140.61,92.99,158.76,392.36,Single-ply,SBD,M
Boys,99.79,15,Rance Hargrove,Memphis,97.98,151.95,68.04,163.29,383.29,Single-ply,SBD,M
Boys,99.79,16,Cory Throgmorton,Panhandle,90.81,127.01,97.52,149.69,374.21,Single-ply,SBD,M
Boys,99.79,17,Ethan Embry,Plainview,92.53,136.08,79.38,151.95,367.41,Single-ply,SBD,M
Boys,99.79,18,Skylar Jennings,Plainview,99.79,149.69,81.65,124.74,356.07,Single-ply,SBD,M
Boys,99.79,19,Andrew Smith #13,Panhandle,98.88,102.06,68.04,142.88,312.98,Single-ply,SBD,M
Boys,99.79,20,Dakota McWhorter,Panhandle,98.88,102.06,83.91,124.74,310.71,Single-ply,SBD,M
Boys,99.79,DQ,Tyler Brewer,Dalhart,98.88,156.49,,,,Single-ply,SBD,M
Boys,109.77,1,Trae Taylor,Levelland,106.96,272.16,161.03,272.16,705.34,Single-ply,SBD,M
Boys,109.77,2,Spencer Holsey,Borger,109.23,199.58,117.93,233.6,551.11,Single-ply,SBD,M
Boys,109.77,3,Marcus Trujillo,Dalhart,101.15,231.33,115.67,183.7,530.7,Single-ply,SBD,M
Boys,109.77,4,Gavin Flores,Dimmitt,106.59,181.44,120.2,165.56,467.2,Single-ply,SBD,M
Boys,109.77,5,Manuel Muñoz,Olton,103.42,174.63,92.99,161.03,428.64,Single-ply,SBD,M
Boys,109.77,6,JR Rodriguez,Bushland,108.86,142.88,111.13,156.49,410.5,Single-ply,SBD,M
Boys,109.77,7,Tristan Hernandez,Dimmitt,104.78,149.69,102.06,154.22,405.97,Single-ply,SBD,M
Boys,109.77,8,Dutch White,Vega,108.41,147.42,102.06,151.95,401.43,Single-ply,SBD,M
Boys,109.77,9,Julian Martinez,Bovina,108.41,136.08,74.84,158.76,369.68,Single-ply,SBD,M
Boys,109.77,10,Isaiah Hernandez,Abernathy,109.23,124.74,83.91,158.76,367.41,Single-ply,SBD,M
Boys,109.77,11,Jared Shaw,Anton,101.7,120.2,68.04,151.95,340.19,Single-ply,SBD,M
Boys,109.77,12,Casey Boyd,Bushland,101.6,104.33,86.18,127.01,317.51,Single-ply,SBD,M
Boys,109.77,13,Daniel Ray,Vega,104.33,102.06,68.04,127.01,297.1,Single-ply,SBD,M
Boys,109.77,DQ,Chandler Sepulveda,Stinnett West Texas,105.51,106.59,,,,Single-ply,SBD,M
Boys,124.74,1,O'Scotty Castro,Dalhart,118.39,272.16,142.88,283.5,698.53,Single-ply,SBD,M
Boys,124.74,2,Homero Ramirez,Floydada,111.13,222.26,183.7,229.06,635.03,Single-ply,SBD,M
Boys,124.74,3,Tanner Patterson,Canyon,113.4,204.12,133.81,208.65,546.58,Single-ply,SBD,M
Boys,124.74,4,Abayomi Salinas,Friona,117.75,210.92,115.67,215.46,542.04,Single-ply,SBD,M
Boys,124.74,5,Tucker Looney,Canyon,110.22,161.03,117.93,183.7,462.66,Single-ply,SBD,M
Boys,124.74,6,Reid McIlwain,Lamesa,122.92,161.03,113.4,151.95,426.38,Single-ply,SBD,M
Boys,124.74,7,Javier Gonzalez #1,Borger,113.04,154.22,61.23,158.76,374.21,Single-ply,SBD,M
Boys,124.74,8,Stephen Mosier,Memphis,113.04,131.54,88.45,142.88,362.87,Single-ply,SBD,M
Boys,124.74,9,Jordan Russell,Muleshoe,121.02,117.93,81.65,158.76,358.34,Single-ply,SBD,M
Boys,124.74,10,Hunter Pool,Panhandle,119.29,120.2,70.31,142.88,333.39,Single-ply,SBD,M
Boys,124.74,11,Tucker Wise,Panhandle,122.47,79.38,70.31,142.88,292.57,Single-ply,SBD,M
Boys,124.74+,1,Edgar Guerrero,Friona,132.9,260.82,149.69,258.55,669.05,Single-ply,SBD,M
Boys,124.74+,2,Matt Olivarez,Sudan,172.37,238.14,140.61,231.33,610.08,Single-ply,SBD,M
Boys,124.74+,3,Dallam Read,Dalhart,128.82,226.8,124.74,256.28,607.81,Single-ply,SBD,M
Boys,124.74+,4,Jobe Allen,Stinnett West Texas,125.37,215.46,124.74,206.38,546.58,Single-ply,SBD,M
Boys,124.74+,5,Brandon Cox,Whiteface,133.54,217.72,108.86,192.78,519.36,Single-ply,SBD,M
Boys,124.74+,6,Dominick Puente,Levelland,131.27,215.46,102.06,176.9,494.42,Single-ply,SBD,M
Boys,124.74+,7,Zion Torres,Abernathy,151.5,197.31,102.06,158.76,458.13,Single-ply,SBD,M
Boys,124.74+,8,Justin Barrera,Dalhart,125.65,190.51,90.72,158.76,439.98,Single-ply,SBD,M
Boys,124.74+,9,Colby Roach,Panhandle,131.09,158.76,86.18,172.37,417.3,Single-ply,SBD,M
Boys,124.74+,10,Pepe Lozana,Plains,139.71,113.4,92.99,172.37,378.75,Single-ply,SBD,M
Boys,124.74+,11,Rodrigo Rivas,Muleshoe,151.05,136.08,88.45,136.08,360.61,Single-ply,SBD,M
Boys,124.74+,12,Brady Gandy,Whiteface,129.73,122.47,79.38,133.81,335.66,Single-ply,SBD,M
Boys,124.74+,13,Jose Duran,Memphis,138.89,117.93,54.43,145.15,317.51,Single-ply,SBD,M
Boys,124.74+,DQ,Kyle Weiss #1,Panhandle,135.17,215.46,,,,Single-ply,SBD,M
Boys,124.74+,DQ,Wes Escamilla,Amarillo Highland Park,163.29,142.88,,,,Single-ply,SBD,M
