Name,Age,Division,BodyweightKg,WeightClassKg,Squat1Kg,Squat2Kg,Squat3Kg,Best3SquatKg,Bench1Kg,Bench2Kg,Bench3Kg,Best3BenchKg,Deadlift1Kg,Deadlift2Kg,Deadlift3Kg,Best3DeadliftKg,TotalKg,Team,Place,Sex,Event,Equipment
Savannah May,16,F-JV,44,44,92.5,100,105,105,47.5,52.5,57.5,57.5,90,95,-100,95,257.5,NECEDAH,1,F,SBD,Single-ply
Eneida Spaho,15,F-JV,43.85,44,82.5,87.5,-90,87.5,52.5,55,-57.5,55,87.5,90,95,95,237.5,CUDAHY,2,F,SBD,Single-ply
Laura Saueressig,14,F-JV,43.9,44,77.5,85,87.5,87.5,27.5,30,-32.5,30,-87.5,92.5,-102.5,92.5,210,OOSTBRG,3,F,SBD,Single-ply
Cassie Maldonado,18,F-JV,41.7,44,52.5,-57.5,57.5,57.5,25,27.5,-30,27.5,57.5,75,82.5,82.5,167.5,CRZO SPG,4,F,SBD,Single-ply
Julia Devine,15,F-JV,43.6,44,57.5,-67.5,-72.5,57.5,27.5,30,-32.5,30,80,-87.5,-90,80,167.5,HOLMEN,5,F,SBD,Single-ply
Morgan Schillinger,14,F-JV,46.4,48,92.5,100,-105,100,40,45,47.5,47.5,107.5,115,120,120,267.5,PHLLPS,1,F,SBD,Single-ply
Steph Reynolds,16,F-JV,47.05,48,100,110,120,120,35,40,42.5,42.5,87.5,100,-110,100,262.5,NECEDAH,2,F,SBD,Single-ply
Kassie Els,16,F-JV,47.85,48,72.5,85,-90,85,30,35,-37.5,35,82.5,95,102.5,102.5,222.5,NECEDAH,3,F,SBD,Single-ply
Cassy Freman,15,F-JV,50.95,52,90,97.5,100,100,45,50,52.5,52.5,100,107.5,115,115,267.5,PHLLPS,1,F,SBD,Single-ply
Casey Tait,16,F-JV,51.55,52,-85,92.5,-105,92.5,50,-57.5,57.5,57.5,95,107.5,117.5,117.5,267.5,CRS LEX,2,F,SBD,Single-ply
Michelle Sullwold,15,F-JV,50.2,52,95,-102.5,-102.5,95,52.5,-57.5,-57.5,52.5,102.5,107.5,115,115,262.5,CLR LAKE,3,F,SBD,Single-ply
Christina Shumer,15,F-JV,51.4,52,95,102.5,105,105,35,-40,-40,35,107.5,117.5,-127.5,117.5,257.5,NECEDAH,4,F,SBD,Single-ply
Abby Guggenbuehl,15,F-JV,50.4,52,85,90,95,95,42.5,45,47.5,47.5,92.5,102.5,112.5,112.5,255,LOGAN,5,F,SBD,Single-ply
Kim Carlisle,16,F-JV,51.1,52,85,-90,95,95,32.5,37.5,-40,37.5,105,110,120,120,252.5,OOSTBRG,6,F,SBD,Single-ply
Malorie Styles,15,F-JV,49.1,52,-102.5,102.5,-107.5,102.5,30,32.5,-35,32.5,102.5,110,-120,110,245,OOSTBRG,7,F,SBD,Single-ply
Rebeque Suchla,16,F-JV,51.8,52,97.5,-110,-110,97.5,42.5,47.5,-50,47.5,97.5,-102.5,-105,97.5,242.5,TEAM ID,8,F,SBD,Single-ply
Hannah Zimmer,15,F-JV,51.05,52,-82.5,82.5,-102.5,82.5,47.5,-52.5,-52.5,47.5,85,97.5,110,110,240,E. CLR N,9,F,SBD,Single-ply
Danielle Marsolek,15,F-JV,51.4,52,-85,-85,85,85,-45,-45,-45,,92.5,95,-100,95,,WHTEHALL,DQ,F,SBD,Single-ply
Shelby Barry,15,F-JV,54.85,56,115,122.5,127.5,127.5,42.5,50,57.5,57.5,117.5,-122.5,127.5,127.5,312.5,WI DELLS,1,F,SBD,Single-ply
Sawyer Cimarolli,14,F-JV,55.75,56,-112.5,115,125,125,52.5,57.5,-62.5,57.5,120,125,-132.5,125,307.5,WI DELLS,2,F,SBD,Single-ply
Kendra Stutggen,16,F-JV,53.85,56,112.5,125,-135,125,50,52.5,55,55,115,120,122.5,122.5,302.5,FALL CRK,3,F,SBD,Single-ply
Alicia Doyle,16,F-JV,54.1,56,92.5,100,-110,100,55,57.5,-60,57.5,105,115,-120,115,272.5,CRS LEX,4,F,SBD,Single-ply
Jenna Hardy,15,F-JV,54.25,56,-97.5,97.5,-112.5,97.5,57.5,-60,60,60,97.5,107.5,-112.5,107.5,265,PNNRDG,5,F,SBD,Single-ply
Kayla Kranzusch,15,F-JV,54.45,56,-90,90,97.5,97.5,42.5,45,-47.5,45,102.5,-112.5,112.5,112.5,255,SEYMOUR,6,F,SBD,Single-ply
Kayla Brey,16,F-JV,53.1,56,82.5,90,100,100,35,37.5,42.5,42.5,92.5,100,110,110,252.5,NECEDAH,7,F,SBD,Single-ply
Renee Thornton,15,F-JV,55.85,56,75,82.5,87.5,87.5,27.5,30,32.5,32.5,80,87.5,100,100,220,NECEDAH,8,F,SBD,Single-ply
Mara Kildea,15,F-JV,55.45,56,75,80,-82.5,80,32.5,35,-37.5,35,82.5,90,95,95,210,OOSTBRG,9,F,SBD,Single-ply
Chelsea Taylor,16,F-JV,54.8,56,60,67.5,70,70,32.5,37.5,-40,37.5,87.5,97.5,-102.5,97.5,205,ELZTHTN,10,F,SBD,Single-ply
Maurija Fox,16,F-JV,55.25,56,-60,-67.5,-70,,32.5,-37.5,-37.5,32.5,80,85,90,90,,CLRNDA,DQ,F,SBD,Single-ply
Haley Hespen,16,F-JV,56.9,60,112.5,-120,-122.5,112.5,50,-55,55,55,120,127.5,,127.5,295,CARIERE,1,F,SBD,Single-ply
Emily Pelky,15,F-JV,59.35,60,100,110,115,115,-47.5,47.5,-55,47.5,112.5,125,-135,125,287.5,SEYMOUR,2,F,SBD,Single-ply
Sommer Bloomer,16,F-JV,59.45,60,105,110,112.5,112.5,45,52.5,57.5,57.5,105,112.5,-117.5,112.5,282.5,NECEDAH,3,F,SBD,Single-ply
Courtney Johnson,16,F-JV,59.65,60,105,110,115,115,42.5,47.5,50,50,102.5,107.5,,107.5,272.5,RVR FLLS,4,F,SBD,Single-ply
Laura Marsolek,16,F-JV,58.75,60,85,92.5,-97.5,92.5,-52.5,52.5,55,55,102.5,110,-115,110,257.5,INDEP.,5,F,SBD,Single-ply
Mercedes Vandaver,15,F-JV,59.6,60,85,-100,105,105,50,57.5,-62.5,57.5,80,95,-102.5,95,257.5,NECEDAH,6,F,SBD,Single-ply
Amanda Cole #2,15,F-JV,58.8,60,-75,90,-107.5,90,32.5,37.5,40,40,90,102.5,-107.5,102.5,232.5,KASSON,7,F,SBD,Single-ply
Anissia Woods,15,F-JV,59.95,60,67.5,72.5,-75,72.5,42.5,45,-47.5,45,87.5,102.5,-110,102.5,220,CLRNDA,8,F,SBD,Single-ply
Amanda Poquette,15,F-JV,59.15,60,75,-87.5,-87.5,75,37.5,40,-45,40,75,90,-97.5,90,205,E. CLR N,9,F,SBD,Single-ply
Shalyn Kuehnl,14,F-JV,67.25,67.5,145,-152.5,152.5,152.5,72.5,-75,75,75,125,135,140,140,367.5,BLCK CRK,1,F,SBD,Single-ply
Sidney Blodgett,15,F-JV,64.9,67.5,115,130,142.5,142.5,60,-62.5,-62.5,60,102.5,115,125,125,327.5,EAU CLR,2,F,SBD,Single-ply
Emilie Anderson,16,F-JV,65.2,67.5,-117.5,117.5,127.5,127.5,57.5,-60,-60,57.5,110,-117.5,117.5,117.5,302.5,BANGOR,3,F,SBD,Single-ply
Mykala Myhre,14,F-JV,63.9,67.5,115,125,-135,125,42.5,52.5,55,55,105,112.5,117.5,117.5,297.5,NECEDAH,4,F,SBD,Single-ply
Hanna Morrow,15,F-JV,66.7,67.5,110,-120,120,120,45,50,-52.5,50,-115,117.5,120,120,290,RVR FLLS,5,F,SBD,Single-ply
Courtney Freeman,16,F-JV,66.15,67.5,107.5,110,115,115,60,62.5,65,65,-102.5,102.5,107.5,107.5,287.5,OMRO,6,F,SBD,Single-ply
Olivia Bruyette,16,F-JV,67.1,67.5,-102.5,-102.5,102.5,102.5,40,42.5,45,45,120,127.5,-137.5,127.5,275,OOSTBRG,7,F,SBD,Single-ply
Darneisia Martin,15,F-JV,66.8,67.5,-85,92.5,-120,92.5,57.5,65,-70,65,95,100,107.5,107.5,265,CLRNDA,8,F,SBD,Single-ply
Tiffany Arnold,15,F-JV,65.45,67.5,75,90,-100,90,37.5,40,42.5,42.5,90,117.5,-127.5,117.5,250,KASSON,9,F,SBD,Single-ply
Janesha Davis,16,F-JV,62.85,67.5,-65,-90,-90,,,,,,,,,,,CLRNDA,DQ,F,SBD,Single-ply
Sarah Carufel,15,F-JV,79,82.5,130,145,150,150,50,-52.5,52.5,52.5,120,127.5,-140,127.5,330,OSCLA,1,F,SBD,Single-ply
Johannah Rice,15,F-JV,78.1,82.5,132.5,-137.5,137.5,137.5,42.5,45,-47.5,45,125,127.5,137.5,137.5,320,S MILWKE,2,F,SBD,Single-ply
Ashley Matson,16,F-JV,80.2,82.5,120,-127.5,-130,120,47.5,55,60,60,105,-115,117.5,117.5,297.5,NECEDAH,3,F,SBD,Single-ply
Felicia Cudahy,16,F-JV,79.45,82.5,85,97.5,-117.5,97.5,37.5,42.5,-45,42.5,87.5,97.5,-127.5,97.5,237.5,OOSTBRG,4,F,SBD,Single-ply
Brooke Paradise,14,F-JV,84.85,90,-87.5,87.5,-102.5,87.5,42.5,45,47.5,47.5,117.5,127.5,137.5,137.5,272.5,KASSON,1,F,SBD,Single-ply
Stefani Mareno,15,F-JV,97.75,90+,-135,135,140,140,52.5,57.5,-60,57.5,130,135,140,140,337.5,PHLLPS,1,F,SBD,Single-ply
Erin Durst,16,F-JV,102.85,90+,105,-117.5,122.5,122.5,50,55,-60,55,137.5,150,157.5,157.5,335,KASSON,2,F,SBD,Single-ply
Shyann Shelton,17,F-JV,103.15,90+,115,122.5,-130,122.5,55,62.5,-67.5,62.5,125,135,-155,135,320,CLRNDA,3,F,SBD,Single-ply
Drew Rath,14,F-JV,113.25,90+,-105,115,125,125,-42.5,45,47.5,47.5,107.5,122.5,130,130,302.5,KASSON,4,F,SBD,Single-ply
Sheila Mays,17,F-V,43.35,44,110,115,-117.5,115,57.5,62.5,-65,62.5,105,110,-112.5,110,287.5,CALHOUN,1,F,SBD,Single-ply
Kayla Vopelak,18,F-V,43.2,44,87.5,97.5,105,105,32.5,37.5,45,45,92.5,100,105,105,255,NECEDAH,2,F,SBD,Single-ply
Shannon Rattunde,16,F-V,43.3,44,75,82.5,92.5,92.5,32.5,37.5,-45,37.5,97.5,110,-127.5,110,240,NECEDAH,3,F,SBD,Single-ply
Taylor Smith #12,14,F-V,43.25,44,80,90,92.5,92.5,25,32.5,-37.5,32.5,67.5,85,-92.5,85,210,WHTEHALL,4,F,SBD,Single-ply
Michelle Van Dusen,17,F-V,47.85,48,147.5,155,157.5,157.5,60,65,67.5,67.5,147.5,155,-160,155,380,NEENAH,1,F,SBD,Single-ply
Kristi Polizzano,17,F-V,47.05,48,102.5,110,117.5,117.5,65,-67.5,-67.5,65,102.5,115,-122.5,115,297.5,ABDTN HT,2,F,SBD,Single-ply
Carly Hoftiezer,17,F-V,47.65,48,95,110,117.5,117.5,47.5,50,52.5,52.5,117.5,-130,-130,117.5,287.5,OOSTBRG,3,F,SBD,Single-ply
Jenna Britzke,18,F-V,47.75,48,100,-107.5,-107.5,100,47.5,52.5,-55,52.5,102.5,112.5,117.5,117.5,270,NEENAH,4,F,SBD,Single-ply
Lindsey Vowels,17,F-V,46.95,48,-92.5,92.5,97.5,97.5,42.5,47.5,-50,47.5,97.5,105,110,110,255,OMRO,5,F,SBD,Single-ply
Bailey Terebinski,17,F-V,46.5,48,85,-107.5,-107.5,85,37.5,-42.5,-42.5,37.5,82.5,100,-137.5,100,222.5,PWRS CTH,6,F,SBD,Single-ply
Renee King,15,F-V,47.55,48,75,80,-85,80,32.5,-35,-35,32.5,-80,80,85,85,197.5,OMRO,7,F,SBD,Single-ply
Frances Martinez,18,F-V,47.35,48,55,-67.5,67.5,67.5,35,-37.5,37.5,37.5,85,-100,-102.5,85,190,CRZO SPG,8,F,SBD,Single-ply
Kati Durham,16,F-V,50.55,52,137.5,145,150,150,67.5,70,72.5,72.5,135,142.5,147.5,147.5,370,CALHOUN,1,F,SBD,Single-ply
Charlie Lauer,18,F-V,51.7,52,130,137.5,-145,137.5,57.5,62.5,70,70,117.5,127.5,-132.5,127.5,335,NEENAH,2,F,SBD,Single-ply
Bobbie Bush,15,F-V,51.95,52,-117.5,120,125,125,50,55,-57.5,55,120,-130,132.5,132.5,312.5,OMRO,3,F,SBD,Single-ply
Meghan Swisher,18,F-V,51.15,52,-112.5,112.5,-122.5,112.5,47.5,50,52.5,52.5,125,-130,-132.5,125,290,OSCLA,4,F,SBD,Single-ply
Bridget Hinz,17,F-V,51.6,52,102.5,-107.5,107.5,107.5,42.5,45,47.5,47.5,125,132.5,-145,132.5,287.5,OSCLA,5,F,SBD,Single-ply
Samantha Olson,16,F-V,51.4,52,110,-117.5,117.5,117.5,42.5,-55,-55,42.5,102.5,110,-127.5,110,270,GET,6,F,SBD,Single-ply
Sarah Kapoor,16,F-V,49.8,52,75,-80,82.5,82.5,47.5,52.5,-57.5,52.5,110,115,-117.5,115,250,HPPY VLLY,7,F,SBD,Single-ply
Mary Duff,18,F-V,51.65,52,95,-102.5,-102.5,95,-47.5,47.5,-50,47.5,97.5,102.5,-112.5,102.5,245,NEENAH,8,F,SBD,Single-ply
Shelbie Jacobs,18,F-V,50.35,52,-77.5,77.5,87.5,87.5,42.5,-45,-45,42.5,90,100,-110,100,230,PNNRDG,9,F,SBD,Single-ply
Julia Dubiel,15,F-V,50.85,52,70,-90,90,90,32.5,37.5,-40,37.5,75,90,-110,90,217.5,PWRS CTH,10,F,SBD,Single-ply
Megan Kutchenriter,15,F-V,51.75,52,-70,72.5,75,75,40,45,47.5,47.5,87.5,-95,95,95,217.5,OMRO,11,F,SBD,Single-ply
Trixie Spitzbardt,16,F-V,55.85,56,85,92.5,100,100,47.5,-57.5,-57.5,47.5,-102.5,112.5,120,120,267.5,RVRDL,1,F,SBD,Single-ply
Kendra Miller #1,17,F-V,59.3,60,157.5,167.5,172.5,172.5,77.5,85,92.5,92.5,160,172.5,182.5,182.5,447.5,PLNWLL,1,F,SBD,Single-ply
Andrea Cazares,17,F-V,58.05,60,-160,-160,160,160,67.5,72.5,-77.5,72.5,152.5,-162.5,162.5,162.5,395,SEAGRVS,2,F,SBD,Single-ply
Susan Tucker,18,F-V,59.2,60,122.5,-132.5,142.5,142.5,62.5,70,77.5,77.5,132.5,140,-150,140,360,NEENAH,3,F,SBD,Single-ply
Brianna Palleschi,17,F-V,58.45,60,-127.5,-127.5,127.5,127.5,77.5,82.5,85,85,125,132.5,142.5,142.5,355,CRS LEX,4,F,SBD,Single-ply
Haley Horbinski,17,F-V,58.3,60,130,137.5,-142.5,137.5,67.5,75,-77.5,75,127.5,132.5,-140,132.5,345,NECEDAH,5,F,SBD,Single-ply
Chelsea Saenz,17,F-V,58.65,60,140,-147.5,-147.5,140,57.5,62.5,65,65,137.5,-142.5,-142.5,137.5,342.5,CALHOUN,6,F,SBD,Single-ply
Lydia Rivera,17,F-V,58.8,60,112.5,117.5,120,120,62.5,67.5,-70,67.5,115,125,137.5,137.5,325,S MILWKE,7,F,SBD,Single-ply
Hannah Eagan,18,F-V,58.5,60,120,-130,-130,120,57.5,62.5,65,65,125,130,137.5,137.5,322.5,OMRO,8,F,SBD,Single-ply
Kayla Samosky,17,F-V,58.95,60,117.5,125,127.5,127.5,-57.5,-57.5,57.5,57.5,110,117.5,-127.5,117.5,302.5,S MILWKE,9,F,SBD,Single-ply
Alyssa Roehrig,17,F-V,59.25,60,-105,110,-112.5,110,55,60,-65,60,110,117.5,120,120,290,NEENAH,10,F,SBD,Single-ply
Kimberly Sol,17,F-V,58.9,60,105,110,-117.5,110,42.5,45,-47.5,45,112.5,120,-125,120,275,OSCLA,11,F,SBD,Single-ply
Pilar Azmani,18,F-V,56.9,60,87.5,97.5,-102.5,97.5,42.5,47.5,50,50,102.5,112.5,120,120,267.5,WHTNALL,12,F,SBD,Single-ply
Nicole Gantz,18,F-V,59.4,60,102.5,-112.5,-120,102.5,47.5,-52.5,-52.5,47.5,102.5,107.5,112.5,112.5,262.5,WI DELLS,13,F,SBD,Single-ply
Brianna Dahm,16,F-V,66.25,67.5,150,160,-165,160,67.5,70,-72.5,70,142.5,150,-160,150,380,LNCLN,1,F,SBD,Single-ply
Tailor Castillo,18,F-V,66.3,67.5,140,147.5,150,150,67.5,72.5,-75,72.5,132.5,142.5,-147.5,142.5,365,NEENAH,2,F,SBD,Single-ply
Suhai Solis,17,F-V,67.15,67.5,-140,-140,140,140,70,75,-77.5,75,137.5,150,-157.5,150,365,CALHOUN,3,F,SBD,Single-ply
Beverly Crawford,17,F-V,66.25,67.5,137.5,-145,-145,137.5,65,-70,70,70,147.5,155,,155,362.5,PNNRDG,4,F,SBD,Single-ply
Jessica Thornton,17,F-V,67.15,67.5,-135,-142.5,147.5,147.5,67.5,72.5,75,75,132.5,137.5,-142.5,137.5,360,NECEDAH,5,F,SBD,Single-ply
Katie Kronstedt,18,F-V,65.1,67.5,125,137.5,145,145,60,65,70,70,112.5,127.5,-135,127.5,342.5,LNCLN,6,F,SBD,Single-ply
Robblyn Branch,15,F-V,63.5,67.5,115,125,132.5,132.5,-55,55,60,60,122.5,137.5,-142.5,137.5,330,S MILWKE,7,F,SBD,Single-ply
Megan Butler,16,F-V,66.8,67.5,127.5,-132.5,-132.5,127.5,50,55,-57.5,55,122.5,130,-135,130,312.5,RVR FLLS,8,F,SBD,Single-ply
Jenna Rohde,16,F-V,67.1,67.5,-120,120,-142.5,120,57.5,62.5,-65,62.5,127.5,-137.5,-137.5,127.5,310,OOSTBRG,9,F,SBD,Single-ply
Sadie Lewis,17,F-V,64.65,67.5,102.5,-110,112.5,112.5,52.5,57.5,60,60,120,132.5,-140,132.5,305,RVRDL,10,F,SBD,Single-ply
Mariah Schmidt,17,F-V,66.85,67.5,105,112.5,-120,112.5,-57.5,57.5,60,60,122.5,132.5,-137.5,132.5,305,NEENAH,11,F,SBD,Single-ply
Natalie Gallagher,18,F-V,66.3,67.5,92.5,100,112.5,112.5,-45,45,-52.5,45,120,-127.5,-127.5,120,277.5,CRS LEX,12,F,SBD,Single-ply
Sarah Rodgers,16,F-V,62.75,67.5,-120,120,132.5,132.5,62.5,67.5,-72.5,67.5,-117.5,-135,-135,,,TEAM ID,DQ,F,SBD,Single-ply
Shantel Noel,17,F-V,74.35,75,180,-185,-185,180,90,-92.5,-92.5,90,150,165,172.5,172.5,442.5,CALHOUN,1,F,SBD,Single-ply
Kirsten Olson,17,F-V,73.15,75,147.5,155,160,160,85,92.5,97.5,97.5,162.5,170,-185,170,427.5,PHLLPS,2,F,SBD,Single-ply
Ashley McCrory,18,F-V,71.15,75,165,175,-180,175,90,92.5,-95,92.5,145,-152.5,-152.5,145,412.5,CALHOUN,3,F,SBD,Single-ply
Mollie Bruyette,18,F-V,73.65,75,130,-142.5,-147.5,130,60,67.5,-72.5,67.5,155,-172.5,-172.5,155,352.5,OOSTBRG,4,F,SBD,Single-ply
Amanda Berg,18,F-V,72,75,125,140,147.5,147.5,52.5,60,62.5,62.5,105,112.5,117.5,117.5,327.5,WHTEHALL,5,F,SBD,Single-ply
Shannon Cowan,18,F-V,73.5,75,122.5,-137.5,-145,122.5,62.5,-72.5,-72.5,62.5,120,130,-140,130,315,MAUSTN,6,F,SBD,Single-ply
Jessica Dodel,17,F-V,73.15,75,-155,-155,-155,,65,70,75,75,-135,-135,-135,,,TEAM ID,DQ,F,SBD,Single-ply
Brittany Gamble,18,F-V,77.85,82.5,165,-175,175,175,82.5,87.5,-92.5,87.5,150,165,-172.5,165,427.5,CALHOUN,1,F,SBD,Single-ply
Stacie Pomrening,17,F-V,77.95,82.5,155,-165,-165,155,87.5,92.5,97.5,97.5,150,162.5,172.5,172.5,425,NEENAH,2,F,SBD,Single-ply
Mariah Hamm,17,F-V,75.4,82.5,170,-175,175,175,77.5,-82.5,82.5,82.5,162.5,165,-175,165,422.5,OSCLA,3,F,SBD,Single-ply
Nicole Walski,16,F-V,75.65,82.5,125,142.5,147.5,147.5,52.5,62.5,70,70,137.5,142.5,145,145,362.5,GET,4,F,SBD,Single-ply
Kelly Schnautz,17,F-V,80.8,82.5,132.5,-140,140,140,60,65,-70,65,135,142.5,157.5,157.5,362.5,PHLLPS,5,F,SBD,Single-ply
Aerieal Schug,17,F-V,76.55,82.5,115,122.5,130,130,77.5,82.5,87.5,87.5,130,137.5,-145,137.5,355,OMRO,6,F,SBD,Single-ply
Kelly Wassberg,18,F-V,81.65,82.5,-115,115,-127.5,115,85,-90,90,90,135,145,-152.5,145,350,OSCLA,7,F,SBD,Single-ply
Jacqui Plautz,17,F-V,75.05,82.5,115,130,142.5,142.5,50,55,57.5,57.5,112.5,125,135,135,335,MAUSTN,8,F,SBD,Single-ply
Courtney Waech,18,F-V,80.65,82.5,100,-110,110,110,50,55,-60,55,110,125,137.5,137.5,302.5,OOSTBRG,9,F,SBD,Single-ply
Kaitie Guza,17,F-V,81.6,82.5,110,112.5,-117.5,112.5,55,57.5,60,60,112.5,117.5,127.5,127.5,300,INDEP.,10,F,SBD,Single-ply
Taelynn Feustel,18,F-V,81.25,82.5,-110,-112.5,-112.5,,65,67.5,72.5,72.5,110,120,-127.5,120,,NEENAH,DQ,F,SBD,Single-ply
Lynn Poetzel,18,F-V,86.45,90,-190,190,-197.5,190,-117.5,117.5,122.5,122.5,180,190,200,200,512.5,PHLLPS,1,F,SBD,Single-ply
Samantha Balajka,17,F-V,88.5,90,180,187.5,-190,187.5,82.5,85,-87.5,85,145,160,167.5,167.5,440,CALHOUN,2,F,SBD,Single-ply
Johanna Deane,17,F-V,86.7,90,157.5,162.5,-165,162.5,-60,60,65,65,150,162.5,-172.5,162.5,390,ADAMS,3,F,SBD,Single-ply
Cassie Olson,17,F-V,87.7,90,125,140,145,145,45,55,60,60,120,130,135,135,340,WHTEHALL,4,F,SBD,Single-ply
Danielle Wagner,18,F-V,83.45,90,115,120,125,125,62.5,67.5,-77.5,67.5,-117.5,125,130,130,322.5,NECEDAH,5,F,SBD,Single-ply
Deana Gilane,16,F-V,86.5,90,120,125,130,130,67.5,-70,70,70,120,-127.5,-127.5,120,320,S MILWKE,6,F,SBD,Single-ply
Kayla Johnson,18,F-V,86.05,90,-112.5,112.5,-125,112.5,62.5,-67.5,-67.5,62.5,117.5,-127.5,127.5,127.5,302.5,WHTEHALL,7,F,SBD,Single-ply
Elisa Danielson,17,F-V,83.8,90,107.5,-117.5,-122.5,107.5,42.5,45,-52.5,45,135,147.5,-157.5,147.5,300,APPLTN N,8,F,SBD,Single-ply
Jill Ripp,16,F-V,84.25,90,-107.5,120,130,130,40,47.5,-52.5,47.5,117.5,-125,-127.5,117.5,295,MAUSTN,9,F,SBD,Single-ply
Becky Cook,17,F-V,132.35,90+,-205,210,217.5,217.5,85,92.5,97.5,97.5,172.5,180,185,185,500,NECEDAH,1,F,SBD,Single-ply
Claire Seeke,18,F-V,110.55,90+,192.5,197.5,202.5,202.5,92.5,97.5,-102.5,97.5,160,-170,-200,160,460,NEENAH,2,F,SBD,Single-ply
Mikyla Borski,18,F-V,121.65,90+,165,185,187.5,187.5,55,62.5,-67.5,62.5,140,160,165,165,415,WNNCNN,3,F,SBD,Single-ply
Bailey Sauerwein,17,F-V,98.85,90+,167.5,175,180,180,60,67.5,-72.5,67.5,142.5,157.5,-162.5,157.5,405,WHTEHALL,4,F,SBD,Single-ply
Sarah-Jayne Lamb,17,F-V,105.5,90+,167.5,-180,-180,167.5,-90,90,95,95,-142.5,142.5,-160,142.5,405,PWRS CTH,5,F,SBD,Single-ply
Erica Caler,17,F-V,104.5,90+,112.5,125,132.5,132.5,50,52.5,55,55,135,152.5,165,165,352.5,SEYMOUR,6,F,SBD,Single-ply
Samantha Stephens,18,F-V,112.9,90+,145,-165,-167.5,145,50,-60,-60,50,127.5,130,-157.5,130,325,TEAM ID,7,F,SBD,Single-ply
Karri Stapleton,16,F-V,142.2,90+,-177.5,-177.5,-177.5,,75,-77.5,-77.5,75,140,145,-155,145,,OMRO,DQ,F,SBD,Single-ply
Jason Kruse,16,M-JV,51.5,52,115,127.5,-132.5,127.5,62.5,70,-72.5,70,120,-130,137.5,137.5,335,WDWARD,1,M,SBD,Single-ply
Ryan Thyssen,15,M-JV,51.2,52,102.5,115,-117.5,115,47.5,52.5,-55,52.5,117.5,130,-132.5,130,297.5,WNNCNN,2,M,SBD,Single-ply
Trey King,15,M-JV,51.4,52,90,100,110,110,52.5,57.5,60,60,115,122.5,127.5,127.5,297.5,WDWARD,3,M,SBD,Single-ply
Tyler Schilling,14,M-JV,51,52,97.5,-105,-105,97.5,47.5,55,57.5,57.5,107.5,115,125,125,280,PHLLPS,4,M,SBD,Single-ply
Andy Karowski,14,M-JV,50.9,52,95,107.5,-117.5,107.5,47.5,55,60,60,92.5,102.5,-112.5,102.5,270,WHTNALL,5,M,SBD,Single-ply
Kevin Correll,15,M-JV,50.9,52,-125,-125,-125,,52.5,55,57.5,57.5,142.5,147.5,150,150,,COLOMA,DQ,M,SBD,Single-ply
Zachary Maxfield,16,M-JV,55.4,56,120,135,-145,135,-72.5,72.5,77.5,77.5,160,165,172.5,172.5,385,CRS LEX,1,M,SBD,Single-ply
Codie Frazier,15,M-JV,52.3,56,127.5,140,142.5,142.5,72.5,-77.5,77.5,77.5,137.5,147.5,157.5,157.5,377.5,EDNBRG,2,M,SBD,Single-ply
Luke Muselman,15,M-JV,56,56,122.5,127.5,132.5,132.5,77.5,-82.5,-82.5,77.5,142.5,157.5,-170,157.5,367.5,CLRNDA,3,M,SBD,Single-ply
Jack Doroff,16,M-JV,55.3,56,125,-142.5,142.5,142.5,70,72.5,-75,72.5,125,145,-152.5,145,360,E. CLR N,4,M,SBD,Single-ply
Corey Chandler,15,M-JV,56,56,117.5,-127.5,-127.5,117.5,72.5,82.5,-87.5,82.5,145,157.5,-165,157.5,357.5,WDWARD,5,M,SBD,Single-ply
Jordan Mach,14,M-JV,55.4,56,115,137.5,-140,137.5,55,60,65,65,130,140,152.5,152.5,355,NECEDAH,6,M,SBD,Single-ply
Tyler Hovland,17,M-JV,55.2,56,125,-130,-132.5,125,60,70,-77.5,70,140,147.5,-152.5,147.5,342.5,WI DELLS,7,M,SBD,Single-ply
Lorenzo Wilder,16,M-JV,56,56,115,-117.5,-117.5,115,-75,-75,75,75,130,135,145,145,335,CLRNDA,8,M,SBD,Single-ply
Antonio Maldonado,16,M-JV,55.7,56,115,-120,120,120,62.5,-67.5,-67.5,62.5,132.5,140,145,145,327.5,S MILWKE,9,M,SBD,Single-ply
Ben Brandsmeier,16,M-JV,54.9,56,117.5,-135,-135,117.5,-67.5,67.5,-70,67.5,112.5,120,-125,120,305,HOLMEN,10,M,SBD,Single-ply
Trevor Cleckler,15,M-JV,54.4,56,-80,-97.5,-97.5,,47.5,52.5,-60,52.5,120,137.5,-142.5,137.5,,FT PAYNE,DQ,M,SBD,Single-ply
Daveon Curry,16,M-JV,60,60,130,150,-157.5,150,80,85,92.5,92.5,145,157.5,165,165,407.5,WDWARD,1,M,SBD,Single-ply
Tyler Volkey,16,M-JV,58.9,60,137.5,150,152.5,152.5,-80,80,-85,80,147.5,167.5,-175,167.5,400,WI DELLS,2,M,SBD,Single-ply
Quintin Evans,15,M-JV,59.5,60,135,142.5,-150,142.5,77.5,80,82.5,82.5,152.5,167.5,-182.5,167.5,392.5,CLRNDA,3,M,SBD,Single-ply
Jacob Pientok,16,M-JV,59.9,60,135,145,-150,145,75,80,85,85,145,-160,-165,145,375,WHTEHALL,4,M,SBD,Single-ply
TJ Medina,15,M-JV,59.3,60,117.5,127.5,132.5,132.5,75,85,-95,85,135,147.5,150,150,367.5,WDWARD,5,M,SBD,Single-ply
Benito Salazar,15,M-JV,58.8,60,130,135,-137.5,135,65,67.5,-72.5,67.5,-135,140,142.5,142.5,345,CRZO SPG,6,M,SBD,Single-ply
Ryan Schoenborn,16,M-JV,66.2,67.5,-175,175,185,185,102.5,107.5,110,110,182.5,197.5,-205,197.5,492.5,OSCLA,1,M,SBD,Single-ply
Kevante Jackson,16,M-JV,66.8,67.5,162.5,182.5,195,195,107.5,115,-125,115,167.5,182.5,-200,182.5,492.5,WDWARD,2,M,SBD,Single-ply
Joseph Mixis,15,M-JV,66.6,67.5,150,160,-170,160,95,100,-102.5,100,-160,172.5,187.5,187.5,447.5,RHNLDR,3,M,SBD,Single-ply
Jake Schnese,15,M-JV,62.8,67.5,152.5,160,-167.5,160,90,95,-100,95,160,167.5,172.5,172.5,427.5,APPLTN E,4,M,SBD,Single-ply
Alex Cramer,16,M-JV,66.3,67.5,150,157.5,-162.5,157.5,87.5,92.5,-95,92.5,162.5,167.5,175,175,425,S MILWKE,5,M,SBD,Single-ply
Anthony Stocker,16,M-JV,67.1,67.5,137.5,-155,155,155,87.5,97.5,-105,97.5,150,165,-177.5,165,417.5,WDWARD,6,M,SBD,Single-ply
Eugene Crabtree,14,M-JV,65.1,67.5,140,147.5,-157.5,147.5,72.5,80,85,85,157.5,165,180,180,412.5,NECEDAH,7,M,SBD,Single-ply
Daniel Bigalke,15,M-JV,65,67.5,140,152.5,162.5,162.5,67.5,77.5,-80,77.5,157.5,167.5,-185,167.5,407.5,WHTNALL,8,M,SBD,Single-ply
Chase Knudson,16,M-JV,63.5,67.5,155,-162.5,-162.5,155,65,70,-72.5,70,150,155,-157.5,155,380,HOLMEN,9,M,SBD,Single-ply
Dennis Fyksen,15,M-JV,66.1,67.5,-140,-140,-140,,95,100,-105,100,152.5,160,-167.5,160,,ADAMS,DQ,M,SBD,Single-ply
Chase Bjester,15,M-JV,67,67.5,-140,-140,-157.5,,,,,,,,,,,NECEDAH,DQ,M,SBD,Single-ply
Chris McCorker,15,M-JV,69.9,75,175,195,205,205,117.5,127.5,137.5,137.5,172.5,-190,192.5,192.5,535,WDWARD,1,M,SBD,Single-ply
Damian Gilchrist,16,M-JV,74.8,75,182.5,190,-195,190,120,-125,125,125,192.5,210,-222.5,210,525,CLRNDA,2,M,SBD,Single-ply
Dillon Blalock,16,MR-JV,72.4,75,150,172.5,-182.5,172.5,105,-120,-120,105,215,-230,-230,215,492.5,DG PND,3,M,SBD,Raw
Luke VandeWettering,15,M-JV,73.5,75,165,-175,-180,165,82.5,87.5,90,90,175,195,210,210,465,KAKNA,4,M,SBD,Single-ply
Dominic Duke,16,M-JV,73.6,75,157.5,170,-180,170,112.5,120,-125,120,162.5,175,-182.5,175,465,CLRNDA,5,M,SBD,Single-ply
Devin Dettmann,16,M-JV,69.2,75,162.5,-172.5,-175,162.5,102.5,110,115,115,185,-192.5,-197.5,185,462.5,S MILWKE,6,M,SBD,Single-ply
Gabriel Chapin,17,M-JV,69.8,75,167.5,177.5,-185,177.5,97.5,102.5,-110,102.5,182.5,-192.5,-195,182.5,462.5,OMRO,7,M,SBD,Single-ply
Jack Steinle,16,M-JV,74.4,75,147.5,-160,165,165,80,85,90,90,185,200,-205,200,455,MUHS,8,M,SBD,Single-ply
Jesse Vance,15,M-JV,72.3,75,155,-170,170,170,82.5,87.5,92.5,92.5,165,-182.5,190,190,452.5,WDSTCK,9,M,SBD,Single-ply
Andy Helein,15,M-JV,71.6,75,170,180,-187.5,180,82.5,85,90,90,-170,170,-195,170,440,SEYMOUR,10,M,SBD,Single-ply
Andrew Mader,15,M-JV,72.1,75,150,160,-167.5,160,70,75,82.5,82.5,147.5,162.5,187.5,187.5,430,SEYMOUR,11,M,SBD,Single-ply
Andrew Mohlenbrock,16,M-JV,73.9,75,137.5,147.5,-160,147.5,105,-115,-122.5,105,147.5,160,170,170,422.5,MARN-IL,12,M,SBD,Single-ply
Marc Flaherty,15,M-JV,71.5,75,155,177.5,-180,177.5,75,82.5,87.5,87.5,142.5,155,-165,155,420,SEYMOUR,13,M,SBD,Single-ply
Alex Walford,16,M-JV,73.8,75,127.5,135,-142.5,135,75,80,85,85,-162.5,182.5,-185,182.5,402.5,OOSTBRG,14,M,SBD,Single-ply
Jordan Kaiser,15,M-JV,72.3,75,-142.5,142.5,-160,142.5,70,77.5,-85,77.5,157.5,165,177.5,177.5,397.5,RVR FLLS,15,M,SBD,Single-ply
Travis Elam,15,M-JV,81.7,82.5,-205,205,-222.5,205,105,117.5,-122.5,117.5,192.5,202.5,207.5,207.5,530,HOLMEN,1,M,SBD,Single-ply
Travis McKinney,15,M-JV,77.1,82.5,-167.5,167.5,185,185,102.5,112.5,-117.5,112.5,195,207.5,217.5,217.5,515,IOLA SCAN,2,M,SBD,Single-ply
Caleb Frania,16,M-JV,75.1,82.5,172.5,-185,-192.5,172.5,-110,110,-117.5,110,200,220,-227.5,220,502.5,LAKESIDE,3,M,SBD,Single-ply
Salud Castillo,16,M-JV,79.9,82.5,165,182.5,195,195,92.5,102.5,112.5,112.5,172.5,190,195,195,502.5,WDWARD,4,M,SBD,Single-ply
Edward Lee,16,M-JV,82.5,82.5,175,-182.5,182.5,182.5,100,105,110,110,-200,200,-205,200,492.5,ADAMS,5,M,SBD,Single-ply
Trevor Stauner,16,M-JV,80.3,82.5,165,172.5,-177.5,172.5,117.5,122.5,127.5,127.5,-172.5,177.5,182.5,182.5,482.5,S MILWKE,6,M,SBD,Single-ply
Vincent Harrington,16,M-JV,81.3,82.5,155,167.5,-177.5,167.5,-100,100,-105,100,192.5,205,215,215,482.5,CLRNDA,7,M,SBD,Single-ply
Dirk Rigsby,16,M-JV,81.5,82.5,177.5,187.5,192.5,192.5,72.5,80,82.5,82.5,190,200,207.5,207.5,482.5,TOMAH,8,M,SBD,Single-ply
Nate Monteverde,15,M-JV,81.2,82.5,160,170,-177.5,170,87.5,92.5,-95,92.5,202.5,212.5,-227.5,212.5,475,OMRO,9,M,SBD,Single-ply
Dominic Olsen,15,M-JV,80.4,82.5,165,175,-182.5,175,92.5,97.5,-102.5,97.5,187.5,-205,-207.5,187.5,460,TOMAH,10,M,SBD,Single-ply
Zach Russell,16,M-JV,80.5,82.5,140,160,-172.5,160,107.5,120,-127.5,120,167.5,-180,-187.5,167.5,447.5,WDWARD,11,M,SBD,Single-ply
Colton Ver Voort,15,M-JV,77.3,82.5,-170,-170,170,170,82.5,87.5,92.5,92.5,170,180,-200,180,442.5,SEYMOUR,12,M,SBD,Single-ply
Logan Wagner,15,M-JV,81.8,82.5,155,167.5,-175,167.5,70,75,-80,75,165,172.5,-187.5,172.5,415,SEYMOUR,13,M,SBD,Single-ply
Garrett Volz,16,M-JV,80.8,82.5,-185,-197.5,-197.5,,95,97.5,105,105,147.5,-160,-160,147.5,,WI DELLS,DQ,M,SBD,Single-ply
Nicholas Marchant,15,M-JV,85.3,90,-205,205,220,220,110,125,135,135,210,235,-242.5,235,590,OAK CRK,1,M,SBD,Single-ply
Brad Dahm,16,M-JV,86.2,90,215,230,-240,230,87.5,90,-92.5,90,-205,205,215,215,535,WAUSAU E,2,M,SBD,Single-ply
Caleb Hunt,16,M-JV,88.5,90,162.5,170,-177.5,170,110,-115,117.5,117.5,-192.5,192.5,207.5,207.5,495,OMRO,3,M,SBD,Single-ply
Gunnar Mach,16,M-JV,89.4,90,187.5,202.5,-215,202.5,95,100,105,105,172.5,182.5,187.5,187.5,495,NECEDAH,4,M,SBD,Single-ply
Mark Spelman,16,M-JV,88.8,90,170,180,-185,180,97.5,102.5,-110,102.5,187.5,200,-212.5,200,482.5,MUHS,5,M,SBD,Single-ply
Joby Williams,16,M-JV,88.9,90,167.5,-187.5,-187.5,167.5,92.5,-100,-100,92.5,175,190,-200,190,450,WDWARD,6,M,SBD,Single-ply
Alex Long,16,M-JV,88.7,90,187.5,-210,-215,187.5,115,127.5,-132.5,127.5,-187.5,-205,-205,,,MARN-WI,DQ,M,SBD,Single-ply
Alex Hardy,15,M-JV,96.4,100,192.5,205,210,210,100,107.5,115,115,205,215,222.5,222.5,547.5,WHTEHALL,1,M,SBD,Single-ply
Nicholas Richlen,16,M-JV,90.2,100,215,225,-230,225,95,105,-112.5,105,185,-207.5,-207.5,185,515,MLWKE,2,M,SBD,Single-ply
Luke Doud,16,M-JV,97.7,100,182.5,205,215,215,-100,105,110,110,175,187.5,-197.5,187.5,512.5,E. CLR N,3,M,SBD,Single-ply
Ben Zimmer,15,M-JV,94.5,100,177.5,187.5,192.5,192.5,112.5,115,120,120,182.5,190,195,195,507.5,LUCONIA,4,M,SBD,Single-ply
Jamie Menchaca,16,M-JV,93.3,100,177.5,185,-195,185,-130,135,-140,135,175,182.5,-195,182.5,502.5,,5,M,SBD,Single-ply
Aaron Berg,16,M-JV,95.7,100,182.5,-197.5,-197.5,182.5,95,-110,110,110,185,205,-212.5,205,497.5,WHTEHALL,6,M,SBD,Single-ply
Caleb Densow,15,M-JV,92.5,100,170,180,-185,180,85,87.5,92.5,92.5,177.5,190,200,200,472.5,OOSTBRG,7,M,SBD,Single-ply
Sean Cuadros,14,M-JV,95,100,145,-170,172.5,172.5,90,-102.5,-102.5,90,182.5,-197.5,-197.5,182.5,445,LAKESIDE,8,M,SBD,Single-ply
Eric Davidson,16,M-JV,97.6,100,-207.5,-207.5,-207.5,,-140,142.5,-152.5,142.5,225,232.5,237.5,237.5,,APPLTN N,DQ,M,SBD,Single-ply
Bryan Green,16,M-JV,99.9,100,-207.5,-212.5,-212.5,,127.5,-140,-140,127.5,210,-217.5,-227.5,210,,NW RCHMD,DQ,M,SBD,Single-ply
Jacob Hardy,15,M-JV,105.8,110,195,-207.5,207.5,207.5,110,117.5,122.5,122.5,195,207.5,222.5,222.5,552.5,WHTNALL,1,M,SBD,Single-ply
Joe Beranek,15,M-JV,109,110,242.5,-255,255,255,77.5,82.5,-87.5,82.5,210,215,-220,215,552.5,HOLMEN,2,M,SBD,Single-ply
Anthony Rucker,16,M-JV,101,110,-165,-165,165,165,110,-120,120,120,197.5,215,227.5,227.5,512.5,CLRNDA,3,M,SBD,Single-ply
Isaiah Williams,16,M-JV,119.9,125,147.5,167.5,187.5,187.5,105,117.5,132.5,132.5,195,215,230,230,550,GREEN BAY,1,M,SBD,Single-ply
Jared Brandt,17,M-JV,111.3,125,182.5,192.5,205,205,102.5,107.5,-115,107.5,200,215,222.5,222.5,535,CLRNDA,2,M,SBD,Single-ply
Ramiro Carillo,16,M-JV,110.3,125,182.5,-192.5,200,200,117.5,125,137.5,137.5,167.5,175,185,185,522.5,CLRNDA,3,M,SBD,Single-ply
Dylan Stefanec,15,M-JV,115,125,175,182.5,192.5,192.5,120,130,137.5,137.5,167.5,177.5,187.5,187.5,517.5,S MILWKE,4,M,SBD,Single-ply
Andy Askow,15,M-JV,128.7,125+,220,237.5,257.5,257.5,120,127.5,140,140,195,217.5,230,230,627.5,NECEDAH,1,M,SBD,Single-ply
Nate McCoole,15,M-JV,154.8,125+,142.5,165,182.5,182.5,160,175,-180,175,220,230,245,245,602.5,LND O LKS,2,M,SBD,Single-ply
Alex Rood,16,M-JV,139.9,125+,225,-250,250,250,-125,127.5,-137.5,127.5,205,-227.5,-235,205,582.5,LACRSCNT,3,M,SBD,Single-ply
Christopher Nicolai,15,M-JV,154.8,125+,215,-230,235,235,122.5,-130,-130,122.5,192.5,205,215,215,572.5,BANGOR,4,M,SBD,Single-ply
Brandon Farley,16,M-JV,128.8,125+,185,192.5,220,220,-120,125,-147.5,125,205,220,-245,220,565,CLRNDA,5,M,SBD,Single-ply
Kyle Nelson,15,M-V,51.2,52,147.5,160,-167.5,160,70,75,77.5,77.5,142.5,157.5,177.5,177.5,415,E. CLR N,1,M,SBD,Single-ply
Keng Xiong,17,M-V,51.1,52,-145,150,160,160,-82.5,87.5,92.5,92.5,142.5,155,160,160,412.5,WHTNALL,2,M,SBD,Single-ply
Anthony Sanchez,17,M-V,50.2,52,105,-120,-120,105,67.5,77.5,80,80,122.5,135,-145,135,320,GLN MILLS,3,M,SBD,Single-ply
Taylor Kilgas,17,M-V,51.1,52,107.5,110,-120,110,60,70,-72.5,70,120,-135,135,135,315,KAKNA,4,M,SBD,Single-ply
Christopher McCutchen,17,M-V,50.9,52,100,117.5,122.5,122.5,-62.5,62.5,-67.5,62.5,105,-120,120,120,305,GLN MILLS,5,M,SBD,Single-ply
Hermes Almodovar,15,M-V,51,52,112.5,122.5,-130,122.5,55,-62.5,-62.5,55,-110,110,122.5,122.5,300,GLN MILLS,6,M,SBD,Single-ply
Garth Sullivan,18,M-V,56,56,147.5,160,-170,160,102.5,112.5,122.5,122.5,-170,-170,170,170,452.5,DLHI CHTR,1,M,SBD,Single-ply
Eric D'Oro,17,M-V,55.5,56,150,-165,167.5,167.5,87.5,97.5,-102.5,97.5,160,175,-187.5,175,440,N POCNO,2,M,SBD,Single-ply
Dontae Murray,16,M-V,55.8,56,-117.5,117.5,-130,117.5,72.5,80,-87.5,80,145,160,170,170,367.5,GLN MILLS,3,M,SBD,Single-ply
Levi Meyer,18,M-V,55.9,56,-92.5,95,-105,95,97.5,105,110,110,140,152.5,162.5,162.5,367.5,HALLAM,4,M,SBD,Single-ply
Denzel Brown,17,M-V,55.5,56,112.5,127.5,-132.5,127.5,62.5,67.5,70,70,142.5,162.5,-170,162.5,360,GLN MILLS,5,M,SBD,Single-ply
Matthew Malczewski,17,M-V,55.1,56,-137.5,-140,-140,,,,,,,,,,,WNNCNN,DQ,M,SBD,Single-ply
Jimmy Fairchild,18,M-V,58.9,60,155,165,170,170,-125,-125,125,125,197.5,205,210,210,505,CRS LEX,1,M,SBD,Single-ply
DeMario Nealy,17,M-V,58.2,60,160,180,185,185,80,87.5,92.5,92.5,177.5,197.5,-232.5,197.5,475,PWRS CTH,2,M,SBD,Single-ply
Alex Brettingen,18,M-V,59.3,60,170,182.5,-192.5,182.5,105,-110,-110,105,172.5,185,-190,185,472.5,RVR FLLS,3,M,SBD,Single-ply
Ronald Hardy,17,M-V,59.8,60,145,-162.5,170,170,75,90,95,95,135,172.5,187.5,187.5,452.5,GLN MILLS,4,M,SBD,Single-ply
Daiquan Reams,14,M-V,58.8,60,132.5,152.5,165,165,80,92.5,100,100,142.5,180,-192.5,180,445,GLN MILLS,5,M,SBD,Single-ply
Justin Flowers,18,M-V,59.8,60,150,-160,-165,150,-102.5,115,-125,115,177.5,-190,-195,177.5,442.5,INLND LKS,6,M,SBD,Single-ply
Zachary Manney,17,M-V,59.2,60,152.5,165,-182.5,165,85,92.5,-95,92.5,152.5,165,180,180,437.5,ALTOONA,7,M,SBD,Single-ply
Jon Patratz,18,M-V,59.5,60,-157.5,162.5,172.5,172.5,80,-85,-85,80,182.5,-190,-192.5,182.5,435,OMRO,8,M,SBD,Single-ply
Brent Montpetit,16,M-V,59.3,60,147.5,155,162.5,162.5,80,85,-90,85,175,182.5,-195,182.5,430,RVR FLLS,9,M,SBD,Single-ply
Adam Hoff,18,M-V,58.8,60,135,-145,-145,135,100,107.5,110,110,172.5,182.5,-185,182.5,427.5,ETTRICK,10,M,SBD,Single-ply
Nick Dubiel,17,M-V,59.4,60,140,150,-152.5,150,75,-82.5,82.5,82.5,165,180,-190,180,412.5,PWRS CTH,11,M,SBD,Single-ply
Mason Nelson,18,M-V,59,60,135,-145,-155,135,85,97.5,102.5,102.5,152.5,167.5,172.5,172.5,410,ST CROIX,12,M,SBD,Single-ply
Steve Searles,15,M-V,59.3,60,-145,145,-157.5,145,80,87.5,-92.5,87.5,147.5,-167.5,-167.5,147.5,380,NEENAH,13,M,SBD,Single-ply
Josh Lemienx,17,M-V,59.4,60,-125,125,142.5,142.5,72.5,-77.5,-77.5,72.5,145,160,-165,160,375,GET,14,M,SBD,Single-ply
Marvin Labe,17,M-V,59.6,60,-112.5,112.5,127.5,127.5,70,75,-80,75,155,165,-180,165,367.5,MUHS,15,M,SBD,Single-ply
Jonathan Lang #1,18,M-V,67.2,67.5,235,245,260,260,-132.5,132.5,145,145,210,222.5,-232.5,222.5,627.5,NEENAH,1,M,SBD,Single-ply
Jason Rupnow,17,M-V,65.9,67.5,-200,-200,205,205,-125,127.5,132.5,132.5,210,222.5,-235,222.5,560,NEENAH,2,M,SBD,Single-ply
Danny Nelson,18,M-V,65.9,67.5,177.5,200,202.5,202.5,95,107.5,110,110,175,200,217.5,217.5,530,GLN MILLS,3,M,SBD,Single-ply
Russel Oyler,17,M-V,65.8,67.5,175,195,-200,195,107.5,115,117.5,117.5,205,215,-220,215,527.5,NAMPA,4,M,SBD,Single-ply
Josh Miller,17,M-V,67.1,67.5,205,210,212.5,212.5,105,-110,110,110,190,200,-210,200,522.5,S MILWKE,5,M,SBD,Single-ply
Ryan Lepkowski,17,M-V,64.5,67.5,185,195,202.5,202.5,110,120,-127.5,120,180,192.5,-200,192.5,515,WHTNALL,6,M,SBD,Single-ply
Jimmy Steinhorst,18,M-V,65.7,67.5,182.5,-187.5,-187.5,182.5,110,117.5,122.5,122.5,195,202.5,-217.5,202.5,507.5,WI DELLS,7,M,SBD,Single-ply
Tranard Powell,17,M-V,67.2,67.5,-170,170,185,185,110,-117.5,-117.5,110,-205,205,-230,205,500,WDWARD,8,M,SBD,Single-ply
Brandon Armatoski,17,M-V,67.2,67.5,-157.5,157.5,170,170,117.5,125,130,130,170,185,195,195,495,SEYMOUR,9,M,SBD,Single-ply
Landon Kaiser,18,M-V,66.2,67.5,175,-185,-185,175,102.5,-105,-105,102.5,212.5,-225,-225,212.5,490,RVR FLLS,10,M,SBD,Single-ply
Kalif Mapp,16,M-V,66.6,67.5,165,-185,-192.5,165,82.5,95,-105,95,197.5,215,-230,215,475,GLN MILLS,11,M,SBD,Single-ply
Jack Mui,17,M-V,66.1,67.5,167.5,-177.5,182.5,182.5,75,80,-82.5,80,192.5,-202.5,207.5,207.5,470,NEENAH,12,M,SBD,Single-ply
Erik Reyes,18,M-V,66.1,67.5,-150,-167.5,167.5,167.5,95,-110,-110,95,150,177.5,185,185,447.5,LWSTN,13,M,SBD,Single-ply
Bruce Hensley,17,M-V,65.8,67.5,-102.5,-102.5,-102.5,,77.5,-92.5,-97.5,77.5,122.5,140,-165,140,,GRG WASH,DQ,M,SBD,Single-ply
Sam Ziemke,17,M-V,66.7,67.5,-172.5,-172.5,-172.5,,-87.5,-87.5,87.5,87.5,190,195,-202.5,195,,NEENAH,DQ,M,SBD,Single-ply
Michael Stencler,18,M-V,65.9,67.5,-142.5,142.5,-150,142.5,-132.5,-132.5,-132.5,,182.5,185,-202.5,185,,PNNRDG,DQ,M,SBD,Single-ply
Alex Peters,15,M-V,67.1,67.5,-185,-185,185,185,102.5,-110,-110,102.5,-187.5,-205,-205,,,BANGOR,DQ,M,SBD,Single-ply
Charles McDonald,15,M-V,71.2,75,240,260,-272.5,260,112.5,-125,-125,112.5,227.5,250,-255,250,622.5,NEENAH,1,M,SBD,Single-ply
Rodney Thomas,17,M-V,73.6,75,182.5,200,-210,200,125,135,142.5,142.5,215,230,-255,230,572.5,GLN MILLS,2,M,SBD,Single-ply
Alex Dellis,17,M-V,70.9,75,187.5,200,-210,200,120,130,137.5,137.5,195,207.5,215,215,552.5,WHTNALL,3,M,SBD,Single-ply
David Moll,17,M-V,74.6,75,-195,200,-205,200,120,130,135,135,195,212.5,-220,212.5,547.5,KAKNA,4,M,SBD,Single-ply
Dan Keller,18,M-V,72.9,75,200,-215,-215,200,-102.5,102.5,110,110,212.5,225,232.5,232.5,542.5,RVR FLLS,5,M,SBD,Single-ply
PJ Tutor,16,M-V,73.1,75,165,175,-187.5,175,107.5,112.5,-115,112.5,215,232.5,-245,232.5,520,ASHLAND,6,M,SBD,Single-ply
Malik Gaddy,17,M-V,73.2,75,-182.5,182.5,-205,182.5,110,-125,-125,110,202.5,227.5,-252.5,227.5,520,GLN MILLS,7,M,SBD,Single-ply
Daniel Wahl,16,M-V,73.3,75,180,190,-200,190,102.5,110,115,115,197.5,210,-217.5,210,515,WHTNALL,8,M,SBD,Single-ply
Aaron Schovick,19,M-V,72.9,75,195,205,-210,205,87.5,-92.5,-92.5,87.5,195,207.5,215,215,507.5,PHLLPS,9,M,SBD,Single-ply
Fred Price-Booker,18,M-V,72,75,197.5,202.5,-207.5,202.5,102.5,110,-112.5,110,-177.5,177.5,-197.5,177.5,490,NEENAH,10,M,SBD,Single-ply
Tyler Weich,17,M-V,70.6,75,-202.5,-202.5,-202.5,,-102.5,102.5,-110,102.5,-175,175,-190,175,,TEAM ID,DQ,M,SBD,Single-ply
Chris Hilkemeier,18,M-V,74,75,185,-192.5,-192.5,185,125,132.5,-137.5,132.5,-207.5,-207.5,-207.5,,,WHTNALL,DQ,M,SBD,Single-ply
Sam Schouten,16,M-V,73.3,75,180,192.5,-205,192.5,100,107.5,112.5,112.5,-220,-222.5,-232.5,,,OOSTBRG,DQ,M,SBD,Single-ply
Jesse Norris,16,M-V,81.9,82.5,305,317.5,,317.5,155,165,170,170,-282.5,282.5,-300,282.5,770,TEAM ID,1,M,SBD,Single-ply
Sean Graham,18,M-V,81,82.5,252.5,262.5,272.5,272.5,137.5,147.5,-155,147.5,250,262.5,-267.5,262.5,682.5,WHTNALL,2,M,SBD,Single-ply
Leonardo Johnson,15,M-V,79.1,82.5,-195,-195,195,195,115,132.5,140,140,215,235,242.5,242.5,577.5,GLN MILLS,3,M,SBD,Single-ply
Jordan Clark #1,17,M-V,81.4,82.5,210,227.5,-235,227.5,-125,-125,125,125,210,225,-235,225,577.5,E. CLR N,4,M,SBD,Single-ply
Steve Peters,18,M-V,80.5,82.5,215,230,-235,230,120,125,-130,125,220,-227.5,-227.5,220,575,BANGOR,5,M,SBD,Single-ply
Trevor Rystrom,17,M-V,81.9,82.5,212.5,222.5,232.5,232.5,102.5,110,-112.5,110,205,215,220,220,562.5,RVR FLLS,6,M,SBD,Single-ply
Joseph Harkins,17,M-V,78.2,82.5,182.5,195,-200,195,100,-110,110,110,190,215,-222.5,215,520,PWRS CTH,7,M,SBD,Single-ply
Tim Coenen,17,M-V,79.1,82.5,180,-195,195,195,97.5,107.5,-112.5,107.5,195,200,215,215,517.5,NEENAH,8,M,SBD,Single-ply
Jacob Anderson,17,M-V,80,82.5,177.5,-187.5,-187.5,177.5,120,125,-127.5,125,205,212.5,-217.5,212.5,515,RVR FLLS,9,M,SBD,Single-ply
Evan Huppert,17,M-V,80.7,82.5,177.5,-185,185,185,-95,95,102.5,102.5,220,-232.5,-232.5,220,507.5,RVR FLLS,10,M,SBD,Single-ply
Charles Taylor,18,M-V,80.4,82.5,192.5,-212.5,-212.5,192.5,-95,-95,95,95,192.5,210,-227.5,210,497.5,GLN MILLS,11,M,SBD,Single-ply
Austin Miller #4,17,M-V,80.3,82.5,192.5,-212.5,-212.5,192.5,110,-127.5,-127.5,110,185,-197.5,-197.5,185,487.5,HOLMEN,12,M,SBD,Single-ply
Shane Avender,19,M-V,79.8,82.5,142.5,-150,150,150,-132.5,132.5,-137.5,132.5,-192.5,192.5,202.5,202.5,485,PNNRDG,13,M,SBD,Single-ply
Riley Simmons,18,M-V,81.6,82.5,205,215,-220,215,110,-112.5,-130,110,-230,-230,-230,,,WAUSAU E,DQ,M,SBD,Single-ply
Mark Beascochea,17,M-V,88.3,90,260,280,-290,280,-175,175,195,195,217.5,-232.5,232.5,232.5,707.5,WDWARD,1,M,SBD,Single-ply
Trever Foss,18,M-V,89,90,-262.5,262.5,-275,262.5,142.5,152.5,-162.5,152.5,265,-275,-275,265,680,OSCLA,2,M,SBD,Single-ply
Dylan Schnese,17,M-V,88.5,90,222.5,237.5,242.5,242.5,125,145,150,150,210,222.5,232.5,232.5,625,APPLTN E,3,M,SBD,Single-ply
Deandre Robinson,17,M-V,88.4,90,192.5,215,227.5,227.5,122.5,137.5,142.5,142.5,207.5,230,-255,230,600,GLN MILLS,4,M,SBD,Single-ply
James Foster,17,M-V,86.2,90,192.5,215,227.5,227.5,130,-142.5,142.5,142.5,197.5,210,-255,210,580,GLN MILLS,5,M,SBD,Single-ply
Derrick Bowman,18,M-V,89.3,90,185,207.5,215,215,112.5,127.5,-137.5,127.5,192.5,215,237.5,237.5,580,GLN MILLS,6,M,SBD,Single-ply
Casey Peterson,18,M-V,84,90,-217.5,-217.5,217.5,217.5,150,-157.5,-157.5,150,185,197.5,210,210,577.5,TEAM ID,7,M,SBD,Single-ply
Taylor Lanthorn,17,M-V,84.2,90,177.5,187.5,-197.5,187.5,132.5,140,-142.5,140,212.5,227.5,-230,227.5,555,ELZTHTN,8,M,SBD,Single-ply
Quentin Zeroth,17,M-V,89.4,90,192.5,215,-220,215,107.5,-115,-115,107.5,202.5,215,-222.5,215,537.5,RVR FLLS,9,M,SBD,Single-ply
Ron Pezze,17,M-V,88.5,90,192.5,207.5,215,215,97.5,105,-110,105,200,215,-220,215,535,MUHS,10,M,SBD,Single-ply
Micah Ruf,17,M-V,87.5,90,192.5,197.5,-205,197.5,120,125,-127.5,125,197.5,207.5,-217.5,207.5,530,BLOOMER,11,M,SBD,Single-ply
Cody Halpin,18,M-V,87.8,90,185,192.5,-197.5,192.5,107.5,112.5,-117.5,112.5,225,-245,-252.5,225,530,LOYAL,12,M,SBD,Single-ply
Zach Baehman,17,M-V,89.7,90,180,187.5,-192.5,187.5,-132.5,-132.5,-132.5,,205,-227.5,-227.5,205,,OMRO,DQ,M,SBD,Single-ply
Ryan Miesbauer,18,M-V,95.4,100,250,262.5,275,275,157.5,170,175,175,217.5,237.5,250,250,700,NRTHWSTR,1,M,SBD,Single-ply
Jonathon Mayes,19,M-V,94.4,100,245,257.5,-270,257.5,145,152.5,-155,152.5,245,257.5,-272.5,257.5,667.5,PNNRDG,2,M,SBD,Single-ply
Clyde Beatty,19,M-V,97.7,100,-210,210,240,240,135,152.5,165,165,232.5,260,-275,260,665,GLN MILLS,4,M,SBD,Single-ply
Damon Ryan,18,M-V,91.2,100,-235,235,260,260,142.5,150,-165,150,237.5,255,-265,255,665,LACROSSE,3,M,SBD,Single-ply
Kyle Kranzusch,18,M-V,91.2,100,230,245,-260,245,135,140,145,145,227.5,250,262.5,262.5,652.5,SEYMOUR,5,M,SBD,Single-ply
Austin Russett,18,M-V,97.7,100,227.5,237.5,-247.5,237.5,-167.5,167.5,-175,167.5,247.5,-260,-260,247.5,652.5,INDEP.,6,M,SBD,Single-ply
Steve Bennett #1,19,M-V,90.3,100,205,217.5,227.5,227.5,147.5,157.5,-162.5,157.5,225,250,-252.5,250,635,HERSHEY,7,M,SBD,Single-ply
Chris Mason #3,18,M-V,96.4,100,215,222.5,227.5,227.5,147.5,155,162.5,162.5,240,-245,245,245,635,,8,M,SBD,Single-ply
Jared Prilepp,17,M-V,99.4,100,-222.5,-222.5,222.5,222.5,155,160,167.5,167.5,225,237.5,-245,237.5,627.5,SEYMOUR,9,M,SBD,Single-ply
Kyle Holzem,16,M-V,91.8,100,-240,240,-262.5,240,130,-142.5,142.5,142.5,-237.5,240,-272.5,240,622.5,WI DELLS,10,M,SBD,Single-ply
Robert Sims,18,M-V,99.5,100,210,240,-250,240,190,-205,-205,190,170,185,-197.5,185,615,FT PAYNE,11,M,SBD,Single-ply
Ethan Krause,17,M-V,96,100,-250,250,-272.5,250,137.5,147.5,-160,147.5,195,205,210,210,607.5,NECEDAH,12,M,SBD,Single-ply
Ryan Murphy #8,16,M-V,95.3,100,205,217.5,-232.5,217.5,125,137.5,-140,137.5,217.5,230,245,245,600,SPOONER,13,M,SBD,Single-ply
Tyler Wirth,18,M-V,99.7,100,190,202.5,215,215,125,137.5,140,140,190,222.5,227.5,227.5,582.5,CLR LAKE,14,M,SBD,Single-ply
Ben Peterson,17,M-V,94.2,100,-210,210,220,220,92.5,-130,130,130,217.5,-225,-230,217.5,567.5,OSCLA,15,M,SBD,Single-ply
Moe Pensak,18,M-V,94.9,100,197.5,-212.5,-225,197.5,137.5,-142.5,142.5,142.5,192.5,215,227.5,227.5,567.5,ABDTN HT,16,M,SBD,Single-ply
Brock Erickson,18,M-V,98.4,100,200,220,-227.5,220,87.5,102.5,-107.5,102.5,225,-237.5,237.5,237.5,560,GET,17,M,SBD,Single-ply
Bryce Hintz,17,M-V,99.6,100,195,-205,210,210,107.5,120,-130,120,230,-245,-252.5,230,560,WAUSAU E,18,M,SBD,Single-ply
Jordan Peterson,19,M-V,98.8,100,230,-237.5,237.5,237.5,142.5,-147.5,147.5,147.5,-235,-235,-235,,,MRKSN,DQ,M,SBD,Single-ply
Nathan Marshall,17,M-V,108.7,110,292.5,307.5,317.5,317.5,152.5,162.5,172.5,172.5,250,262.5,-272.5,262.5,752.5,WHTNALL,1,M,SBD,Single-ply
Cris Tillman,18,M-V,107.2,110,260,-272.5,-277.5,260,142.5,-150,-150,142.5,262.5,-287.5,-287.5,262.5,665,OSHKSH,2,M,SBD,Single-ply
Kyrell Alonzo,16,M-V,100.5,110,210,232.5,247.5,247.5,115,127.5,132.5,132.5,-210,210,240,240,620,GLN MILLS,3,M,SBD,Single-ply
Kevin Thompson,18,M-V,109.1,110,-210,210,-242.5,210,110,-160,160,160,-230,250,-265,250,620,FT PAYNE,4,M,SBD,Single-ply
John Wulterkens,16,M-V,103.4,110,247.5,-262.5,-267.5,247.5,-140,-140,140,140,222.5,-237.5,-247.5,222.5,610,APPLTN N,5,M,SBD,Single-ply
Carsten Floor,18,M-V,109.5,110,220,235,-242.5,235,125,-132.5,132.5,132.5,-220,220,232.5,232.5,600,TEAM ID,6,M,SBD,Single-ply
Adam Noe,17,M-V,105.2,110,215,225,-235,225,125,-135,135,135,220,230,-250,230,590,WI RPDS,7,M,SBD,Single-ply
Bill Byron,17,M-V,107.1,110,185,205,-225,205,150,-162.5,162.5,162.5,200,220,-245,220,587.5,ABDTN HT,8,M,SBD,Single-ply
Rolique Laury,16,M-V,100.5,110,197.5,207.5,-227.5,207.5,120,125,135,135,207.5,237.5,-272.5,237.5,580,GLN MILLS,9,M,SBD,Single-ply
Aaron Respes,18,M-V,110.8,125,227.5,245,262.5,262.5,140,150,-165,150,210,220,235,235,647.5,GLN MILLS,1,M,SBD,Single-ply
Kit Conrad,18,M-V,123.5,125,-257.5,257.5,-272.5,257.5,125,-137.5,-137.5,125,227.5,240,-247.5,240,622.5,WI DELLS,2,M,SBD,Single-ply
John Vercauteren,17,M-V,124.4,125,215,227.5,-237.5,227.5,160,175,-177.5,175,205,-217.5,217.5,217.5,620,SVSTPL,3,M,SBD,Single-ply
Andrew Deptula,16,M-V,112.4,125,232.5,-242.5,242.5,242.5,107.5,112.5,-115,112.5,205,215,225,225,580,OAK CRK,4,M,SBD,Single-ply
Donald Carufel,16,M-V,118.1,125,215,227.5,232.5,232.5,122.5,130,-140,130,192.5,-202.5,207.5,207.5,570,OSCLA,5,M,SBD,Single-ply
Bryan McGaw,17,M-V,120.5,125,202.5,212.5,222.5,222.5,137.5,145,-150,145,182.5,-202.5,202.5,202.5,570,HERSHEY,6,M,SBD,Single-ply
Dylan Stainbrook,17,M-V,122.5,125,202.5,210,-222.5,210,-122.5,122.5,-137.5,122.5,192.5,210,-217.5,210,542.5,NECEDAH,7,M,SBD,Single-ply
Matt Grutza,15,M-V,110.3,125,250,-272.5,-272.5,250,125,137.5,140,140,-220,-220,-220,,,WI DELLS,DQ,M,SBD,Single-ply
Zach Tamblyn,18,M-V,146.1,125+,262.5,285,-317.5,285,152.5,167.5,-177.5,167.5,247.5,267.5,280,280,732.5,WTRFRD,1,M,SBD,Single-ply
Spencer Beale,17,M-V,140.3,125+,242.5,-270,-270,242.5,165,-175,-175,165,212.5,240,252.5,252.5,660,TEAM ID,2,M,SBD,Single-ply
Aaron Marquardt,15,M-V,132.8,125+,-272.5,290,-305,290,152.5,162.5,-177.5,162.5,205,-227.5,-227.5,205,657.5,E. CLR N,3,M,SBD,Single-ply
Nick Rawson,18,M-V,131.7,125+,247.5,-262.5,-262.5,247.5,125,130,-132.5,130,-277.5,277.5,-282.5,277.5,655,MUHS,4,M,SBD,Single-ply
Chris Lane #3,16,M-V,139.9,125+,240,257.5,-270,257.5,137.5,145,150,150,182.5,197.5,212.5,212.5,620,HERSHEY,5,M,SBD,Single-ply
Jamarius Jones,17,M-V,138.7,125+,197.5,210,222.5,222.5,117.5,-122.5,130,130,192.5,210,-242.5,210,562.5,GLN MILLS,6,M,SBD,Single-ply
Paul Gaskill,18,M-V,133.3,125+,-192.5,192.5,220,220,-115,115,130,130,192.5,207.5,-222.5,207.5,557.5,GLN MILLS,7,M,SBD,Single-ply
Jeffrey Mielke,17,M-V,143.8,125+,210,237.5,-247.5,237.5,97.5,105,-112.5,105,185,210,-215,210,552.5,TEAM ID,8,M,SBD,Single-ply
Matt Greengrass,17,M-V,130,125+,-270,270,-285,270,125,130,-135,130,-247.5,-247.5,-247.5,,,OAK CRK,DQ,M,SBD,Single-ply
