Place,Name,BirthDate,Team,BodyweightKg,WeightClassKg,Best3SquatKg,Best3BenchKg,Best3DeadliftKg,TotalKg,Sex,Division,Event,Equipment
1,Sakshi,1998-03-02,UP,42.1,43,80,42.5,102.5,225,F,Juniors,SBD,Single-ply
2,K. Sree Lakshmi,1996-10-11,AP,42.5,43,80,42.5,92.5,215,F,Juniors,SBD,Single-ply
3,Pooja,1999-08-12,HAR,43,43,55,30,80,165,F,Juniors,SBD,Single-ply
DQ,Pranali Shinde,1998-01-01,MAH,41.15,43,,,,,F,Juniors,SBD,Single-ply
1,Bijilee Bag,1995-08-13,CHAT,46.95,47,130,75,127.5,332.5,F,Juniors,SBD,Single-ply
2,Sita,1997-12-28,HAR,47,47,127.5,50,142.5,320,F,Juniors,SBD,Single-ply
3,V Mohanapriya,1998-09-19,TN,45.85,47,120,42.5,127.5,290,F,Juniors,SBD,Single-ply
4,K. Elakkiya,1999-04-18,TN,46.3,47,115,52.5,115,282.5,F,Juniors,SBD,Single-ply
5,Sushmita Deshmukh,1999-11-06,MAH,46.05,47,90,60,120,270,F,Juniors,SBD,Single-ply
6,Santosh Godara,2001-07-22,RAJ,46.75,47,85,35,100,220,F,Juniors,SBD,Single-ply
7,Palak Aggarwal,1998-07-30,PUN,46.95,47,92.5,42.5,85,220,F,Juniors,SBD,Single-ply
8,M Srivani,2000-06-16,TEL,47,47,80,30,105,215,F,Juniors,SBD,Single-ply
9,Prabhleen Kaur,1998-06-25,DEL,47,47,67.5,30,95,192.5,F,Juniors,SBD,Single-ply
DQ,Jadav Jyotikaben,1999-09-21,GUJ,44.5,47,,,,,F,Juniors,SBD,Single-ply
1,Suman Devi,1997-06-20,HAR,51.95,52,167.5,88,165,420.5,F,Juniors,SBD,Single-ply
2,K. Bharathi,1997-07-23,TN,51.6,52,142.5,65,150,357.5,F,Juniors,SBD,Single-ply
3,R. Poorna,1998-12-10,AP,51.8,52,140,62.5,147.5,350,F,Juniors,SBD,Single-ply
4,Tejashri Bhagat,1999-05-21,MAH,47.3,52,135,75,135,345,F,Juniors,SBD,Single-ply
5,Rupinder Jeet Kaur,1996-09-05,PUN,51.5,52,130,72.5,120,322.5,F,Juniors,SBD,Single-ply
6,Preethika D,1998-01-18,KTK,52,52,112.5,40,127.5,280,F,Juniors,SBD,Single-ply
7,Kanchan Swami,1999-08-01,RAJ,51.6,52,95,45,110,250,F,Juniors,SBD,Single-ply
DQ,Chhaya,1999-06-30,DEL,47.95,52,120,,,,F,Juniors,SBD,Single-ply
1,Manisha,1997-12-19,HAR,56.1,57,150,82.5,172.5,405,F,Juniors,SBD,Single-ply
2,Reshma Devi,2000-03-10,HAR,57,57,165,65,165,395,F,Juniors,SBD,Single-ply
3,Mamta Rajak,1999-10-04,CHAT,52.5,57,150,70,155,375,F,Juniors,SBD,Single-ply
4,V Vishali,1996-02-27,TN,56.9,57,145,67.5,130,342.5,F,Juniors,SBD,Single-ply
5,I. Akshaya,1998-06-05,PUD,55.55,57,150,60,120,330,F,Juniors,SBD,Single-ply
6,Jyothi Lakshmi,1997-02-05,KER,54.8,57,127.5,60,130,317.5,F,Juniors,SBD,Single-ply
7,Narbada Sen,1998-07-05,RAJ,53.5,57,110,55,130,295,F,Juniors,SBD,Single-ply
8,Parveen Kaur,1996-08-13,PUN,54.5,57,110,42.5,125,277.5,F,Juniors,SBD,Single-ply
9,Jyoti Singh,1997-01-01,UP,56.9,57,100,52.5,117.5,270,F,Juniors,SBD,Single-ply
10,Neethu Shree Das,2001-11-19,TEL,54.2,57,95,37.5,117.5,250,F,Juniors,SBD,Single-ply
11,Neethu M S,1997-05-08,KER,56.2,57,90,40,110,240,F,Juniors,SBD,Single-ply
1,Aswini Suresh T,1997-05-23,KER,60.1,63,162.5,77.5,180,420,F,Juniors,SBD,Single-ply
2,Muskan Vatsas,1998-11-12,RAJ,61.8,63,160,92.5,160,412.5,F,Juniors,SBD,Single-ply
3,Manju Rani,1999-12-27,HAR,61,63,160,82.5,145,387.5,F,Juniors,SBD,Single-ply
4,Neenu Varghese,1995-06-18,KER,62.6,63,172.5,72.5,130,375,F,Juniors,SBD,Single-ply
5,Anshu Rani,1998-06-23,PUN,61.9,63,142.5,70,135,347.5,F,Juniors,SBD,Single-ply
6,Hritvika Sardesai,2000-03-31,MAH,61.95,63,135,60,140,335,F,Juniors,SBD,Single-ply
7,Neha Nene,1998-05-12,MAH,60.75,63,110,57.5,132.5,300,F,Juniors,SBD,Single-ply
8,Nagashree,2001-03-12,KTK,61.15,63,120,55,115,290,F,Juniors,SBD,Single-ply
9,N. Supriya,2001-05-25,TEL,62.3,63,125,40,110,275,F,Juniors,SBD,Single-ply
DQ,S. Loga Priya,2000-04-07,TN,57.2,63,135,,,,F,Juniors,SBD,Single-ply
DQ,Priya M,1996-07-12,TN,61.1,63,,,,,F,Juniors,SBD,Single-ply
DQ,Sk. Nageena,1997-03-24,AP,62.45,63,,,,,F,Juniors,SBD,Single-ply
1,Aswathi C,1999-10-02,KER,70.95,72,175,67.5,150,392.5,F,Juniors,SBD,Single-ply
2,Ruby,1998-06-03,PUN,70.6,72,150,77.5,140,367.5,F,Juniors,SBD,Single-ply
3,M Saloome,1997-06-08,AP,71.2,72,165,55,145,365,F,Juniors,SBD,Single-ply
4,Prajakta Siddart Tambe,1999-01-26,MAH,71.05,72,152.5,72.5,130,355,F,Juniors,SBD,Single-ply
5,Arya Goswami,1999-11-20,CHAT,67.6,72,100,45,100,245,F,Juniors,SBD,Single-ply
6,Nisha,1999-12-15,HAR,63.5,72,85,45,110,240,F,Juniors,SBD,Single-ply
DQ,Sonam Rajpoot,1995-03-30,UP,68.15,72,,,,,F,Juniors,SBD,Single-ply
1,Ramya Pandian,1996-07-12,T N,83.45,84,177.5,97.5,172.5,447.5,F,Juniors,SBD,Single-ply
2,Murchana Saharia,1997-01-17,ASM,82.45,84,170,80,165,415,F,Juniors,SBD,Single-ply
3,Sumanpreet Kaur,1997-09-24,PUN,84,84,160,97.5,155,412.5,F,Juniors,SBD,Single-ply
4,Usha S. R,2000-08-21,KTK,81.1,84,150,70,155,375,F,Juniors,SBD,Single-ply
5,Shrutika Mathur,1996-07-31,RAJ,75.6,84,130,72.5,147.5,350,F,Juniors,SBD,Single-ply
6,Vandhana Shaji,1997-05-30,KER,78.9,84,135,60,120,315,F,Juniors,SBD,Single-ply
7,Rashmi Kapoor,1997-11-11,M P,81.15,84,125,37.5,125,287.5,F,Juniors,SBD,Single-ply
8,Ch Nirupama,1997-11-10,A P,73.85,84,100,42.5,100,242.5,F,Juniors,SBD,Single-ply
9,Anila Shaju,1998-01-31,KER,74.2,84,92.5,35,100,227.5,F,Juniors,SBD,Single-ply
10,Smriti Kashyap,1999-03-15,U P,75.4,84,80,40,90,210,F,Juniors,SBD,Single-ply
11,Ch Lalitha,2001-03-15,TEL,72.1,84,75,35,95,205,F,Juniors,SBD,Single-ply
DQ,Tapsya Kole,1995-07-01,MAH,81.2,84,,,,,F,Juniors,SBD,Single-ply
1,Lephina D'Souza,1999-06-06,KER,100.1,84+,235,105,185,525,F,Juniors,SBD,Single-ply
2,P Nishanthi,2001-06-05,T N,105.65,84+,180,77.5,202.5,460,F,Juniors,SBD,Single-ply
3,V Prasanthi,1998-05-01,A P,92.3,84+,180,72.5,152.5,405,F,Juniors,SBD,Single-ply
4,Jagrati Junaniya,1998-08-06,M P,88.1,84+,140,55,145,340,F,Juniors,SBD,Single-ply
5,D. Bhavika,2000-02-02,CHAT,90.2,84+,152.5,50,125,327.5,F,Juniors,SBD,Single-ply
6,Deepali Kumari,1995-10-19,RAJ,106.6,84+,135,60,130,325,F,Juniors,SBD,Single-ply
DQ,G Akhila,2000-11-14,TEL,84.2,84+,80,,,,F,Juniors,SBD,Single-ply
1,Virendra Singh Markam,1998-08-15,U P,52.9,53,170,95,192.5,457.5,M,Juniors,SBD,Single-ply
2,Ashwin K A,1998-08-14,KER,51.85,53,167.5,105,172.5,445,M,Juniors,SBD,Single-ply
3,K. Narendra,1998-11-12,A P,53,53,160,100,182.5,442.5,M,Juniors,SBD,Single-ply
4,Chandrashekara,1998-03-26,KTK,52.65,53,162.5,80,190,432.5,M,Juniors,SBD,Single-ply
5,Mayur Umratkar,1997-11-21,MAH,52.9,53,165,95,170,430,M,Juniors,SBD,Single-ply
6,Himanshu Kure,1998-11-11,M P,53,53,160,90,175,425,M,Juniors,SBD,Single-ply
7,Subham Ghosh,1997-09-19,ASM,52.55,53,145,97.5,160,402.5,M,Juniors,SBD,Single-ply
8,Avinesh V,1999-11-25,KER,52.7,53,160,82.5,160,402.5,M,Juniors,SBD,Single-ply
9,Rajkumar Yadav,1995-08-09,M P,53,53,145,102.5,147.5,395,M,Juniors,SBD,Single-ply
10,Khushal Patel,2002-02-12,CHAT,51.45,53,132.5,70,170,372.5,M,Juniors,SBD,Single-ply
11,Madan K,2000-01-01,KTK,52.47,53,120,80,140,340,M,Juniors,SBD,Single-ply
DQ,S Barathy,1998-02-28,PUD,53,53,,,,,M,Juniors,SBD,Single-ply
1,Abin B,1998-04-23,KER,58.6,59,212.5,130,212.5,555,M,Juniors,SBD,Single-ply
2,S. Viswanathan,1995-04-07,T N,59,59,220,117.5,217.5,555,M,Juniors,SBD,Single-ply
3,B. Karthick,1995-06-22,T N,58.6,59,210,125,202.5,537.5,M,Juniors,SBD,Single-ply
4,Akshay Rathod,1996-12-22,MAH,56.35,59,205,127.5,192.5,525,M,Juniors,SBD,Single-ply
5,J Bhagawat Rao,1995-07-14,CHAT,58.2,59,205,125,185,515,M,Juniors,SBD,Single-ply
6,K. Yashwanth,1998-06-30,A P,58.3,59,210,107.5,197.5,515,M,Juniors,SBD,Single-ply
7,Chanchal Gottya,1999-07-06,M P,59,59,192.5,110,205,507.5,M,Juniors,SBD,Single-ply
8,Yadhnesh V. Raut,1998-08-29,KTK,58.6,59,205,110,190,505,M,Juniors,SBD,Single-ply
9,Rohit,1997-05-22,HAR,58.9,59,180,117.5,205,502.5,M,Juniors,SBD,Single-ply
10,Y Satish Kumar,1996-09-30,A P,59,59,180,112.5,195,487.5,M,Juniors,SBD,Single-ply
11,Rahul E,1997-03-14,KER,58.5,59,187.5,92.5,202.5,482.5,M,Juniors,SBD,Single-ply
12,Yogender Yadav,2000-03-23,DEL,58.25,59,170,130,177.5,477.5,M,Juniors,SBD,Single-ply
13,Shailendra Baghel,1997-12-15,U P,59,59,195,95,180,470,M,Juniors,SBD,Single-ply
14,Navneet Sharma,1999-03-07,PUN,58.25,59,170,100,180,450,M,Juniors,SBD,Single-ply
15,Vijay Kumar Kumawat,1996-06-09,RAJ,58.65,59,170,87.5,192.5,450,M,Juniors,SBD,Single-ply
16,Mohd Javed,2000-07-08,UTK,56.8,59,170,90,175,435,M,Juniors,SBD,Single-ply
17,Himadri Shekhar Chakroborty,1997-05-29,ASM,55.6,59,170,97.5,145,412.5,M,Juniors,SBD,Single-ply
18,Abhishek Kushwah,1999-02-26,M P,57.65,59,130,65,170,365,M,Juniors,SBD,Single-ply
DQ,S. Kesava Perumal,1996-12-26,PUD,56.65,59,,,,,M,Juniors,SBD,Single-ply
DQ,M. Rama Teja,1997-12-18,TEL,57.8,59,195,75,,,M,Juniors,SBD,Single-ply
DQ,K. Pugazharasan,1996-05-19,PUD,58.55,59,,,,,M,Juniors,SBD,Single-ply
1,Bibin Joy,1996-03-19,KER,66,66,270,167.5,240,677.5,M,Juniors,SBD,Single-ply
2,Rahul Saji,1999-12-04,KER,65.8,66,270,165,232.5,667.5,M,Juniors,SBD,Single-ply
3,Sahil Mahesh Utekar,1996-10-27,MAH,65.5,66,260,147.5,252.5,660,M,Juniors,SBD,Single-ply
4,P. Sravan Kumar,1996-09-03,TEL,65.4,66,210,130,200,540,M,Juniors,SBD,Single-ply
5,Amit #1,1997-11-09,HAR,65.9,66,180,150,210,540,M,Juniors,SBD,Single-ply
6,Karanveer Singh,1997-03-07,CHND,64.6,66,155,90,180,425,M,Juniors,SBD,Single-ply
7,Mukesh Kumar,2001-01-01,UTK,65.4,66,110,70,150,330,M,Juniors,SBD,Single-ply
DQ,Mohd Ashraf,2000-02-07,UTK,59.95,66,,,,,M,Juniors,SBD,Single-ply
DQ,S Jayasankarn,1998-04-24,PUD,62.9,66,210,100,,,M,Juniors,SBD,Single-ply
DQ,Himanshu Khokhawat,1995-10-19,RAJ,64.5,66,240,117.5,,,M,Juniors,SBD,Single-ply
DQ,Gursimran Singh,1995-02-12,PUN,65.2,66,,5,8,,M,Juniors,SBD,Single-ply
DQ,Kvvsp Prasad,1997-08-16,A P,65.4,66,,,,,M,Juniors,SBD,Single-ply
DQ,Devendran Bag,1998-01-06,CHAT,65.4,66,,,,,M,Juniors,SBD,Single-ply
DQ,S Jayaprathap,1996-08-27,T N,65.55,66,,,,,M,Juniors,SBD,Single-ply
DQ,Ayush Pathania,2001-08-26,H P,65.6,66,130,,7,,M,Juniors,SBD,Single-ply
DQ,T. Vamshi Krishna,2000-12-13,TEL,65.9,66,,,,,M,Juniors,SBD,Single-ply
1,K Karthick,1996-10-22,T N,74,74,265,162.5,267.5,695,M,Juniors,SBD,Single-ply
2,Vivek Kumar Gupta,1995-12-05,BIH,74,74,265,187.5,235,687.5,M,Juniors,SBD,Single-ply
3,Praveen P,1996-10-05,KER,72.8,74,265,145,265,675,M,Juniors,SBD,Single-ply
4,Gurjot Arora,1997-08-07,PUN,73.75,74,245,155,275,675,M,Juniors,SBD,Single-ply
5,Vijin R. S,1999-08-18,KER,72.9,74,260,160,232.5,652.5,M,Juniors,SBD,Single-ply
6,Jackson D'souza,1995-10-19,KTK,73.4,74,270,120,252.5,642.5,M,Juniors,SBD,Single-ply
7,D. Praveen Yadav,2000-01-21,TEL,73.5,74,230,135,240,605,M,Juniors,SBD,Single-ply
8,K. Sai Charan,1997-09-14,AP,73.35,74,220,115,210,545,M,Juniors,SBD,Single-ply
9,Chandan Das,1997-01-14,CHAT,73.9,74,200,125,202.5,527.5,M,Juniors,SBD,Single-ply
10,Manik Kumar,1998-09-08,CHND,73.55,74,180,82.5,175,437.5,M,Juniors,SBD,Single-ply
11,Nitesh Joon,1999-07-26,HAR,68,74,140,122.5,170,432.5,M,Juniors,SBD,Single-ply
12,V. Kamalnath,1998-02-28,PUD,66.1,74,165,80,170,415,M,Juniors,SBD,Single-ply
DQ,Chetan,1996-01-27,DEL,72.4,74,,,,,M,Juniors,SBD,Single-ply
DQ,Akash Bapu Chorge,1998-02-20,MAH,72.55,74,,,,,M,Juniors,SBD,Single-ply
DQ,Shivam,1996-11-08,BIH,72.6,74,245,,,,M,Juniors,SBD,Single-ply
DQ,Patel Jay Dinesh,1995-08-11,GUJ,73.05,74,,,,,M,Juniors,SBD,Single-ply
1,A Sakthivel,1995-06-24,TN,81.9,83,295,175,250,720,M,Juniors,SBD,Single-ply
2,Biswajit Dihingia,1996-02-20,ASM,82.9,83,297.5,167.5,235,700,M,Juniors,SBD,Single-ply
3,Balram,1999-05-10,HAR,82.5,83,270,140,262.5,672.5,M,Juniors,SBD,Single-ply
4,Srinu Kewat,1999-11-11,CHAT,83,83,230,160,240,630,M,Juniors,SBD,Single-ply
5,Gouresh Kadam,1999-02-15,MAH,78,83,242.5,137.5,225,605,M,Juniors,SBD,Single-ply
6,Hrittik Majhi,2000-01-23,WB,82.9,83,235,130,232.5,597.5,M,Juniors,SBD,Single-ply
7,Chandan Kumar Singh,1998-05-03,BIH,75.1,83,187.5,120,210,517.5,M,Juniors,SBD,Single-ply
8,Vishal Gadge,1999-01-01,MP,81.8,83,185,132.5,190,507.5,M,Juniors,SBD,Single-ply
9,Pranjal Goswami,2001-01-09,UTK,82.65,83,120,65,140,325,M,Juniors,SBD,Single-ply
DQ,Puneet Kumar,1998-09-28,PUN,75.8,83,250,140,,,M,Juniors,SBD,Single-ply
DQ,Vaghela Rahul M,1997-10-03,GUJ,76.8,83,,,,,M,Juniors,SBD,Single-ply
DQ,Shivam Kumar Prajapati,2000-04-15,TEL,82,83,250,130,,,M,Juniors,SBD,Single-ply
1,S Elavarasan,1996-06-18,TN,90.6,93,300,165,260,725,M,Juniors,SBD,Single-ply
2,Vikas Chouhan,1995-07-07,UP,90.6,93,300,150,265,715,M,Juniors,SBD,Single-ply
3,Tarun Jangra,1997-09-06,PUN,88.15,93,270,170,230,670,M,Juniors,SBD,Single-ply
4,R Arun Sai Kumar,1995-05-25,AP,89.3,93,237.5,150,277.5,665,M,Juniors,SBD,Single-ply
5,Veeranna,1997-12-19,KTK,91.7,93,260,165,230,655,M,Juniors,SBD,Single-ply
6,Ashwin Solanki,1998-03-30,MAH,91.8,93,260,140,255,655,M,Juniors,SBD,Single-ply
7,B Bharath Yadav,1995-09-16,TEL,92.3,93,260,145,250,655,M,Juniors,SBD,Single-ply
8,Lalit,1997-11-21,HAR,86.3,93,240,152.5,257.5,650,M,Juniors,SBD,Single-ply
9,Md. Faizan Reza,1997-01-10,WB,91.75,93,230,165,250,645,M,Juniors,SBD,Single-ply
10,Krison Barman,1997-10-23,ASM,89.4,93,220,125,270,615,M,Juniors,SBD,Single-ply
11,Kawal Jeet Singh,1998-10-01,CHND,88.1,93,215,135,207.5,557.5,M,Juniors,SBD,Single-ply
12,A Sabharish,1998-02-28,PUD,90.3,93,225,100,225,550,M,Juniors,SBD,Single-ply
13,Ayush Kumar Dhiman,1996-05-28,CHND,91.2,93,180,120,200,500,M,Juniors,SBD,Single-ply
DQ,Ajay Singh Chouhan,1996-10-01,RAJ,83.1,93,,,,,M,Juniors,SBD,Single-ply
DQ,Manish Dutta,1998-01-07,PUN,89.85,93,302.5,160,,,M,Juniors,SBD,Single-ply
DQ,Hari Om,2000-07-20,HAR,92.3,93,290,222.5,,,M,Juniors,SBD,Single-ply
1,Biswajit Gogoi,1995-12-01,ASM,96.7,105,297.5,197.5,267.5,762.5,M,Juniors,SBD,Single-ply
2,Inderjeet Singh,1998-09-25,PUN,104.9,105,270,215,260,745,M,Juniors,SBD,Single-ply
3,Vishal Khatavkar,1997-04-30,MAH,103.7,105,287.5,170,270,727.5,M,Juniors,SBD,Single-ply
4,Rishabh Mudliar,1995-11-17,MP,97.2,105,290,165,260,715,M,Juniors,SBD,Single-ply
5,K. Srikanth,1996-05-29,TEL,96.3,105,247.5,142.5,215,605,M,Juniors,SBD,Single-ply
6,Mohan Siwach,2000-07-25,HAR,101.9,105,230,127.5,242.5,600,M,Juniors,SBD,Single-ply
7,Piyush,1997-11-13,CHND,97.05,105,225,117.5,220,562.5,M,Juniors,SBD,Single-ply
DQ,Sandeep,1996-07-15,HAR,93.5,105,292.5,135,,,M,Juniors,SBD,Single-ply
DQ,M Santhosh,1995-02-17,TN,94.8,105,,,,,M,Juniors,SBD,Single-ply
DQ,Benhur T Rayappen,1995-01-11,KTK,95.5,105,275,,,,M,Juniors,SBD,Single-ply
DQ,Shivam,1995-10-15,DEL,98.45,105,250,185,,,M,Juniors,SBD,Single-ply
DQ,Raj Prd Rajak,1997-08-12,WB,103.05,105,,,,,M,Juniors,SBD,Single-ply
DQ,Rahul Kumar #1,1995-04-20,UP,103.6,105,,,,,M,Juniors,SBD,Single-ply
DQ,Durgesh Deep,2001-09-04,CHAT,105,105,,,,,M,Juniors,SBD,Single-ply
1,Pradeep Sharma,1995-12-20,UP,117.6,120,320,195,282.5,797.5,M,Juniors,SBD,Single-ply
2,E Prabhu,1996-09-14,TN,111.3,120,302.5,167.5,285,755,M,Juniors,SBD,Single-ply
3,Dharmender,1996-04-29,DEL,117.5,120,310,195,250,755,M,Juniors,SBD,Single-ply
4,Sachin Yadav,1996-03-27,RAJ,105.3,120,240,175,240,655,M,Juniors,SBD,Single-ply
5,Jonathan Boska,1995-10-14,TEL,120,120,230,150,200,580,M,Juniors,SBD,Single-ply
6,Vikrant Nanda,1995-11-18,CHND,114.3,120,190,130,200,520,M,Juniors,SBD,Single-ply
DQ,Anuj Dhiman,1999-12-09,HP,111.8,120,145,,,,M,Juniors,SBD,Single-ply
DQ,Sumit Yadav,1995-07-25,DEL,118.1,120,,,,,M,Juniors,SBD,Single-ply
1,Syed Rabban Quadri,1996-08-21,TEL,131.1,120+,380,235,260,875,M,Juniors,SBD,Single-ply
2,Gagan Kwatra,1997-09-14,PUN,121.6,120+,340,180,290,810,M,Juniors,SBD,Single-ply
3,Abhishek B. Horkeri,1998-06-08,KTK,140.3,120+,320,185,250,755,M,Juniors,SBD,Single-ply
4,K A Thirunavukarasu,1996-09-14,T N,134.6,120+,250,170,225,645,M,Juniors,SBD,Single-ply
5,Mahesh Raskar,1996-11-20,MAH,138.4,120+,260,165,192.5,617.5,M,Juniors,SBD,Single-ply
6,Sunil,1999-05-15,HAR,122.4,120+,200,150,235,585,M,Juniors,SBD,Single-ply
DQ,Ankit Khatri,1996-12-19,DEL,133.4,120+,312.5,220,,,M,Juniors,SBD,Single-ply
DQ,S. S. Basha,1996-08-29,A P,137.5,120+,,,,,M,Juniors,SBD,Single-ply
