Place,Name,Sex,BirthDate,State,Equipment,Division,BodyweightKg,WeightClassKg,Squat1Kg,Squat2Kg,Squat3Kg,Best3SquatKg,Bench1Kg,Bench2Kg,Bench3Kg,Best3BenchKg,Deadlift1Kg,Deadlift2Kg,Deadlift3Kg,Best3DeadliftKg,TotalKg,Event
1,Stephen King,M,1987-09-16,MO,Sleeves,Sub-Master,122.8,125,250,275,-285,275,175,185,-193,185,275,300,-312.5,300,760,SBD
G,John Neumann Dvorak,M,1977-11-18,MO,Sleeves,Guest,128,125+,229,238,243,243,-174,-175,175,175,247.5,-255,-260,247.5,665.5,SBD
1,Sean Houston,M,1975-01-25,MO,Wraps,Master,86.2,90,170,180,190,190,122.5,-134,-134,122.5,184,200,-220,200,512.5,SBD
1,Alex Dillon,M,1999-09-10,MO,Wraps,Open,70.17,75,167.5,175,180,180,110,117.5,-122.5,117.5,195,207.5,220,220,517.5,SBD
1,Kenneth Flaming,M,1982-03-17,KS,Multi-ply,Master,89.9,90,226,245,258,258,190,212.5,222.5,222.5,226,250,275,275,755.5,SBD
