Division,WeightClassKg,Place,Name,Team,BodyweightKg,Best3SquatKg,Best3BenchKg,Best3DeadliftKg,TotalKg,Equipment,Event,Sex,BirthDate
Girls,44.23,1,Jolea Crow,Caddo Mills,44.18,97.52,45.36,106.59,249.48,Unlimited,SBD,F,
Girls,44.23,2,Barbra Ruiz,Kaufman,44.09,83.91,45.36,102.06,231.33,Unlimited,SBD,F,
Girls,44.23,3,Mia Carr,Crandall,42.46,74.84,31.75,92.99,199.58,Unlimited,SBD,F,
Girls,44.23,4,Jamie Kral,Wills Point,44.09,79.38,45.36,70.31,195.04,Unlimited,SBD,F,
Girls,47.85,1,Alecs Burch,Quinlan Ford,46.08,122.47,58.97,117.93,299.37,Unlimited,SBD,F,
Girls,47.85,2,Emily Arredondo,Princeton,47.72,104.33,56.7,99.79,260.82,Unlimited,SBD,F,
Girls,47.85,3,Chloe Williams,Kemp,46.81,97.52,54.43,92.99,244.94,Unlimited,SBD,F,
Girls,47.85,4,Olga Sauceda,Princeton,47.08,81.65,36.29,90.72,208.65,Unlimited,SBD,F,
Girls,47.85,5,Ziyah Dickey,Cedar Hill,45.45,63.5,24.95,54.43,142.88,Unlimited,SBD,F,
Girls,47.85,NS,Liann James,Diana New Diana,,,,,,Unlimited,SBD,F,
Girls,51.94,1,Sharon Ashby,Greenville,51.94,102.06,52.16,97.52,251.74,Unlimited,SBD,F,
Girls,51.94,2,Cecillia Rodriguez,Quinlan Ford,48.72,102.06,38.56,99.79,240.4,Unlimited,SBD,F,
Girls,51.94,3,Jennifer Sanchez,Quinlan Ford,48.72,90.72,40.82,102.06,233.6,Unlimited,SBD,F,
Girls,51.94,4,Dailey Smith,Kaufman,49.9,86.18,40.82,92.99,219.99,Unlimited,SBD,F,
Girls,51.94,5,Tori Scott,Quinlan Ford,47.9,79.38,47.63,90.72,217.72,Unlimited,SBD,F,
Girls,51.94,6,Alex Collins,Princeton,51.62,77.11,27.22,102.06,206.38,Unlimited,SBD,F,
Girls,51.94,7,Jaquelin Hobbs,Kaufman,51.26,77.11,40.82,86.18,204.12,Unlimited,SBD,F,
Girls,51.94,8,Madison Hooks,Cedar Hill,49.99,70.31,24.95,63.5,158.76,Unlimited,SBD,F,
Girls,51.94,DQ,Madison Coker,Eustace,51.8,72.57,38.56,,,Unlimited,SBD,F,
Girls,51.94,DQ,Evelyn Corona,Princeton,50.35,90.72,,,,Unlimited,SBD,F,
Girls,51.94,NS,Abbye Canida,Crandall,,,,,,Unlimited,SBD,F,
Girls,56.02,1,Meredith Williams,Greenville,54.88,140.61,74.84,136.08,351.53,Unlimited,SBD,F,
Girls,56.02,2,Colleen Bunton,Princeton,55.25,115.67,68.04,115.67,299.37,Unlimited,SBD,F,
Girls,56.02,3,Emma Pearson,Wills Point,55.88,122.47,56.7,106.59,285.76,Unlimited,SBD,F,
Girls,56.02,4,Alondra Yanes,Quinlan Ford,54.43,108.86,61.23,111.13,281.23,Unlimited,SBD,F,
Girls,56.02,5,Jalie Romo,Kemp,53.34,92.99,38.56,102.06,233.6,Unlimited,SBD,F,
Girls,56.02,6,Kenedy Hyde,Eustace,52.89,92.99,36.29,102.06,231.33,Unlimited,SBD,F,
Girls,56.02,7,Sloan Wilson,Kaufman,52.98,92.99,52.16,86.18,231.33,Unlimited,SBD,F,
Girls,56.02,8,Haven Travathan,Kemp,54.88,92.99,38.56,86.18,217.72,Unlimited,SBD,F,
Girls,56.02,DQ,Eva Ewins,Wills Point,55.79,63.5,,,,Unlimited,SBD,F,
Girls,60.1,1,Rainie Mott,Mount Pleasant Chapel Hill,59.15,124.74,77.11,124.74,326.59,Unlimited,SBD,F,
Girls,60.1,2,Brooke Roby,Quinlan Ford,58.6,122.47,54.43,129.27,306.17,Unlimited,SBD,F,
Girls,60.1,3,Laila Miller,Kemp,57.88,122.47,54.43,104.33,281.23,Unlimited,SBD,F,
Girls,60.1,4,Ava Glenn,Ennis,59.51,111.13,47.63,108.86,267.62,Unlimited,SBD,F,
Girls,60.1,5,Destiny Potter,Eustace,58.06,104.33,68.04,92.99,265.35,Unlimited,SBD,F,
Girls,60.1,6,Kristen Brown,Mount Pleasant Chapel Hill,58.79,90.72,58.97,106.59,256.28,Unlimited,SBD,F,
Girls,60.1,7,Shelby Coe,Caddo Mills,58.6,102.06,34.02,102.06,238.14,Unlimited,SBD,F,
Girls,60.1,8,Elizabeth Collins,Ennis,59.69,95.25,45.36,90.72,231.33,Unlimited,SBD,F,
Girls,60.1,9,Trinity Westlake,Quinlan Ford,59.96,83.91,43.09,97.52,224.53,Unlimited,SBD,F,
Girls,60.1,10,Aniyah Jermany,Cedar Hill,56.34,88.45,38.56,90.72,217.72,Unlimited,SBD,F,
Girls,60.1,11,Izabella Dewberry,Pittsburg,57.06,81.65,31.75,90.72,204.12,Unlimited,SBD,F,
Girls,60.1,12,Alexis Crocker,Kaufman,58.97,70.31,34.02,74.84,179.17,Unlimited,SBD,F,
Girls,60.1,DQ,Annastacia Njoroge,Wills Point,57.24,,,,,Unlimited,SBD,F,
Girls,67.36,1,Lexi Taylor,Wills Point,67.27,136.08,83.91,154.22,374.21,Unlimited,SBD,F,
Girls,67.36,2,Ryan Barnett,Crandall,66.9,124.74,61.23,147.42,333.39,Unlimited,SBD,F,
Girls,67.36,3,Briana Cruz,Princeton,67.31,129.27,65.77,136.08,331.12,Unlimited,SBD,F,
Girls,67.36,4,Alexis Smith,Wills Point,67.31,113.4,56.7,136.08,306.17,Unlimited,SBD,F,
Girls,67.36,5,Zakiyah Gilliland,Cedar Hill,62.78,124.74,58.97,120.2,303.91,Unlimited,SBD,F,
Girls,67.36,6,Rebecca Soloman,Kaufman,66.22,113.4,56.7,122.47,292.57,Unlimited,SBD,F,
Girls,67.36,7,Anahy Vargas,Princeton,64.59,122.47,47.63,115.67,285.76,Unlimited,SBD,F,
Girls,67.36,8,Xy Kriah Short,Cedar Hill,65.41,120.2,49.9,108.86,278.96,Unlimited,SBD,F,
Girls,67.36,9,Anna Koller,Crandall,62.05,104.33,54.43,113.4,272.16,Unlimited,SBD,F,
Girls,67.36,10,Reyna Pettus,Quinlan Ford,60.78,106.59,63.5,99.79,269.89,Unlimited,SBD,F,
Girls,67.36,11,Abigail Russell,Kaufman,63.05,99.79,54.43,108.86,263.08,Unlimited,SBD,F,
Girls,67.36,12,JAlyssa Johnson,Pittsburg,63.5,108.86,36.29,117.93,263.08,Unlimited,SBD,F,
Girls,67.36,13,Cierra Gutierrez,Kaufman,65.95,102.06,49.9,102.06,254.01,Unlimited,SBD,F,
Girls,67.36,14,Mckinley Shewmake,Kaufman,61.96,79.38,47.63,108.86,235.87,Unlimited,SBD,F,
Girls,67.36,15,Alexis Wallace,Kemp,61.78,92.99,38.56,90.72,222.26,Unlimited,SBD,F,
Girls,67.36,16,Faith Johnston,Kemp,64.86,81.65,36.29,88.45,206.38,Unlimited,SBD,F,
Girls,67.36,NS,Zaria Bohannon,Caddo Mills,,,,,,Unlimited,SBD,F,
Girls,67.36,NS,Kami Saldana,Cedar Hill,,,,,,Unlimited,SBD,F,
Girls,75.07,1,Shyann Tilson,Kaufman,68.86,142.88,61.23,142.88,347,Unlimited,SBD,F,
Girls,75.07,2,Jasmine Reader,Quinlan Ford,73.21,136.08,65.77,131.54,333.39,Unlimited,SBD,F,
Girls,75.07,3,Emilee Brown,Mount Pleasant Chapel Hill,68.86,99.79,56.7,99.79,256.28,Unlimited,SBD,F,
Girls,75.07,4,Madi King,Wills Point,75.02,102.06,61.23,86.18,249.48,Unlimited,SBD,F,
Girls,75.07,5,Marivel Ojeda,Crandall,71.4,90.72,38.56,111.13,240.4,Unlimited,SBD,F,
Girls,75.07,6,Taryn Keefer,Pittsburg,68.04,83.91,38.56,99.79,222.26,Unlimited,SBD,F,
Girls,75.07,7,Bailey Woodlee,Caddo Mills,71.3,81.65,38.56,92.99,213.19,Unlimited,SBD,F,
Girls,75.07,8,Allison Baker,Eustace,72.94,77.11,36.29,90.72,204.12,Unlimited,SBD,F,
Girls,75.07,9,Vivian Marquez,Pittsburg,70.85,83.91,27.22,79.38,190.51,Unlimited,SBD,F,
Girls,75.07,NS,Hailey Thomas,Kemp,,,,,,Unlimited,SBD,F,
Girls,82.33,1,Ingri Bravo,Princeton,75.48,127.01,68.04,117.93,312.98,Unlimited,SBD,F,
Girls,82.33,2,Hannah Rawlinson,Eustace,81.65,122.47,47.63,142.88,312.98,Unlimited,SBD,F,
Girls,82.33,3,Paris Igbineweka,Princeton,79.74,122.47,68.04,117.93,308.44,Unlimited,SBD,F,
Girls,82.33,4,Jocelyn Sandoval,Princeton,75.93,127.01,70.31,108.86,306.17,Unlimited,SBD,F,
Girls,82.33,5,Alivia Roberts,Pittsburg,75.39,108.86,49.9,127.01,285.76,Unlimited,SBD,F,
Girls,82.33,6,Samantha Woods,Kemp,81.1,111.13,61.23,108.86,281.23,Unlimited,SBD,F,
Girls,82.33,7,McKayla Oldham,Wills Point,82.24,92.99,54.43,113.4,260.82,Unlimited,SBD,F,
Girls,82.33,DQ,Lillee Walls,Quinlan Ford,75.75,,,,,Unlimited,SBD,F,
Girls,82.33,DQ,Zoey Rozell,Pittsburg,79.29,,,,,Unlimited,SBD,F,
Girls,82.33,NS,Zaydin Doddy,Pittsburg,,,,,,Unlimited,SBD,F,
Girls,82.33,NS,Lily Webb,Ennis,,,,,,Unlimited,SBD,F,
Girls,90.04,1,Lindsay McManus,Ennis,88.81,163.29,79.38,142.88,385.55,Unlimited,SBD,F,
Girls,90.04,2,Tammy Green,Kemp,83.91,147.42,74.84,140.61,362.87,Unlimited,SBD,F,
Girls,90.04,3,Alondra Martinez,Wills Point,89.36,147.42,72.57,136.08,356.07,Unlimited,SBD,F,
Girls,90.04,4,Jamyluv Moore,Cedar Hill,82.55,120.2,63.5,129.27,312.98,Unlimited,SBD,F,
Girls,90.04,5,Belinda Yanes,Quinlan Ford,84.01,113.4,68.04,111.13,292.57,Unlimited,SBD,F,
Girls,90.04,6,Marie Hernandez,Mount Pleasant Chapel Hill,83.46,111.13,68.04,108.86,288.03,Unlimited,SBD,F,
Girls,90.04,7,Teri Ana Slocum,Eustace,88.9,120.2,52.16,113.4,285.76,Unlimited,SBD,F,
Girls,90.04,8,Patricia Urbanski,Crandall,86.82,90.72,52.16,133.81,276.69,Unlimited,SBD,F,
Girls,90.04,9,Deanna Batson,Caddo Mills,86.91,106.59,56.7,102.06,265.35,Unlimited,SBD,F,
Girls,90.04,10,Miranda Aguado,Pittsburg,87.36,99.79,43.09,115.67,258.55,Unlimited,SBD,F,
Girls,90.04,11,Tytiana Miller,Cedar Hill,84.91,104.33,45.36,88.45,238.14,Unlimited,SBD,F,
Girls,90.04,12,Serenity Barb,Cedar Hill,89.54,104.33,36.29,97.52,238.14,Unlimited,SBD,F,
Girls,90.04,13,Sarah Martinez,Pittsburg,85,90.72,40.82,102.06,233.6,Unlimited,SBD,F,
Girls,90.04,14,Sara Nelms,Crandall,83.46,58.97,40.82,83.91,183.7,Unlimited,SBD,F,
Girls,90.04,NS,Erika Ramirez,Crandall,,,,,,Unlimited,SBD,F,
Girls,90.04,NS,Kaitlynn Strong,Kemp,,,,,,Unlimited,SBD,F,
Girls,100.02,1,Brandy Rangel,Wills Point,92.08,167.83,79.38,131.54,378.75,Unlimited,SBD,F,
Girls,100.02,2,Hannah Omosigho,Crandall,92.8,140.61,54.43,154.22,349.27,Unlimited,SBD,F,
Girls,100.02,3,Demaria Lydia,Pittsburg,98.79,131.54,58.97,140.61,331.12,Unlimited,SBD,F,
Girls,100.02,4,Bri Zaragoza,Mount Pleasant Chapel Hill,97.34,120.2,68.04,129.27,317.51,Unlimited,SBD,F,
Girls,100.02,5,Na'Karia Anderson,Ennis,96.16,102.06,72.57,127.01,301.64,Unlimited,SBD,F,
Girls,100.02,6,Natalie Gibson,Greenville,96.8,108.86,72.57,120.2,301.64,Unlimited,SBD,F,
Girls,100.02,7,Alexis Gomez,Kaufman,91.08,102.06,65.77,108.86,276.69,Unlimited,SBD,F,
Girls,100.02,8,Angelina Colderon,Kaufman,95.71,97.52,61.23,106.59,265.35,Unlimited,SBD,F,
Girls,100.02,9,Taryyn Munns,Kaufman,93.71,88.45,52.16,92.99,233.6,Unlimited,SBD,F,
Girls,100.02,DQ,Flor Carrillo,Mount Pleasant Chapel Hill,94.98,,,,,Unlimited,SBD,F,
Girls,117.71,1,Mady Garcia,Wills Point,104.33,215.46,113.4,170.1,498.95,Unlimited,SBD,F,
Girls,117.71,2,Kaylee Dixon,Princeton,115.85,147.42,90.72,167.83,405.97,Unlimited,SBD,F,
Girls,117.71,3,Macy Orman,Scurry-Rosser,106.87,151.95,88.45,136.08,376.48,Unlimited,SBD,F,
Girls,117.71,4,Mollee Parrott,Ennis,112.22,79.38,45.36,102.06,226.8,Unlimited,SBD,F,
Girls,117.71+,1,Angela Hernández,Quinlan Ford,117.75,229.06,97.52,151.95,478.54,Unlimited,SBD,F,
Girls,117.71+,2,Caroline Speer,Princeton,125.83,201.85,104.33,167.83,474,Unlimited,SBD,F,
Girls,117.71+,3,Kyla Griffin,Pittsburg,118.84,163.29,68.04,158.76,390.09,Unlimited,SBD,F,
Girls,117.71+,4,Alessandra Gutterrez,Pittsburg,120.66,99.79,52.16,136.08,288.03,Unlimited,SBD,F,
Girls,117.71+,5,Keniya Wadley,Cedar Hill,145.97,108.86,58.97,120.2,288.03,Unlimited,SBD,F,
Girls,117.71+,6,Mallory Wheat,Cumby,121.38,106.59,81.65,86.18,274.42,Unlimited,SBD,F,
Girls,117.71+,NS,Claira Huff,Wills Point,,,,,,Unlimited,SBD,F,
