Division,WeightClassKg,Place,Name,Team,BodyweightKg,Best3SquatKg,Best3BenchKg,Best3DeadliftKg,TotalKg,Equipment,Event,Sex
Boys,51.71,1,Isaiah Glasgow,Kingsville King,50.26,90.72,58.97,117.93,267.62,Single-ply,SBD,M
Boys,51.71,2,Jose Huerta,Bishop,48.08,86.18,65.77,111.13,263.08,Single-ply,SBD,M
Boys,51.71,3,Joseph Norman,Corpus Christi John Paul II High School,45.63,83.91,56.7,104.33,244.94,Single-ply,SBD,M
Boys,55.79,1,Niko Munoz,Falfurrias,54.52,190.51,113.4,172.37,476.27,Single-ply,SBD,M
Boys,55.79,2,Jose Hernandez #13,Corpus Christi West Oso,55.25,172.37,95.25,185.97,453.59,Single-ply,SBD,M
Boys,55.79,3,Bryan Gutierrez,Bishop,53.8,129.27,83.91,136.08,349.27,Single-ply,SBD,M
Boys,55.79,4,Josh Trevino,Corpus Christi West Oso,55.79,120.2,61.23,124.74,306.17,Single-ply,SBD,M
Boys,55.79,5,Anthony Ramirez,Corpus Christi West Oso,54.25,106.59,68.04,129.27,303.91,Single-ply,SBD,M
Boys,59.87,1,Kaleb Speckman,Kingsville King,59.87,149.69,102.06,176.9,428.64,Single-ply,SBD,M
Boys,59.87,2,Seth Bazan,Bishop,59.69,142.88,79.38,149.69,371.95,Single-ply,SBD,M
Boys,59.87,3,Gabriel García #11,Bishop,59.87,149.69,81.65,136.08,367.41,Single-ply,SBD,M
Boys,67.13,1,Richard Rea,Freer,66.13,199.58,111.13,215.46,526.17,Single-ply,SBD,M
Boys,67.13,2,Robert Hughes #2,Sinton,61.78,154.22,92.99,190.51,437.72,Single-ply,SBD,M
Boys,67.13,3,Angelus Lopez,Kingsville King,65.41,161.03,97.52,174.63,433.18,Single-ply,SBD,M
Boys,67.13,4,Abel Cervantez,Sinton,64.41,154.22,88.45,176.9,419.57,Single-ply,SBD,M
Boys,67.13,5,Jose Garza,Kingsville King,64.41,142.88,106.59,154.22,403.7,Single-ply,SBD,M
Boys,67.13,6,Jacob Sandoval,Bishop,67.13,136.08,90.72,158.76,385.55,Single-ply,SBD,M
Boys,67.13,7,Jose Leyva,Bishop,67.13,140.61,83.91,156.49,381.02,Single-ply,SBD,M
Boys,67.13,8,Trae Trevino,Sinton,66.04,120.2,81.65,158.76,360.61,Single-ply,SBD,M
Boys,67.13,9,DeShawn Fillmore,Corpus Christi John Paul II High School,64.59,120.2,70.31,136.08,326.59,Single-ply,SBD,M
Boys,67.13,10,Roy Salinas,Banquete,64.68,111.13,61.23,136.08,308.44,Single-ply,SBD,M
Boys,67.13,11,Dylan Vasquez,Corpus Christi John Paul II High School,61.33,77.11,61.23,95.25,233.6,Single-ply,SBD,M
Boys,67.13,DQ,Sergio Sanchez #8,Falfurrias,65.23,,,,,Single-ply,SBD,M
Boys,74.84,1,Exander Gamez,Sinton,73.3,156.49,102.06,142.88,401.43,Single-ply,SBD,M
Boys,74.84,2,Alex De La Fuente,Falfurrias,73.48,136.08,102.06,142.88,381.02,Single-ply,SBD,M
Boys,74.84,3,Nathan Reyes,Corpus Christi West Oso,72.48,111.13,83.91,147.42,342.46,Single-ply,SBD,M
Boys,74.84,4,Joe Cisineros,Falfurrias,74.84,115.67,68.04,127.01,310.71,Single-ply,SBD,M
Boys,74.84,DQ,Andrew Carrillo,Bishop,74.75,185.97,142.88,,,Single-ply,SBD,M
Boys,74.84,DQ,Zeke Guerrero,Bishop,74.75,,,,,Single-ply,SBD,M
Boys,82.1,1,Gustavo Gallardo,Sinton,81.83,254.01,158.76,254.01,666.78,Single-ply,SBD,M
Boys,82.1,2,Lupe Calamaco,Sinton,81.19,229.06,127.01,240.4,596.47,Single-ply,SBD,M
Boys,82.1,3,Joseph Zapata,Falfurrias,77.84,199.58,149.69,195.04,544.31,Single-ply,SBD,M
Boys,82.1,4,Matthew Garza,Corpus Christi West Oso,79.47,192.78,140.61,185.97,519.36,Single-ply,SBD,M
Boys,82.1,5,Johnathan Mollinar,Corpus Christi John Paul II High School,75.39,161.03,99.79,176.9,437.72,Single-ply,SBD,M
Boys,82.1,6,Ricardo Cantu,Freer,79.83,163.29,88.45,163.29,415.04,Single-ply,SBD,M
Boys,82.1,7,Juan Santana,Bishop,79.02,161.03,86.18,165.56,412.77,Single-ply,SBD,M
Boys,82.1,8,Daniel Narvaez,Falfurrias,80.38,149.69,45.36,161.03,356.07,Single-ply,SBD,M
Boys,82.1,9,Ryan Pena,Kingsville King,82.1,127.01,63.5,124.74,315.25,Single-ply,SBD,M
Boys,82.1,10,Julian Urrea,Banquete,80.65,104.33,65.77,136.08,306.17,Single-ply,SBD,M
Boys,82.1,DQ,Casamiro Martinez,Falfurrias,76.57,83.91,,,,Single-ply,SBD,M
Boys,89.81,1,Daniel González,Kingsville King,89.81,303.91,174.63,272.16,750.7,Single-ply,SBD,M
Boys,89.81,2,Jacob Gonzalez,Kingsville King,89.54,213.19,131.54,210.92,555.65,Single-ply,SBD,M
Boys,89.81,3,Christian Moreno,Kingsville King,89.09,181.44,113.4,181.44,476.27,Single-ply,SBD,M
Boys,89.81,4,Elijah Aguilar,Kingsville King,88.9,174.63,90.72,129.27,394.63,Single-ply,SBD,M
Boys,89.81,5,Genaro Tijerina,Banquete,84.01,111.13,83.91,158.76,353.8,Single-ply,SBD,M
Boys,89.81,DQ,John Martinez,Falfurrias,89.72,,,,,Single-ply,SBD,M
Boys,99.79,1,Gilbert Arriaga,Kingsville King,99.7,283.5,190.51,283.5,757.5,Single-ply,SBD,M
Boys,99.79,2,Jordan Longoria,Bishop,92.44,226.8,111.13,188.24,526.17,Single-ply,SBD,M
Boys,99.79,3,Roberto Torres,Sinton,96.89,215.46,117.93,188.24,521.63,Single-ply,SBD,M
Boys,99.79,4,Gage Garza,Corpus Christi John Paul II High School,90.08,174.63,111.13,179.17,464.93,Single-ply,SBD,M
Boys,99.79,5,Armando Benavides,Corpus Christi West Oso,96.43,174.63,104.33,163.29,442.25,Single-ply,SBD,M
Boys,99.79,6,Tiger Perez,Kingsville King,97.98,145.15,74.84,170.1,390.09,Single-ply,SBD,M
Boys,99.79,7,Jacob Rico,Corpus Christi John Paul II High School,97.7,124.74,61.23,138.35,324.32,Single-ply,SBD,M
Boys,99.79,8,Severo Garcia,Kingsville King,96.16,127.01,61.23,131.54,319.78,Single-ply,SBD,M
Boys,99.79,DQ,Juan Chavera,Falfurrias,94.89,,,,,Single-ply,SBD,M
Boys,109.77,1,Isaiah Rios,Corpus Christi West Oso,106.78,226.8,140.61,201.85,569.26,Single-ply,SBD,M
Boys,109.77,2,Roohan Charania,Kingsville King,103.69,188.24,124.74,174.63,487.61,Single-ply,SBD,M
Boys,109.77,3,John Soliz,Corpus Christi John Paul II High School,100.7,183.7,92.99,170.1,446.79,Single-ply,SBD,M
Boys,109.77,4,Landon Southern,Sinton,106.68,163.29,102.06,147.42,412.77,Single-ply,SBD,M
Boys,109.77,5,Noah Cortinas,Corpus Christi John Paul II High School,102.69,151.95,111.13,147.42,410.5,Single-ply,SBD,M
Boys,109.77,6,Juanito Cabrera,Falfurrias,104.6,149.69,70.31,154.22,374.21,Single-ply,SBD,M
Boys,109.77,DQ,Ismael Gonzalez,Kingsville King,108.41,283.5,185.97,,,Single-ply,SBD,M
Boys,109.77,DQ,Jessiah Castellanos,Kingsville King,108.86,217.72,106.59,,,Single-ply,SBD,M
Boys,124.74,1,Christ Chavez,Corpus Christi West Oso,117.12,222.26,145.15,206.38,573.79,Single-ply,SBD,M
Boys,124.74,2,Juan Carranza,Sinton,112.31,188.24,122.47,165.56,476.27,Single-ply,SBD,M
Boys,124.74,3,Michael Soliz,Kingsville King,111.13,172.37,90.72,172.37,435.45,Single-ply,SBD,M
Boys,124.74,4,John Ayala,Corpus Christi John Paul II High School,118.93,113.4,97.52,181.44,392.36,Single-ply,SBD,M
Boys,124.74,DQ,Jakob Encinia,Sinton,116.3,256.28,,,,Single-ply,SBD,M
Boys,124.74,DQ,Joseph Maldonado,Sinton,122.65,206.38,120.2,,,Single-ply,SBD,M
Boys,124.74+,1,Joshua Johnson,Kingsville King,140.16,204.12,81.65,122.47,408.23,Single-ply,SBD,M
Boys,124.74+,2,Hector Lopez,Corpus Christi West Oso,127.37,120.2,81.65,124.74,326.59,Single-ply,SBD,M
Boys,124.74+,DQ,Aaron Perez,Corpus Christi John Paul II High School,126.37,,,,,Single-ply,SBD,M
Boys,,NS,John Guevara,Banquete,,,,,,Single-ply,SBD,M
Boys,,NS,James Gomez,Banquete,,,,,,Single-ply,SBD,M
Boys,,NS,Anthony Allen,Corpus Christi John Paul II High School,,,,,,Single-ply,SBD,M
Boys,,NS,Patrick Garcia,Corpus Christi West Oso,,,,,,Single-ply,SBD,M
Boys,,NS,Josh Hernandez,Banquete,,,,,,Single-ply,SBD,M
Boys,,NS,Andrew Gonzalez,Bishop,,,,,,Single-ply,SBD,M
Boys,,NS,Jesse Salinas #3,Kingsville King,,,,,,Single-ply,SBD,M
Boys,,NS,Gilbert Acuna,Corpus Christi West Oso,,,,,,Single-ply,SBD,M
