Place,Name,BirthYear,Team,BodyweightKg,Best3DeadliftKg,TotalKg,Event,WeightClassKg,Division,Equipment,Sex,BirthDate
1,Berdó László,1989,PMRFK,74.0,220.0,220.0,D,74,Open,Raw,M,
2,Horváth Zsolt,1975,Terrorelh.,73.85,205.0,205.0,D,74,Open,Raw,M,
3,Stefán András,1981,Márianoszt,72.1,200.0,200.0,D,74,Open,Raw,M,
4,Kalóczkai Mihály,1980,Készenléti,70.3,170.0,170.0,D,74,Open,Raw,M,
5,Mitercsák Péter,1979,BRFK,71.45,167.5,167.5,D,74,Open,Raw,M,
6,Janzsó Donát,1970,Készenléti,72.9,160.0,160.0,D,74,Open,Raw,M,
7,Kvocsik István,1976,Márianoszt,65.4,155.0,155.0,D,66,Open,Raw,M,
1,Bodnár János,1985,BFB,82.2,200.0,200.0,D,83,Open,Raw,M,
2,Mosonyi Viktor,1990,NKERTUD,81.65,170.0,170.0,D,83,Open,Raw,M,
1,Csernyánszki Csaba,1985,HMRFK,83.95,260.0,260.0,D,93,Open,Raw,M,
2,Gyurcsik Zsolt,1988,Márianoszt,88.55,250.0,250.0,D,93,Open,Raw,M,
3,Kószás Erik,1990,NKERTUD,92.65,230.0,230.0,D,93,Open,Raw,M,
4,Fazekas János,1987,MiskolciRK,88.95,220.0,220.0,D,93,Open,Raw,M,
5,Vajdics Dávid,1992,SzSzBMRFK,92.7,220.0,220.0,D,93,Open,Raw,M,
6,Tóháti Tibor,1966,PálhalmaBv,90.6,217.5,217.5,D,93,Open,Raw,M,
7,Dr. Budai Balázs,1979,NKERTUD,91.3,217.5,217.5,D,93,Open,Raw,M,
8,Munkás Attila,1984,Terrorelh.,90.4,210.0,210.0,D,93,Open,Raw,M,
9,Libor Balázs,1990,BRFK,87.25,200.0,200.0,D,93,Open,Raw,M,
10,Vajda Máté,1987,BRFK,89.2,200.0,200.0,D,93,Open,Raw,M,
11,Kostyák Rajmund,1987,SMRFK,91.3,200.0,200.0,D,93,Open,Raw,M,
12,Bödő Máté,1989,BRFK,90.7,190.0,190.0,D,93,Open,Raw,M,
13,Dr. Rémás Róbert,1981,BSZI,88.1,162.5,162.5,D,93,Open,Raw,M,
14,Varga Sándor,1984,BFB,88.4,160.0,160.0,D,93,Open,Raw,M,
1,Majoros Árpád,1983,BAZ RSE,104.25,300.0,300.0,D,105,Open,Raw,M,
2,Gere Szabolcs,1988,Készenléti,102.25,260.0,260.0,D,105,Open,Raw,M,
3,Gyenge Róbert,1979,MH,102.8,250.0,250.0,D,105,Open,Raw,M,
4,Szilágyi András,1980,NBSz,98.85,235.0,235.0,D,105,Open,Raw,M,
5,Balogh Ferenc,1991,Készenléti,100.95,235.0,235.0,D,105,Open,Raw,M,
6,Berényi Zoltán,1983,BFB,101.55,232.5,232.5,D,105,Open,Raw,M,
7,Nagy László Zoltán,1982,JNSZMRFK,100.85,230.0,230.0,D,105,Open,Raw,M,
8,Honti Attila,1970,NógrádRFK,102.85,222.5,222.5,D,105,Open,Raw,M,
9,Kóczán Arnold,1990,HMRFK,96.9,205.0,205.0,D,105,Open,Raw,M,
10,Szabó József,1956,Köröstarcs,97.55,205.0,205.0,D,105,Open,Raw,M,
11,Szilágyi Balázs,1985,JNSZMRFK,104.8,190.0,190.0,D,105,Open,Raw,M,
12,Sznyt Attila,1984,Alkotmányv,102.25,170.0,170.0,D,105,Open,Raw,M,
1,Jónás Sándor,1990,HMRFK,117.9,335.0,335.0,D,120,Open,Raw,M,
2,Lukács Krisztián,1976,HBMRFK,114.2,270.0,270.0,D,120,Open,Raw,M,
3,Kurucsai György,1989,Készenléti,113.05,265.0,265.0,D,120,Open,Raw,M,
4,Szántó Tibor,1976,HMTűzoltó,105.5,260.0,260.0,D,120,Open,Raw,M,
5,Szabó Ferenc,1985,BKMBvI,105.8,260.0,260.0,D,120,Open,Raw,M,
6,Szabó János,1982,HMTűzoltó,109.75,255.0,255.0,D,120,Open,Raw,M,
7,Farkas Béla,1992,SMRFK,116.3,250.0,250.0,D,120,Open,Raw,M,
8,Brindza Dénes,1987,BRFK,118.3,240.0,240.0,D,120,Open,Raw,M,
9,Jordán Lajos,1985,JNSZMRFK,115.75,235.0,235.0,D,120,Open,Raw,M,
10,Tábor Antal,1979,NBSz,108.6,220.0,220.0,D,120,Open,Raw,M,
1,Szabó Zsolt,1975,Debr.Polg.,150.0,350.0,350.0,D,120+,Open,Raw,M,
2,Szabó Zsolt Viktor,1976,Kóka,134.45,280.0,280.0,D,120+,Open,Raw,M,
3,Komár Zsolt,1989,MH,120.95,265.0,265.0,D,120+,Open,Raw,M,
4,Fekete Krisztián,1977,VáciRK,121.75,250.0,250.0,D,120+,Open,Raw,M,
5,Bózsvári Szabolcs,1975,HMRFK,140.3,235.0,235.0,D,120+,Open,Raw,M,
6,Faragó Gábor,1973,TolnaMBv,120.05,230.0,230.0,D,120+,Open,Raw,M,
7,Herpai Gábor,1986,Kiskunhala,127.05,220.0,220.0,D,120+,Open,Raw,M,
1,Csatlós Klaudia,1990,Készenléti,54.65,97.5,97.5,D,57,Open,Raw,F,
2,Vad Kriszitna,1981,FBvI,52.55,95.0,95.0,D,57,Open,Raw,F,
3,Horváth Kinga,1984,KEMRFK,56.05,92.5,92.5,D,57,Open,Raw,F,
1,Szigeti Tarr Mariann,1988,Készenléti,57.95,100.0,100.0,D,63,Open,Raw,F,
2,Varga Diana Noémi,1984,SzobPolg.,59.15,100.0,100.0,D,63,Open,Raw,F,
3,Szabó Piroska,1980,BAZ RSE,57.2,97.5,97.5,D,63,Open,Raw,F,
4,Szűcs Jolán,1993,HBMRFK,58.0,95.0,95.0,D,63,Open,Raw,F,
5,Pintér Zoltánné,1969,Márianoszt,62.25,95.0,95.0,D,63,Open,Raw,F,
6,Kelő Sára,1966,BRFK,59.25,85.0,85.0,D,63,Open,Raw,F,
7,Ujszászi-Bakai Lotti,1989,Készenléti,62.85,75.0,75.0,D,63,Open,Raw,F,
1,Sassné Kárai Zsuzsanna,1982,HBMRFK,70.95,122.5,122.5,D,72,Open,Raw,F,
2,Vaszil Anikó,1985,Készenléti,70.8,115.0,115.0,D,72,Open,Raw,F,
3,Hortobágyi Anikó,1989,Készenléti,64.6,107.5,107.5,D,72,Open,Raw,F,
4,Mihovics Szabina,1992,NKERTUD,69.25,90.0,90.0,D,72,Open,Raw,F,
1,Olajos Tünde,1989,Készenléti,79.65,130.0,130.0,D,84,Open,Raw,F,
2,Kovács Ivett,1986,FBvI,78.25,100.0,100.0,D,84,Open,Raw,F,
