Place,Name,Sex,BirthDate,BirthYear,Age,Equipment,Division,BodyweightKg,WeightClassKg,Squat1Kg,Squat2Kg,Squat3Kg,Best3SquatKg,Bench1Kg,Bench2Kg,Bench3Kg,Best3BenchKg,Deadlift1Kg,Deadlift2Kg,Deadlift3Kg,Best3DeadliftKg,TotalKg,Event
1,Jackie Caldona,F,,1989,,Raw,FR-O,51.02,52,100,107.5,112.5,112.5,55,60,62.5,62.5,120,130,140,140,315,SBD
1,Harvey Spencer,M,,2007,,Raw,MR-SJ,89.22,93,140,160,175,175,60,80,100,100,230,240,-250,240,515,SBD
2,Jack Richardson,M,,2005,,Raw,MR-SJ,90.6,93,145,152.5,160,160,85,92.5,-100,92.5,185,200,205,205,457.5,SBD
1,Lachlan Hancock,M,,2005,,Raw,MR-SJ,93.8,105,175,185,190,190,100,107.5,-115,107.5,235,-250,-250,235,532.5,SBD
1,Aaron Haines,M,,1983,,Raw,MR-M1,62.98,66,110,120,125,125,75,80,85,85,150,160,170,170,380,SBD
1,Leonardo Sucitra,M,,1995,,Raw,MR-O,73.84,74,210,230,240,240,125,135,142.5,142.5,245,265,277.5,277.5,660,SBD
1,Emiliano Alvarez,M,,1995,,Raw,MR-O,124.86,120+,300,315,-325,315,190,-195,-197.5,190,300,320,-330,320,825,SBD
1,Ben Paior-Smith,M,,2000,,Raw,Special Olympics,83.9,93,50,60,75,75,40,52.5,60,60,75,90,100,100,235,SBD
1,William Turner #4,M,,1999,,Raw,Special Olympics,137.45,120+,120,150,170,170,97.5,105,110,110,120,145,170,170,450,SBD