Division,WeightClassKg,Place,Name,Team,BodyweightKg,Best3SquatKg,Best3BenchKg,Best3DeadliftKg,TotalKg,Equipment,Event,Sex,BirthDate
Boys,51.71,1,Gonzalo Ortiz,Dublin,47.9,102.06,72.57,122.47,297.1,Unlimited,SBD,M,
Boys,51.71,2,Trevin McAlmond,Breckenridge,45.36,97.52,54.43,111.13,263.08,Unlimited,SBD,M,
Boys,51.71,DQ,Douglas Doerschuk,Hawley,51.71,38.56,70.31,61.23,,Unlimited,SBD,M,
Boys,51.71,DQ,Chey Wild,Breckenridge,51.26,102.06,52.16,83.91,,Unlimited,SBD,M,
Boys,55.79,1,Adrian Saucedo,Breckenridge,55.25,136.08,70.31,145.15,351.53,Unlimited,SBD,M,
Boys,55.79,2,Carlos Alvarado,Breckenridge,54.88,129.27,72.57,147.42,349.27,Unlimited,SBD,M,
Boys,55.79,3,Shiv Patel,Bowie,55.79,117.93,90.72,136.08,344.73,Unlimited,SBD,M,
Boys,55.79,4,Calib Hobbs,Hawley,54.7,113.4,70.31,133.81,317.51,Unlimited,SBD,M,
Boys,55.79,DQ,Robert Zambrano,Bowie,54.34,190.51,88.45,165.56,,Unlimited,SBD,M,
Boys,59.87,1,Cameron Patton,Dublin,59.78,185.97,133.81,172.37,492.15,Unlimited,SBD,M,
Boys,59.87,2,Erik Saucedo,Breckenridge,59.87,151.95,83.91,188.24,424.11,Unlimited,SBD,M,
Boys,59.87,3,Gavyn Brown,Bowie,56.06,142.88,102.06,174.63,419.57,Unlimited,SBD,M,
Boys,59.87,4,Braden Burleson,Hawley,57.88,158.76,113.4,142.88,415.04,Unlimited,SBD,M,
Boys,59.87,5,Andrew Colclasure,Comanche,58.15,158.76,83.91,145.15,387.82,Unlimited,SBD,M,
Boys,59.87,6,Jaydev Fernandez,Breckenridge,56.88,115.67,61.23,131.54,308.44,Unlimited,SBD,M,
Boys,67.13,1,Andre Reyes,Breckenridge,66.32,170.1,142.88,183.7,496.68,Unlimited,SBD,M,
Boys,67.13,2,Alex Saucedo,Breckenridge,65.86,163.29,99.79,204.12,467.2,Unlimited,SBD,M,
Boys,67.13,3,Cooper Mcshan,Bowie,60.96,179.17,108.86,170.1,458.13,Unlimited,SBD,M,
Boys,67.13,4,Eduardo Salazar,Breckenridge,66.95,149.69,97.52,183.7,430.91,Unlimited,SBD,M,
Boys,67.13,5,John Sackett,Breckenridge,66.95,149.69,79.38,174.63,403.7,Unlimited,SBD,M,
Boys,67.13,6,Julio Chavez,Breckenridge,66.32,145.15,88.45,165.56,399.16,Unlimited,SBD,M,
Boys,67.13,7,Darren Odell,Comanche,66.95,151.95,88.45,156.49,396.89,Unlimited,SBD,M,
Boys,67.13,8,Jaden Robles,Abilene Wylie,65.41,165.56,74.84,142.88,383.29,Unlimited,SBD,M,
Boys,67.13,9,Casyn Loving,Dublin,66.68,136.08,63.5,165.56,365.14,Unlimited,SBD,M,
Boys,67.13,10,Travis Spharler,Dublin,64.5,145.15,74.84,138.35,358.34,Unlimited,SBD,M,
Boys,67.13,11,Brayden Roensch,Hawley,61.23,120.2,74.84,124.74,319.78,Unlimited,SBD,M,
Boys,67.13,12,Geovany Almazan,Dublin,61.23,111.13,68.04,136.08,315.25,Unlimited,SBD,M,
Boys,74.84,1,Cosme Gonzalez,Comanche,70.76,222.26,147.42,222.26,591.94,Unlimited,SBD,M,
Boys,74.84,2,Nathan Roberts #4,Breckenridge,73.48,215.46,142.88,215.46,573.79,Unlimited,SBD,M,
Boys,74.84,3,Elijah Gonzales,Dublin,72.67,226.8,129.27,213.19,569.26,Unlimited,SBD,M,
Boys,74.84,4,Easton Gonzalez,Comanche,74.39,199.58,140.61,204.12,544.31,Unlimited,SBD,M,
Boys,74.84,5,Manuel Ortiz,Comanche,74.75,195.04,115.67,185.97,496.68,Unlimited,SBD,M,
Boys,74.84,6,Jack McKay,Breckenridge,74.03,188.24,115.67,181.44,485.34,Unlimited,SBD,M,
Boys,74.84,7,Ethan Stalling,Hawley,71.03,190.51,115.67,172.37,478.54,Unlimited,SBD,M,
Boys,74.84,8,Ladanian Smith,Comanche,70.94,156.49,97.52,149.69,403.7,Unlimited,SBD,M,
Boys,74.84,9,Monte Mayfield,Bowie,70.58,151.95,86.18,158.76,396.89,Unlimited,SBD,M,
Boys,74.84,10,Gunnar Pearce,Breckenridge,72.53,147.42,92.99,156.49,396.89,Unlimited,SBD,M,
Boys,74.84,11,James Calvery,Hawley,70.49,136.08,102.06,113.4,351.53,Unlimited,SBD,M,
Boys,74.84,12,Rios Daniel,Comanche,71.49,133.81,68.04,140.61,342.46,Unlimited,SBD,M,
Boys,82.1,1,Ashton Reyes,Breckenridge,82.01,249.48,170.1,238.14,657.71,Unlimited,SBD,M,
Boys,82.1,2,Danny Garcia,Abilene Wylie,80.74,249.48,161.03,231.33,641.83,Unlimited,SBD,M,
Boys,82.1,3,Jackson Carpenter,Abilene Wylie,80.92,217.72,142.88,242.67,603.28,Unlimited,SBD,M,
Boys,82.1,4,Jovani Cervantes,Dublin,74.93,213.19,120.2,210.92,544.31,Unlimited,SBD,M,
Boys,82.1,5,Noah Metzler,Bowie,80.56,156.49,102.06,170.1,428.64,Unlimited,SBD,M,
Boys,82.1,6,Aj Eggleston,Hawley,75.84,161.03,120.2,133.81,415.04,Unlimited,SBD,M,
Boys,82.1,7,Riley Kemp,Dublin,76.93,92.99,63.5,117.93,274.42,Unlimited,SBD,M,
Boys,89.81,1,Coeyn Warkala,Hawley,88.54,210.92,140.61,215.46,566.99,Unlimited,SBD,M,
Boys,89.81,2,Tripp Brewer,Bowie,88.27,233.6,133.81,179.17,546.58,Unlimited,SBD,M,
Boys,89.81,3,Lopez William,Comanche,85.28,156.49,106.59,170.1,433.18,Unlimited,SBD,M,
Boys,89.81,4,Noah Torres,Abilene Wylie,83.37,158.76,106.59,156.49,421.84,Unlimited,SBD,M,
Boys,89.81,5,Jett Black,Bowie,86.14,156.49,79.38,183.7,419.57,Unlimited,SBD,M,
Boys,89.81,6,Tello Zaden,Comanche,83.64,163.29,97.52,147.42,408.23,Unlimited,SBD,M,
Boys,89.81,7,Noah Smith,Comanche,85.64,149.69,95.25,147.42,392.36,Unlimited,SBD,M,
Boys,89.81,8,Jose Hernandez,Hawley,89.27,127.01,95.25,136.08,358.34,Unlimited,SBD,M,
Boys,89.81,9,Daniel Staud,Dublin,87.27,115.67,68.04,122.47,306.17,Unlimited,SBD,M,
Boys,89.81,DQ,Seth Strange,Abilene Wylie,89.81,,,,,Unlimited,SBD,M,
Boys,99.79,1,Kanyon Willeford,Hawley,93.26,215.46,192.78,215.46,623.69,Unlimited,SBD,M,
Boys,99.79,2,Chris Yagi,Abilene Wylie,94.98,233.6,138.35,213.19,585.13,Unlimited,SBD,M,
Boys,99.79,3,Caiden Marin,Breckenridge,96.34,215.46,142.88,215.46,573.79,Unlimited,SBD,M,
Boys,99.79,4,Jake Southall,Dublin,96.8,181.44,88.45,165.56,435.45,Unlimited,SBD,M,
Boys,99.79,5,Carson Couch,Breckenridge,96.89,115.67,77.11,156.49,349.27,Unlimited,SBD,M,
Boys,99.79,DQ,Isaac Acevedo,Abilene Wylie,99.79,,,,,Unlimited,SBD,M,
Boys,99.79,DQ,Cayden Hutchison,Abilene Wylie,99.79,,,,,Unlimited,SBD,M,
Boys,109.77,1,Carson Martin,Abilene Wylie,107.23,294.84,158.76,254.01,707.6,Unlimited,SBD,M,
Boys,109.77,2,Ethan Salas,Abilene Wylie,108.5,240.4,156.49,226.8,623.69,Unlimited,SBD,M,
Boys,109.77,3,Fabricio Davila,Breckenridge,106.59,197.31,142.88,265.35,605.55,Unlimited,SBD,M,
Boys,109.77,4,Miles Hatch,Comanche,100.33,206.38,129.27,167.83,503.49,Unlimited,SBD,M,
Boys,109.77,5,Josh Powers,Breckenridge,99.88,197.31,99.79,183.7,480.81,Unlimited,SBD,M,
Boys,109.77,6,Juan Elecerio,Dublin,104.51,179.17,90.72,172.37,442.25,Unlimited,SBD,M,
Boys,109.77,7,Juan Alvarez,Dublin,107.86,147.42,81.65,142.88,371.95,Unlimited,SBD,M,
Boys,109.77,DQ,Julian Yocom,Abilene Wylie,101.7,226.8,,,,Unlimited,SBD,M,
Boys,109.77,DQ,Cole Morton,Breckenridge,108.73,242.67,142.88,206.38,,Unlimited,SBD,M,
Boys,124.74,1,Noah Brown,Bowie,116.75,213.19,158.76,208.65,580.6,Unlimited,SBD,M,
Boys,124.74,2,Logan Lawson,Hawley,120.38,61.23,83.91,113.4,258.55,Unlimited,SBD,M,
Boys,139.71,1,Christian Ortega,Hawley,129.91,74.84,74.84,102.06,251.74,Unlimited,SBD,M,
Boys,139.71,DQ,Cameron Vann,Abilene Wylie,139.71,,,,,Unlimited,SBD,M,
Boys,139.71+,1,Jacobi McGregger,Bowie,145.88,222.26,161.03,188.24,571.53,Unlimited,SBD,M,
Boys,139.71+,2,Danny Lopez,Comanche,148.32,231.33,145.15,158.76,535.24,Unlimited,SBD,M,
