Place,Name,BirthDate,Sex,BirthYear,Age,Equipment,Division,BodyweightKg,WeightClassKg,Squat1Kg,Squat2Kg,Squat3Kg,Best3SquatKg,Bench1Kg,Bench2Kg,Bench3Kg,Best3BenchKg,Deadlift1Kg,Deadlift2Kg,Deadlift3Kg,Best3DeadliftKg,TotalKg,Event
DQ,Laila Youssef,,F,2005,17,Raw,Open,45.5,47,35,-37.5,37.5,37.5,-25,-25,-25,,50,55,57.5,57.5,,SBD
DQ,Amna Vakkayil,,F,2002,20,Raw,Open,46,47,30,35,42.5,42.5,-25,-25,-25,,50,60,62.5,62.5,,SBD
1,Mariam Mohammed,,F,2005,18,Raw,Open,51.6,52,42.5,47.5,-52.5,47.5,-32.5,-32.5,32.5,32.5,-65,65,72.5,72.5,152.5,SBD
2,Nahed Nissrin,,F,2005,18,Raw,Open,48.6,52,30,50,55,55,25,27.5,-30,27.5,-60,-65,67.5,67.5,150,SBD
3,Aisha Alqabandi,,F,2005,18,Raw,Open,51,52,25,27.5,35,35,-25,25,27.5,27.5,50,55,60,60,122.5,SBD
1,Rewa Hajjar,,F,2001,22,Raw,Open,55.1,57,110,117.5,122.5,122.5,52.5,57.5,60,60,132.5,142.5,150,150,332.5,SBD
2,Sheikha Khalid,,F,2003,20,Raw,Open,52.4,57,70,80,85,85,30,40,-42.5,40,80,90,95,95,220,SBD
3,Blair Peike Guo,,F,2004,19,Raw,Open,56.6,57,65,70,80,80,30,37.5,-40,37.5,70,80,90,90,207.5,SBD
DQ,Mariam Essa,,F,2001,22,Raw,Open,56.4,57,-60,-60,-60,,30,35,40,40,90,105,112.5,112.5,,SBD
DQ,Bashaer Zayed,,F,2005,18,Raw,Open,57.7,63,60,-65,67.5,67.5,45,-50,-50,45,-100,-110,-120,,,SBD
DQ,Fatinah Shaker,,F,2002,21,Raw,Open,61.7,63,-42.5,42.5,45,45,-30,-30,-30,,52.5,60,65,65,,SBD
1,Raniya Al-Janabi,,F,,,Raw,Open,68.3,69,110,117.5,122.5,122.5,57.5,60,62.5,62.5,137.5,147.5,157.5,157.5,342.5,SBD
2,Lana Orabi,,F,2004,19,Raw,Open,67.2,69,102.5,110,120,120,-65,70,-77.5,70,110,125,135,135,325,SBD
3,Hadeel Laila,,F,2004,19,Raw,Open,64.7,69,90,97.5,105,105,30,37.5,-45,37.5,105,115,130,130,272.5,SBD
4,Eva Vang,,F,2001,22,Raw,Open,66.7,69,75,85,92.5,92.5,-35,40,45,45,-80,90,100,100,237.5,SBD
5,Malak Wael,,F,2004,19,Raw,Open,64.7,69,72.5,80,-85,80,40,45,-52.5,45,-90,90,100,100,225,SBD
6,Jackie Hennecke,,F,2002,21,Raw,Open,64.6,69,-60,-65,65,65,45,-50,-50,45,80,92.5,105,105,215,SBD
7,Sohaila Almansori,,F,2000,22,Raw,Open,65.3,69,-75,-75,75,75,25,30,32.5,32.5,-75,85,-95,85,192.5,SBD
8,Zainab Salah Alamiri,,F,,,Raw,Open,68.5,69,45,55,60,60,25,-27.5,27.5,27.5,60,-62.5,70,70,157.5,SBD
1,Tabarak Mustafa Badri,,F,,,Raw,Open,74.5,76,115,122.5,125,125,60,65,70,70,125,-137.5,-137.5,125,320,SBD
2,Azza Ali,,F,2005,18,Raw,Open,74.4,76,-50,-50,50,50,25,30,32.5,32.5,65,70,75,75,157.5,SBD
DQ,Hana Saleh,,F,2004,19,Raw,Open,69.1,76,-50,-50,-50,,-30,30,-35,30,80,-90,-95,80,,SBD
1,Dihia Djourdikh,,F,2004,19,Raw,Open,79.6,84,97.5,105,112.5,112.5,57.5,60,-62.5,60,117.5,130,-140,130,302.5,SBD
2,Hager Mabrouk,,F,2002,21,Raw,Open,80.7,84,30,50,-60,50,-30,32.5,-35,32.5,80,90,100,100,182.5,SBD
1,Reem Omar,,F,2001,22,Raw,Open,112.6,84+,95,100,105,105,50,55,57.5,57.5,120,130,140,140,302.5,SBD
2,Hessa Alasmawi,,F,2004,18,Raw,Open,93.6,84+,-85,85,95,95,35,45,-47.5,45,100,110,-120,110,250,SBD
3,Mariam Radhi Al-talqani,,F,2005,18,Raw,Open,103,84+,67.5,70,77.5,77.5,40,45,-50,45,115,120,127.5,127.5,250,SBD
4,Sara Derouiche,,F,2005,18,Raw,Open,98.2,84+,40,50,-55,50,27.5,30,-40,30,-60,70,75,75,155,SBD
1,Fahad Alrefai,,M,,,Raw,Open,55.6,59,140,147.5,,147.5,80,85,,85,155,165,170,170,402.5,SBD
2,Mohammad Al Hakam,,M,2003,20,Raw,Open,58,59,100,105,-110,105,80,-85,-85,80,-150,150,-160,150,335,SBD
3,Mohamad Faisal Aldumaini,,M,2003,20,Raw,Open,56.2,59,80,87.5,95,95,60,-62.5,-62.5,60,135,-150,-150,135,290,SBD
DQ,Abdul Subhan,,M,1987,35,Raw,Open,52.3,59,-70,-70,-70,,-25,45,55,55,,,,,,SBD
DQ,Moaz Zahid Ahmad,,M,2003,19,Raw,Open,59,59,-90,95,100,100,65,-70,-70,65,-150,-150,-150,,,SBD
1,Hussain Alsabt,,M,2003,20,Raw,Open,65.4,66,140,150,160,160,100,105,110,110,220,235,-242.5,235,505,SBD
2,Mohammed Al Dhaheri,,M,1998,25,Raw,Open,63.2,66,-135,150,160,160,85,95,100,100,175,-185,-187.5,175,435,SBD
3,Hamza El Gindy,,M,2005,18,Raw,Open,61.4,66,112.5,117.5,122.5,122.5,-85,90,-95,90,165,175,-182.5,175,387.5,SBD
4,Saif Raid,,M,,,Raw,Open,62.3,66,60,-70,70,70,-80,85,-92.5,85,150,-170,175,175,330,SBD
5,Rishab Rampure,,M,2006,17,Raw,Open,63.2,66,-75,75,85,85,65,75,-80,75,100,115,127.5,127.5,287.5,SBD
DQ,Salman Yasser Balbahaith,,M,2001,22,Raw,Open,61.4,66,-110,-130,-140,,70,80,-85,80,145,150,165,165,,SBD
DQ,Nyasha Malvin Chiraya,,M,2001,22,Raw,Open,64.8,66,-70,-80,-80,,-95,97.5,-100,97.5,-170,-170,-170,,,SBD
1,Hamzah Zoual-Ghena,,M,2002,21,Raw,Open,73.3,74,175,180,185,185,-120,120,-122.5,120,205,-210,210,210,515,SBD
2,Nicholas Raffone,,M,2002,21,Raw,Open,71.4,74,-170,170,180,180,110,120,-122.5,120,180,195,200,200,500,SBD
3,Ahmad Fayyad,,M,,,Raw,Open,72.9,74,-140,150,-160,150,115,-120,120,120,160,180,205,205,475,SBD
4,Shamil Tholoor,,M,2001,22,Raw,Open,72.1,74,140,150,160,160,115,125,-130,125,175,-185,-190,175,460,SBD
5,Mohammad Darwish Alrahmah,,M,2003,20,Raw,Open,71.3,74,120,-140,145,145,95,-100,-105,95,160,180,-190,180,420,SBD
6,Akhilesh Bisht,,M,2004,19,Raw,Open,71.9,74,127.5,135,145,145,77.5,85,90,90,157.5,165,172.5,172.5,407.5,SBD
7,Mohammad Abdullah,,M,2005,18,Raw,Open,73.9,74,-95,-95,105,105,50,62.5,-67.5,62.5,115,130,-135,130,297.5,SBD
8,Rashid Anwar Alafifi,,M,1998,24,Raw,Open,71.1,74,100,115,-125,115,55,-60,65,65,100,105,110,110,290,SBD
DQ,Ahmed Alqubaisi,,M,1999,24,Raw,Open,70.8,74,-140,-140,-140,,-80,80,-95,80,180,200,-210,200,,SBD
1,Nartan Shapsugh,,M,2000,23,Raw,Open,82.1,83,200,210,-215,210,135,142.5,-147.5,142.5,215,235,247.5,247.5,600,SBD
2,Issa Al Darras,,M,2005,18,Raw,Open,82.7,83,172.5,182.5,187.5,187.5,115,122.5,127.5,127.5,210,230,-237.5,230,545,SBD
3,Abdelrahman Abualfeilat,,M,2001,22,Raw,Open,82.4,83,180,190,200,200,110,117.5,-122.5,117.5,185,200,215,215,532.5,SBD
4,Ryoji Kubo,,M,2000,23,Raw,Open,81.7,83,170,180,187.5,187.5,120,127.5,132.5,132.5,180,195,210,210,530,SBD
5,Mohamed Alhariri,,M,,,Raw,Open,81.7,83,140,-150,-155,140,132.5,140,,140,160,172.5,-180,172.5,452.5,SBD
6,Shannen Antonio Rodrigues,,M,2003,20,Raw,Open,81.1,83,-137.5,137.5,152.5,152.5,100,107.5,112.5,112.5,180,-192.5,-200,180,445,SBD
7,Mohammad Alsheroa,,M,2003,20,Raw,Open,77.1,83,125,132.5,140,140,75,82.5,90,90,-150,160,170,170,400,SBD
DQ,Mostafa Indorewala,,M,,,Raw,Open,82.1,83,90,100,115,115,-70,-70,70,70,-135,-150,-152.5,,,SBD
DQ,Salem Alseiari,,M,2000,23,Raw,Open,82.9,83,130,-140,145,145,-100,-110,-110,,170,185,-195,185,,SBD
1,Ahmed Bassem Mostafa,,M,2000,23,Raw,Open,91.8,93,210,225,,225,150,-160,-160,150,250,265,272.5,272.5,647.5,SBD
2,Mohammed Rammal,,M,,,Raw,Open,90.5,93,160,170,177.5,177.5,110,120,125,125,200,220,252.5,252.5,555,SBD
3,Hussein Bakarwah,,M,2003,20,Raw,Open,89.1,93,180,-190,192.5,192.5,120,130,140,140,180,200,220,220,552.5,SBD
4,Abdullah Alzeerah,,M,,,Raw,Open,91.5,93,165,-170,175,175,142.5,-147.5,-147.5,142.5,225,232.5,-240,232.5,550,SBD
5,Suhayl Dastager,,M,2003,19,Raw,Open,91.3,93,175,187.5,192.5,192.5,112.5,120,125,125,180,190,200,200,517.5,SBD
6,Yousef Kataw,,M,2006,17,Raw,Open,91.1,93,155,162.5,170,170,-112.5,115,-120,115,200,215,230,230,515,SBD
7,Faheem Latheef,,M,2005,18,Raw,Open,88.8,93,145,160,-165,160,95,105,110,110,210,227.5,235,235,505,SBD
8,Usman Hussain,,M,2001,22,Raw,Open,91.2,93,150,160,165,165,-117.5,117.5,122.5,122.5,-200,200,210,210,497.5,SBD
9,Edison Chen,,M,2003,20,Raw,Open,86.6,93,140,150,165,165,92.5,105,-112.5,105,160,175,-185,175,445,SBD
10,Abdalla Abdelsamei,,M,2006,17,Raw,Open,86.1,93,120,-130,130,130,-80,85,87.5,87.5,180,-190,-190,180,397.5,SBD
11,Ali Almansoori,,M,2000,23,Raw,Open,89.9,93,85,-90,95,95,85,95,105,105,120,140,160,160,360,SBD
1,Ahmet Tarik Ihlasi,,M,2002,21,Raw,Open,102.9,105,225,235,-240,235,142.5,150,-160,150,235,245,-260,245,630,SBD
2,Saif Farroukh,,M,2005,17,Raw,Open,103,105,-190,190,205,205,140,145,-150,145,232.5,245,260,260,610,SBD
3,Medhat Abouzeid,,M,2001,22,Raw,Open,102.7,105,182.5,192.5,205,205,140,147.5,150,150,225,-235,235,235,590,SBD
DQ,Abdullah Al Hashimi,,M,1998,25,Raw,Open,102.2,105,-200,-200,-200,,-120,-120,,,-240,-250,-260,,,SBD
DQ,Himon Genanew Bekele,,M,2004,19,Raw,Open,104.4,105,-150,-150,-150,,-105,115,-125,115,115,160,190,190,,SBD
1,Abbas Mohamed Zahid,,M,1997,26,Raw,Open,109.1,120,225,-240,240,240,165,172.5,-175,172.5,250,-260,260,260,672.5,SBD
2,Ahmed Zaki,,M,,,Raw,Open,118.2,120,-200,210,-220,210,120,127.5,132.5,132.5,220,225,240,240,582.5,SBD
3,Abdullah Ahmed Al Hosani,,M,2002,21,Raw,Open,107.4,120,185,195,200,200,110,-117.5,117.5,117.5,225,232.5,-240,232.5,550,SBD
4,Muhammed Raza Mirza,,M,2004,18,Raw,Open,116.9,120,172.5,187.5,-200,187.5,107.5,117.5,120,120,207.5,230,-252.5,230,537.5,SBD
5,Safwan Adnan,,M,,,Raw,Open,107.9,120,120,-127.5,-130,120,125,-132.5,-137.5,125,-160,165,-180,165,410,SBD
1,Basil Omar Hilal,,M,2002,21,Raw,Open,125.9,120+,240,252.5,262.5,262.5,145,155,160,160,240,252.5,-262.5,252.5,675,SBD
2,Ilyas Bakaiev,,M,2002,21,Raw,Open,123.4,120+,215,230,237.5,237.5,152.5,160,165,165,242.5,260,-272.5,260,662.5,SBD
3,Abdullah Alhammadi #2,,M,2002,20,Raw,Open,162.8,120+,220,235,240,240,130,140,,140,230,250,262.5,262.5,642.5,SBD
4,Seif Noury,,M,2003,20,Raw,Open,121.3,120+,140,150,155,155,110,115,120,120,180,190,205,205,480,SBD
DQ,Saud Hussam AlHussain,,M,,,Raw,Open,164.7,120+,60,110,-112.5,110,-105,-105,-105,,-60,,,,,SBD
